<?xml version="1.0" encoding="UTF-8" standalone="no"?>
<!-- Created with Inkscape (http://www.inkscape.org/) -->

<svg
   xmlns:dc="http://purl.org/dc/elements/1.1/"
   xmlns:cc="http://creativecommons.org/ns#"
   xmlns:rdf="http://www.w3.org/1999/02/22-rdf-syntax-ns#"
   xmlns:svg="http://www.w3.org/2000/svg"
   xmlns="http://www.w3.org/2000/svg"
   xmlns:xlink="http://www.w3.org/1999/xlink"
   xmlns:sodipodi="http://sodipodi.sourceforge.net/DTD/sodipodi-0.dtd"
   xmlns:inkscape="http://www.inkscape.org/namespaces/inkscape"
   width="210mm"
   height="297mm"
   viewBox="0 0 210 297"
   version="1.1"
   id="svg8"
   inkscape:version="0.92.3 (2405546, 2018-03-11)"
   sodipodi:docname="mechanical-composition.svg">
  <defs
     id="defs2">
    <inkscape:path-effect
       effect="powerstroke"
       id="path-effect5138"
       is_visible="true"
       offset_points="0,0.13229166"
       sort_points="true"
       interpolator_type="CubicBezierJohan"
       interpolator_beta="0.2"
       start_linecap_type="zerowidth"
       linejoin_type="extrp_arc"
       miter_limit="4"
       end_linecap_type="zerowidth" />
    <inkscape:path-effect
       effect="skeletal"
       id="path-effect5130"
       is_visible="true"
       pattern="M 0,5 C 0,2.24 2.24,0 5,0 7.76,0 10,2.24 10,5 10,7.76 7.76,10 5,10 2.24,10 0,7.76 0,5 Z"
       copytype="single_stretched"
       prop_scale="1"
       scale_y_rel="false"
       spacing="0"
       normal_offset="0"
       tang_offset="0"
       prop_units="false"
       vertical_pattern="false"
       fuse_tolerance="0" />
    <linearGradient
       inkscape:collect="always"
       id="linearGradient5088">
      <stop
         style="stop-color:#000000;stop-opacity:1;"
         offset="0"
         id="stop5084" />
      <stop
         style="stop-color:#000000;stop-opacity:0;"
         offset="1"
         id="stop5086" />
    </linearGradient>
    <linearGradient
       inkscape:collect="always"
       id="linearGradient961">
      <stop
         style="stop-color:#000000;stop-opacity:1;"
         offset="0"
         id="stop957" />
      <stop
         style="stop-color:#000000;stop-opacity:0;"
         offset="1"
         id="stop959" />
    </linearGradient>
    <linearGradient
       inkscape:collect="always"
       id="linearGradient935">
      <stop
         style="stop-color:#000000;stop-opacity:1;"
         offset="0"
         id="stop931" />
      <stop
         style="stop-color:#000000;stop-opacity:0;"
         offset="1"
         id="stop933" />
    </linearGradient>
    <linearGradient
       inkscape:collect="always"
       id="linearGradient918">
      <stop
         style="stop-color:#000000;stop-opacity:0"
         offset="0"
         id="stop914" />
      <stop
         style="stop-color:#000000;stop-opacity:1"
         offset="1"
         id="stop916" />
    </linearGradient>
    <linearGradient
       inkscape:collect="always"
       id="linearGradient872">
      <stop
         style="stop-color:#000000;stop-opacity:1;"
         offset="0"
         id="stop868" />
      <stop
         style="stop-color:#000000;stop-opacity:0;"
         offset="1"
         id="stop870" />
    </linearGradient>
    <linearGradient
       inkscape:collect="always"
       xlink:href="#linearGradient872"
       id="linearGradient874"
       x1="78.176331"
       y1="98.285095"
       x2="121.07309"
       y2="89.866112"
       gradientUnits="userSpaceOnUse"
       gradientTransform="translate(-67.88646,-0.13363477)" />
    <radialGradient
       inkscape:collect="always"
       xlink:href="#linearGradient918"
       id="radialGradient922"
       cx="292.68246"
       cy="156.79781"
       fx="292.68246"
       fy="156.79781"
       r="51.59375"
       gradientUnits="userSpaceOnUse"
       gradientTransform="matrix(2.2132274,0.01709916,-0.01831878,2.3710884,-352.21805,-219.98828)" />
    <linearGradient
       inkscape:collect="always"
       xlink:href="#linearGradient935"
       id="linearGradient937"
       x1="404.43475"
       y1="182.09511"
       x2="446.76785"
       y2="148.83331"
       gradientUnits="userSpaceOnUse"
       gradientTransform="translate(-232.51577,-126.46382)" />
    <linearGradient
       inkscape:collect="always"
       xlink:href="#linearGradient961"
       id="linearGradient963"
       x1="692.97449"
       y1="716.1925"
       x2="1503.1078"
       y2="342.4361"
       gradientUnits="userSpaceOnUse" />
    <linearGradient
       inkscape:collect="always"
       xlink:href="#linearGradient961"
       id="linearGradient975"
       gradientUnits="userSpaceOnUse"
       x1="692.97449"
       y1="716.1925"
       x2="1503.1078"
       y2="342.4361" />
    <radialGradient
       inkscape:collect="always"
       xlink:href="#linearGradient918"
       id="radialGradient4917"
       gradientUnits="userSpaceOnUse"
       gradientTransform="matrix(2.2132274,0.01709916,-0.01831878,2.3710884,-352.21805,-219.98828)"
       cx="292.68246"
       cy="156.79781"
       fx="292.68246"
       fy="156.79781"
       r="51.59375" />
    <radialGradient
       inkscape:collect="always"
       xlink:href="#linearGradient918"
       id="radialGradient4927"
       gradientUnits="userSpaceOnUse"
       gradientTransform="matrix(2.2132274,0.01709916,-0.01831878,2.3710884,-352.21805,-219.98828)"
       cx="292.68246"
       cy="156.79781"
       fx="292.68246"
       fy="156.79781"
       r="51.59375" />
    <linearGradient
       inkscape:collect="always"
       xlink:href="#linearGradient872"
       id="linearGradient4946"
       gradientUnits="userSpaceOnUse"
       gradientTransform="translate(-67.88646,-0.13363477)"
       x1="78.176331"
       y1="98.285095"
       x2="121.07309"
       y2="89.866112" />
    <linearGradient
       inkscape:collect="always"
       xlink:href="#linearGradient872"
       id="linearGradient4956"
       gradientUnits="userSpaceOnUse"
       gradientTransform="translate(-67.88646,-0.13363477)"
       x1="78.176331"
       y1="98.285095"
       x2="121.07309"
       y2="89.866112" />
    <linearGradient
       inkscape:collect="always"
       xlink:href="#linearGradient872"
       id="linearGradient4966"
       gradientUnits="userSpaceOnUse"
       gradientTransform="translate(-67.88646,-0.13363477)"
       x1="78.176331"
       y1="98.285095"
       x2="121.07309"
       y2="89.866112" />
    <linearGradient
       inkscape:collect="always"
       xlink:href="#linearGradient872"
       id="linearGradient5000"
       gradientUnits="userSpaceOnUse"
       gradientTransform="translate(-67.88646,-0.13363477)"
       x1="78.176331"
       y1="98.285095"
       x2="121.07309"
       y2="89.866112" />
    <linearGradient
       inkscape:collect="always"
       xlink:href="#linearGradient872"
       id="linearGradient5002"
       gradientUnits="userSpaceOnUse"
       gradientTransform="translate(-67.88646,-0.13363477)"
       x1="78.176331"
       y1="98.285095"
       x2="121.07309"
       y2="89.866112" />
    <linearGradient
       inkscape:collect="always"
       xlink:href="#linearGradient872"
       id="linearGradient5004"
       gradientUnits="userSpaceOnUse"
       gradientTransform="translate(-67.88646,-0.13363477)"
       x1="78.176331"
       y1="98.285095"
       x2="121.07309"
       y2="89.866112" />
    <linearGradient
       inkscape:collect="always"
       xlink:href="#linearGradient872"
       id="linearGradient5006"
       gradientUnits="userSpaceOnUse"
       gradientTransform="translate(-67.88646,-0.13363477)"
       x1="78.176331"
       y1="98.285095"
       x2="121.07309"
       y2="89.866112" />
    <linearGradient
       inkscape:collect="always"
       xlink:href="#linearGradient935"
       id="linearGradient5071"
       gradientUnits="userSpaceOnUse"
       gradientTransform="translate(-232.51577,-126.46382)"
       x1="404.43475"
       y1="182.09511"
       x2="446.76785"
       y2="148.83331" />
    <linearGradient
       inkscape:collect="always"
       xlink:href="#linearGradient5088"
       id="linearGradient5090"
       x1="346.71469"
       y1="268.90912"
       x2="536.77679"
       y2="268.90912"
       gradientUnits="userSpaceOnUse" />
    <linearGradient
       inkscape:collect="always"
       xlink:href="#linearGradient5088"
       id="linearGradient5094"
       gradientUnits="userSpaceOnUse"
       x1="443.55704"
       y1="654.67291"
       x2="443.55704"
       y2="101.17327" />
  </defs>
  <sodipodi:namedview
     id="base"
     pagecolor="#ffffff"
     bordercolor="#666666"
     borderopacity="1.0"
     inkscape:pageopacity="0.0"
     inkscape:pageshadow="2"
     inkscape:zoom="0.23327654"
     inkscape:cx="1258.5081"
     inkscape:cy="507.91565"
     inkscape:document-units="mm"
     inkscape:current-layer="layer2"
     showgrid="false"
     inkscape:window-width="1853"
     inkscape:window-height="1025"
     inkscape:window-x="67"
     inkscape:window-y="27"
     inkscape:window-maximized="1"
     inkscape:object-nodes="true"
     inkscape:snap-nodes="true"
     inkscape:object-paths="true"
     inkscape:snap-global="true"
     inkscape:snap-bbox="true"
     inkscape:bbox-paths="true"
     showborder="false" />
  <metadata
     id="metadata5">
    <rdf:RDF>
      <cc:Work
         rdf:about="">
        <dc:format>image/svg+xml</dc:format>
        <dc:type
           rdf:resource="http://purl.org/dc/dcmitype/StillImage" />
        <dc:title />
      </cc:Work>
    </rdf:RDF>
  </metadata>
  <g
     inkscape:label="techno"
     inkscape:groupmode="layer"
     id="layer1"
     sodipodi:insensitive="true"
     style="display:inline">
    <path
       style="fill:none;fill-rule:evenodd;stroke:#6d6d6d;stroke-width:2;stroke-linecap:butt;stroke-linejoin:miter;stroke-miterlimit:4;stroke-dasharray:none;stroke-opacity:1"
       d="m -61.172791,47.507834 c 0,11.954035 5.010186,18.131655 18.131655,18.131655 H 153.76059 c 8.28821,0 9.63826,0.564616 14.73605,5.662406 l 60.11284,60.112845 h 126.68599 c 12.84347,0 19.9582,-0.0515 19.9582,-12.43987 V 32.338752 c 0,-13.019604 6.64464,-16.306752 19.02137,-16.306752 h 205.2556"
       id="path5016"
       inkscape:connector-curvature="0"
       sodipodi:nodetypes="cccccccccc" />
    <rect
       style="opacity:1;fill:#b3acac;fill-opacity:1;stroke:none;stroke-width:0.26499999;stroke-linecap:square;stroke-miterlimit:4;stroke-dasharray:none;stroke-dashoffset:0;stroke-opacity:1"
       id="rect4894"
       width="99.435677"
       height="74.131271"
       x="537.82043"
       y="-7.7716331"
       ry="7.088779"
       rx="7.088779" />
    <g
       id="g967"
       transform="matrix(0.83960893,0,0,0.83960893,-67.825885,-265.90144)"
       style="stroke-width:1.19103062">
      <path
         id="rect943"
         transform="scale(0.26458333)"
         d="m 1042.2363,-37.134766 c -37.9146,0 -68.43942,30.5229633 -68.43942,68.4375 v 371.562496 210.72461 28.85547 c 0,91.95757 180.00002,479.58199 180.00002,479.58199 h 20 16.1738 20 c 0,0 180,-387.62442 180,-479.58199 V 613.58984 402.86523 31.302734 c 0,-37.9145366 -30.5249,-68.4375 -68.4395,-68.4375 h -131.5605 -16.1738 z"
         style="fill:#afafaf;fill-opacity:1;stroke:none;stroke-width:1.19290626;stroke-linecap:square;stroke-miterlimit:4;stroke-dasharray:none;stroke-dashoffset:0;stroke-opacity:1"
         inkscape:connector-curvature="0" />
      <path
         style="fill:url(#linearGradient963);fill-opacity:1;stroke:none;stroke-width:1.19290626;stroke-linecap:square;stroke-miterlimit:4;stroke-dasharray:none;stroke-dashoffset:0;stroke-opacity:1"
         d="m 1042.2363,-37.134766 c -37.9146,0 -68.43942,30.5229633 -68.43942,68.4375 v 371.562496 210.72461 28.85547 c 0,91.95757 180.00002,479.58199 180.00002,479.58199 h 20 16.1738 20 c 0,0 180,-387.62442 180,-479.58199 V 613.58984 402.86523 31.302734 c 0,-37.9145366 -30.5249,-68.4375 -68.4395,-68.4375 h -131.5605 -16.1738 z"
         transform="scale(0.26458333)"
         id="path955"
         inkscape:connector-curvature="0" />
    </g>
    <g
       style="stroke-width:1.19103062"
       transform="matrix(0.83960893,0,0,0.83960893,48.590787,-265.90144)"
       id="g973">
      <path
         inkscape:connector-curvature="0"
         style="fill:#afafaf;fill-opacity:1;stroke:none;stroke-width:1.19290626;stroke-linecap:square;stroke-miterlimit:4;stroke-dasharray:none;stroke-dashoffset:0;stroke-opacity:1"
         d="m 1042.2363,-37.134766 c -37.9146,0 -68.43942,30.5229633 -68.43942,68.4375 v 371.562496 210.72461 28.85547 c 0,91.95757 180.00002,479.58199 180.00002,479.58199 h 20 16.1738 20 c 0,0 180,-387.62442 180,-479.58199 V 613.58984 402.86523 31.302734 c 0,-37.9145366 -30.5249,-68.4375 -68.4395,-68.4375 h -131.5605 -16.1738 z"
         transform="scale(0.26458333)"
         id="path969" />
      <path
         inkscape:connector-curvature="0"
         id="path971"
         transform="scale(0.26458333)"
         d="m 1042.2363,-37.134766 c -37.9146,0 -68.43942,30.5229633 -68.43942,68.4375 v 371.562496 210.72461 28.85547 c 0,91.95757 180.00002,479.58199 180.00002,479.58199 h 20 16.1738 20 c 0,0 180,-387.62442 180,-479.58199 V 613.58984 402.86523 31.302734 c 0,-37.9145366 -30.5249,-68.4375 -68.4395,-68.4375 h -131.5605 -16.1738 z"
         style="fill:url(#linearGradient975);fill-opacity:1;stroke:none;stroke-width:1.19290626;stroke-linecap:square;stroke-miterlimit:4;stroke-dasharray:none;stroke-dashoffset:0;stroke-opacity:1" />
    </g>
    <g
       id="g4869"
       transform="matrix(0.9169068,0,0,0.9169068,23.124526,-24.362677)"
       style="stroke-width:1.09062338">
      <path
         id="rect1002"
         d="m 545.95431,19.223633 v 23.657988 l -16.72868,-16.728696 -4.05505,4.055051 16.7292,16.728694 h -23.65851 v 5.734016 h 23.65851 l -16.7292,16.729212 4.05452,4.054533 16.72921,-16.729212 v 23.658504 h 5.73453 V 56.725735 l 16.7287,16.728696 4.05506,-4.055049 -16.72921,-16.728696 h 23.65849 V 46.93667 H 555.74339 L 572.4726,30.207458 568.41807,26.152925 551.68884,42.882137 V 19.223633 Z"
         style="opacity:1;fill:#7c7070;fill-opacity:1;stroke:none;stroke-width:0.2890152;stroke-linecap:square;stroke-miterlimit:4;stroke-dasharray:none;stroke-dashoffset:0;stroke-opacity:1"
         inkscape:connector-curvature="0" />
      <path
         id="path995"
         d="m 548.82134,14.274064 a 35.529763,35.529763 0 0 0 -35.52963,35.529615 35.529763,35.529763 0 0 0 35.52963,35.529612 35.529763,35.529763 0 0 0 35.53012,-35.529612 35.529763,35.529763 0 0 0 -35.53012,-35.529615 z m 0,7.559228 a 27.970236,27.970236 0 0 1 27.97037,27.970387 27.970236,27.970236 0 0 1 -27.97037,27.970384 27.970236,27.970236 0 0 1 -27.96987,-27.970384 27.970236,27.970236 0 0 1 27.96987,-27.970387 z"
         style="opacity:1;fill:#7c7070;fill-opacity:1;stroke:none;stroke-width:0.28901517;stroke-linecap:square;stroke-miterlimit:4;stroke-dasharray:none;stroke-dashoffset:0;stroke-opacity:1"
         inkscape:connector-curvature="0" />
      <path
         inkscape:transform-center-x="7.2831853e-06"
         d="m 567.19045,49.803677 -9.88355,3.514727 4.50343,9.474013 -9.47401,-4.503437 -3.51473,9.883549 -3.51472,-9.883549 -9.47402,4.503437 4.50344,-9.474013 -9.88355,-3.514727 9.88355,-3.514728 -4.50344,-9.474013 9.47402,4.503437 3.51472,-9.883549 3.51473,9.883549 9.47401,-4.503437 -4.50343,9.474013 z"
         inkscape:randomized="0"
         inkscape:rounded="0"
         inkscape:flatsided="false"
         sodipodi:arg2="0.39269908"
         sodipodi:arg1="0"
         sodipodi:r2="9.1844263"
         sodipodi:r1="18.368853"
         sodipodi:cy="49.803677"
         sodipodi:cx="548.82159"
         sodipodi:sides="8"
         id="path1013"
         style="opacity:1;fill:#7c7070;fill-opacity:1;stroke:none;stroke-width:0.28901517;stroke-linecap:square;stroke-miterlimit:4;stroke-dasharray:none;stroke-dashoffset:0;stroke-opacity:1"
         sodipodi:type="star" />
      <path
         sodipodi:nodetypes="cccccccccccccccccccccccccccccccccccccccccccccccccccccccccccscccccccccccccccccccccccccccccccccccccccccccccccccccccccccccccccccccccccccccccccccccccccccccccccccccccccccccccccccccccccccccccccccccccccccccccccccccccccccccccccccccccccccccccccccccccccccccccccccccccccccccccccccccccccccccccccccccccccccccccccccccccccccccacccccccccccccccccccccccccccccccccccccccccccccccccccc"
         inkscape:connector-curvature="0"
         id="rect1038"
         d="m 547.96763,12.448852 v 1.868103 c 0.28437,-0.01772 0.56899,-0.03202 0.8537,-0.04289 0.28501,0.0066 0.56994,0.01655 0.85471,0.02997 v -1.855184 z m -1.5503,0.0677 -1.70273,0.148828 0.16174,1.846398 c 0.56719,-0.05552 1.13562,-0.09739 1.70482,-0.125573 z m 4.80848,0 -0.1607,1.837097 c 0.56792,0.04734 1.13466,0.108333 1.69965,0.182934 l 0.16381,-1.871203 z m -8.04963,0.351399 -1.68259,0.296623 0.31938,1.810225 c 0.56116,-0.09863 1.12459,-0.183749 1.68981,-0.255281 z m 11.29028,0 -0.32351,1.835547 c 0.56288,0.08779 1.12355,0.189105 1.68156,0.303857 l 0.32504,-1.842781 z m -14.48697,0.63252 -1.65158,0.44235 0.48058,1.793689 c 0.54878,-0.154174 1.1012,-0.295119 1.65675,-0.422713 z m 17.68469,0 -0.48524,1.810742 c 0.55507,0.128817 1.10696,0.270968 1.65521,0.426331 l 0.48111,-1.794723 z m -20.81577,0.908988 -1.6061,0.584461 0.63976,1.757515 c 0.53041,-0.208183 1.06577,-0.403577 1.60557,-0.586011 z m 23.94635,0 -0.64286,1.766301 c 0.54414,0.169231 1.08416,0.351529 1.61954,0.546736 l 0.62889,-1.728576 z m -26.98544,1.178223 -1.54926,0.72192 0.79375,1.702221 c 0.50694,-0.260179 1.02005,-0.508125 1.53892,-0.743624 z m 30.02452,0 -0.79375,1.702738 c 0.52539,0.220009 1.0454,0.452621 1.55959,0.697632 l 0.7829,-1.67845 z m -32.94993,1.438672 -1.48,0.854211 0.93998,1.627808 c 0.20706,-0.133596 0.4155,-0.265029 0.62529,-0.394279 0.27538,-0.169663 0.55309,-0.335565 0.83302,-0.497657 z m 35.87482,0 -0.93585,1.620572 c 0.50093,0.271602 0.99528,0.555215 1.48259,0.850595 l 0.93326,-1.616956 z m -38.66327,1.687752 -1.39991,0.980302 1.0759,1.53634 c 0.4548,-0.343192 0.91776,-0.675395 1.38854,-0.996322 z m 41.45225,0 -1.06662,1.522904 c 0.47128,0.320224 0.9348,0.651738 1.39012,0.994255 l 1.0759,-1.536857 z m -44.08311,1.924947 -1.30897,1.098641 1.19944,1.42937 c 0.42815,-0.37581 0.86529,-0.741268 1.31101,-1.096057 z m 46.71344,0 -1.18341,1.41025 c 0.43723,0.365673 0.86556,0.741814 1.28469,1.128096 l 1.20819,-1.439705 z m -49.16599,2.146639 -1.20872,1.208195 1.30897,1.308964 c 0.39952,-0.406315 0.80873,-0.80296 1.22732,-1.189591 z m 51.61907,0 -1.30844,1.308447 c 0.40632,0.399507 0.80295,0.80873 1.18959,1.227316 l 1.32755,-1.327568 z m -53.87578,2.352311 -1.09866,1.308964 1.41026,1.183391 c 0.36568,-0.437039 0.74184,-0.865214 1.1281,-1.28416 z m 56.13249,0 -1.42938,1.19941 c 0.37581,0.42816 0.74128,0.865296 1.09606,1.311032 l 1.43195,-1.201478 z m -58.17579,2.539898 -0.97978,1.399913 1.52292,1.066086 c 0.32006,-0.471091 0.6514,-0.934419 0.99372,-1.389581 z m 60.21856,0 -1.53636,1.075902 c 0.34335,0.454617 0.67575,0.917429 0.99685,1.38803 l 1.51982,-1.064019 z m -62.03238,2.70836 -0.85424,1.480013 1.62111,0.93586 c 0.27143,-0.500769 0.55488,-0.994939 0.85007,-1.482079 z m 63.84623,0 -1.62782,0.939477 c 0.30914,0.479044 0.60671,0.965462 0.89246,1.458828 l 1.59007,-0.918292 z m -65.41669,2.856156 -0.72192,1.548743 1.70222,0.79375 c 0.22019,-0.525385 0.45297,-1.0454 0.69816,-1.559594 z m 66.98765,0 -1.70172,0.79375 c 0.26001,0.506941 0.50779,1.020066 0.74311,1.538925 l 1.68103,-0.783932 z m -68.30385,2.982248 -0.58446,1.606103 1.76577,0.642855 c 0.16939,-0.544332 0.35187,-1.084506 0.54727,-1.620057 z m 69.61952,0 -1.75752,0.639755 c 0.20836,0.530415 0.40391,1.065765 0.58653,1.605586 l 1.75649,-0.639238 z m -70.6701,3.0856 -0.44286,1.650545 1.81073,0.48524 c 0.12882,-0.555072 0.27096,-1.106963 0.42632,-1.655196 z m 71.72121,0 -1.79369,0.480589 c 0.15433,0.548431 0.29546,1.100497 0.42323,1.655715 l 1.81332,-0.485759 z m -72.49946,3.165181 -0.29662,1.683102 1.83555,0.323493 c 0.0876,-0.562867 0.18875,-1.123548 0.30334,-1.681552 z m 73.27771,0 -1.81023,0.31936 c 0.0988,0.561311 0.1841,1.124921 0.2558,1.690336 l 1.85105,-0.326594 z m -73.77743,3.220993 -0.14882,1.702736 1.8371,0.160716 c 0.0473,-0.567931 0.10832,-1.134642 0.18294,-1.699638 z m 74.27662,5.29e-4 -1.8459,0.161232 c 0.0555,0.567179 0.0974,1.13561 0.12557,1.704803 l 1.86966,-0.163815 z m -74.49312,3.251999 v 1.709454 h 1.86809 c -0.0177,-0.284726 -0.032,-0.569656 -0.0429,-0.854726 0.007,-0.285022 0.0169,-0.569952 0.0305,-0.854728 z m 72.84206,0 c 0.0177,0.284726 0.032,0.569656 0.0429,0.854728 -0.007,0.28502 -0.0167,0.569947 -0.03,0.854726 h 1.85468 v -1.709454 z m -70.90473,3.095416 -1.86965,0.163817 0.14935,1.70222 1.84587,-0.161748 c -0.0555,-0.567007 -0.0974,-1.135268 -0.12557,-1.704289 z m 70.86803,0.0031 c -0.0473,0.567759 -0.10834,1.134298 -0.18293,1.699123 l 1.87069,0.163814 0.14882,-1.702221 z m -70.53471,3.07475 -1.85105,0.326593 0.29662,1.683102 1.81023,-0.31936 c -0.0988,-0.561311 -0.1841,-1.124921 -0.2558,-1.690335 z m 70.18435,0.0031 c -0.0878,0.562872 -0.18912,1.123551 -0.30387,1.681549 l 1.8428,0.325046 0.29662,-1.683102 z m -69.59007,3.035472 -1.81332,0.485759 0.44286,1.650545 1.79369,-0.480592 c -0.15433,-0.54843 -0.29546,-1.100494 -0.42323,-1.655712 z m 68.98235,5.29e-4 c -0.12882,0.55507 -0.27096,1.106962 -0.42632,1.655194 l 1.79472,0.480592 0.44286,-1.650545 z m -0.86402,2.972427 c -0.16923,0.544328 -0.35153,1.084504 -0.54674,1.620057 l 1.72805,0.628902 0.58446,-1.606103 z m -67.26671,0.0036 -1.75596,0.639239 0.58446,1.606103 1.75752,-0.639755 c -0.2082,-0.530418 -0.40359,-1.065771 -0.58602,-1.605587 z m 66.15205,2.885096 c -0.22019,0.525561 -0.45297,1.045747 -0.69816,1.560111 l 1.67846,0.78238 0.72192,-1.548741 z m -65.04874,0.01035 -1.68053,0.783416 0.72192,1.548741 1.70172,-0.79375 c -0.26001,-0.506772 -0.50777,-1.019723 -0.74311,-1.538407 z m 63.69171,2.772442 c -0.27159,0.500949 -0.55522,0.995289 -0.8506,1.482596 l 1.61697,0.933278 0.85471,-1.480013 z m -62.344,0.01757 -1.5901,0.918292 0.85474,1.480013 1.62782,-0.939478 c -0.30914,-0.479044 -0.60671,-0.965462 -0.89246,-1.458827 z m 60.75391,2.64015 c -0.32022,0.471445 -0.65172,0.935116 -0.99425,1.390613 l 1.53686,1.075904 0.98031,-1.399916 z m -59.13593,0.0026 -1.5198,1.064017 0.98031,1.399916 1.53633,-1.075905 c -0.34335,-0.454617 -0.67575,-0.917426 -0.99684,-1.388028 z m 0.40462,3.694864 1.09866,1.308963 1.42936,-1.199409 c -1.31342,-1.564675 -0.88305,-1.489747 -2.52802,-0.109554 z m 56.91902,-1.18338 c -0.36549,0.43703 -0.74147,0.865208 -1.12757,1.28416 l 1.4397,1.208193 1.09813,-1.308962 z m -53.4448,2.308902 -1.32757,1.327568 1.20872,1.208196 1.30844,-1.308447 c -0.40632,-0.399507 -0.80295,-0.80873 -1.18959,-1.227317 z m 51.39997,0.01913 c -0.39952,0.406141 -0.80875,0.802614 -1.22732,1.189075 l 1.32757,1.327568 1.20819,-1.208196 z m -49.16702,2.124935 -1.20822,1.439706 1.3095,1.09864 1.18338,-1.41025 c -0.4372,-0.365673 -0.86556,-0.741815 -1.28466,-1.128096 z m 46.92425,0.01035 c -0.42833,0.375817 -0.86564,0.741276 -1.31154,1.096058 l 1.20148,1.431954 1.30947,-1.09864 z m -44.51614,1.9358 -1.07641,1.536857 1.39991,0.980302 1.06659,-1.522905 c -0.47127,-0.320225 -0.93477,-0.651737 -1.39009,-0.994254 z m 42.09925,5.3e-4 c -0.45463,0.343185 -0.91744,0.675388 -1.38803,0.996323 l 1.06453,1.520319 1.3994,-0.980302 z m -2.57246,1.722376 c -0.47871,0.309131 -0.96478,0.606703 -1.4578,0.892453 l 0.91778,1.589566 1.48,-0.854212 z m -36.96105,0.01085 -0.93379,1.616956 1.48,0.854213 0.93585,-1.621092 c -0.50077,-0.271438 -0.99494,-0.554879 -1.48206,-0.850077 z m 34.25113,1.486215 c -0.50694,0.260006 -1.02007,0.507778 -1.53892,0.743106 l 0.78393,1.68052 1.54874,-0.721921 z m -31.54587,0.02273 -0.7829,1.678966 1.54926,0.721921 0.79375,-1.702739 c -0.52556,-0.220173 -1.04573,-0.452956 -1.56011,-0.698148 z m 28.71764,1.237133 c -0.53026,0.208177 -1.06545,0.403569 -1.6051,0.58601 l 0.63926,1.755965 1.60557,-0.584459 z m -25.88887,0.02894 -0.62942,1.728578 1.6061,0.584459 0.64286,-1.7663 c -0.54415,-0.169233 -1.08416,-0.35153 -1.61954,-0.546737 z m 2.93729,0.984953 -0.48111,1.794722 1.65158,0.442352 0.48524,-1.810743 c -0.55525,-0.128809 -1.1073,-0.270959 -1.65571,-0.426331 z m 20.02565,5.3e-4 c -0.54861,0.154339 -1.10085,0.295457 -1.65623,0.42323 l 0.48574,1.813327 1.65108,-0.442352 z m -17.01601,0.729673 -0.32507,1.84278 1.68259,0.296622 0.32351,-1.836063 C 542.937,84.815809 542.37648,84.71467 541.81866,84.6001 Z m 14.01154,0.03255 c -0.56131,0.09881 -1.12493,0.184102 -1.69034,0.255799 l 0.3266,1.851049 1.68309,-0.296622 z m -10.95179,0.438216 -0.16381,1.871205 1.70273,0.148828 0.16071,-1.837097 c -0.56793,-0.04734 -1.13464,-0.108334 -1.69963,-0.182936 z m 7.88842,0.02479 c -0.56701,0.05551 -1.13528,0.09738 -1.70429,0.125574 l 0.16327,1.869654 1.70276,-0.148828 z m -3.09079,0.19482 c -0.28471,0.01773 -0.56964,0.03203 -0.85471,0.04289 -0.28466,-0.0066 -0.56927,-0.01656 -0.8537,-0.02997 v 1.855184 h 1.70841 z"
         style="opacity:1;fill:#7c7070;fill-opacity:1;stroke:none;stroke-width:0.28901517;stroke-linecap:square;stroke-miterlimit:4;stroke-dasharray:none;stroke-dashoffset:0;stroke-opacity:1" />
    </g>
    <g
       id="g4879"
       transform="matrix(0.62845859,0,0,0.62845859,210.14244,2.9773307)"
       style="fill:#534c4c;fill-opacity:1;stroke-width:1.59119475">
      <path
         inkscape:connector-curvature="0"
         style="opacity:1;fill:#534c4c;fill-opacity:1;stroke:none;stroke-width:0.42166662;stroke-linecap:square;stroke-miterlimit:4;stroke-dasharray:none;stroke-dashoffset:0;stroke-opacity:1"
         d="m 545.95431,19.223633 v 23.657988 l -16.72868,-16.728696 -4.05505,4.055051 16.7292,16.728694 h -23.65851 v 5.734016 h 23.65851 l -16.7292,16.729212 4.05452,4.054533 16.72921,-16.729212 v 23.658504 h 5.73453 V 56.725735 l 16.7287,16.728696 4.05506,-4.055049 -16.72921,-16.728696 h 23.65849 V 46.93667 H 555.74339 L 572.4726,30.207458 568.41807,26.152925 551.68884,42.882137 V 19.223633 Z"
         id="path4871" />
      <path
         inkscape:connector-curvature="0"
         style="opacity:1;fill:#534c4c;fill-opacity:1;stroke:none;stroke-width:0.42166659;stroke-linecap:square;stroke-miterlimit:4;stroke-dasharray:none;stroke-dashoffset:0;stroke-opacity:1"
         d="m 548.82134,14.274064 a 35.529763,35.529763 0 0 0 -35.52963,35.529615 35.529763,35.529763 0 0 0 35.52963,35.529612 35.529763,35.529763 0 0 0 35.53012,-35.529612 35.529763,35.529763 0 0 0 -35.53012,-35.529615 z m 0,7.559228 a 27.970236,27.970236 0 0 1 27.97037,27.970387 27.970236,27.970236 0 0 1 -27.97037,27.970384 27.970236,27.970236 0 0 1 -27.96987,-27.970384 27.970236,27.970236 0 0 1 27.96987,-27.970387 z"
         id="path4873" />
      <path
         sodipodi:type="star"
         style="opacity:1;fill:#534c4c;fill-opacity:1;stroke:none;stroke-width:0.42166659;stroke-linecap:square;stroke-miterlimit:4;stroke-dasharray:none;stroke-dashoffset:0;stroke-opacity:1"
         id="path4875"
         sodipodi:sides="8"
         sodipodi:cx="548.82159"
         sodipodi:cy="49.803677"
         sodipodi:r1="18.368853"
         sodipodi:r2="9.1844263"
         sodipodi:arg1="0"
         sodipodi:arg2="0.39269908"
         inkscape:flatsided="false"
         inkscape:rounded="0"
         inkscape:randomized="0"
         d="m 567.19045,49.803677 -9.88355,3.514727 4.50343,9.474013 -9.47401,-4.503437 -3.51473,9.883549 -3.51472,-9.883549 -9.47402,4.503437 4.50344,-9.474013 -9.88355,-3.514727 9.88355,-3.514728 -4.50344,-9.474013 9.47402,4.503437 3.51472,-9.883549 3.51473,9.883549 9.47401,-4.503437 -4.50343,9.474013 z"
         inkscape:transform-center-x="7.2831853e-06" />
      <path
         style="opacity:1;fill:#534c4c;fill-opacity:1;stroke:none;stroke-width:0.42166659;stroke-linecap:square;stroke-miterlimit:4;stroke-dasharray:none;stroke-dashoffset:0;stroke-opacity:1"
         d="m 547.96763,12.448852 v 1.868103 c 0.28437,-0.01772 0.56899,-0.03202 0.8537,-0.04289 0.28501,0.0066 0.56994,0.01655 0.85471,0.02997 v -1.855184 z m -1.5503,0.0677 -1.70273,0.148828 0.16174,1.846398 c 0.56719,-0.05552 1.13562,-0.09739 1.70482,-0.125573 z m 4.80848,0 -0.1607,1.837097 c 0.56792,0.04734 1.13466,0.108333 1.69965,0.182934 l 0.16381,-1.871203 z m -8.04963,0.351399 -1.68259,0.296623 0.31938,1.810225 c 0.56116,-0.09863 1.12459,-0.183749 1.68981,-0.255281 z m 11.29028,0 -0.32351,1.835547 c 0.56288,0.08779 1.12355,0.189105 1.68156,0.303857 l 0.32504,-1.842781 z m -14.48697,0.63252 -1.65158,0.44235 0.48058,1.793689 c 0.54878,-0.154174 1.1012,-0.295119 1.65675,-0.422713 z m 17.68469,0 -0.48524,1.810742 c 0.55507,0.128817 1.10696,0.270968 1.65521,0.426331 l 0.48111,-1.794723 z m -20.81577,0.908988 -1.6061,0.584461 0.63976,1.757515 c 0.53041,-0.208183 1.06577,-0.403577 1.60557,-0.586011 z m 23.94635,0 -0.64286,1.766301 c 0.54414,0.169231 1.08416,0.351529 1.61954,0.546736 l 0.62889,-1.728576 z m -26.98544,1.178223 -1.54926,0.72192 0.79375,1.702221 c 0.50694,-0.260179 1.02005,-0.508125 1.53892,-0.743624 z m 30.02452,0 -0.79375,1.702738 c 0.52539,0.220009 1.0454,0.452621 1.55959,0.697632 l 0.7829,-1.67845 z m -32.94993,1.438672 -1.48,0.854211 0.93998,1.627808 c 0.20706,-0.133596 0.4155,-0.265029 0.62529,-0.394279 0.27538,-0.169663 0.55309,-0.335565 0.83302,-0.497657 z m 35.87482,0 -0.93585,1.620572 c 0.50093,0.271602 0.99528,0.555215 1.48259,0.850595 l 0.93326,-1.616956 z m -38.66327,1.687752 -1.39991,0.980302 1.0759,1.53634 c 0.4548,-0.343192 0.91776,-0.675395 1.38854,-0.996322 z m 41.45225,0 -1.06662,1.522904 c 0.47128,0.320224 0.9348,0.651738 1.39012,0.994255 l 1.0759,-1.536857 z m -44.08311,1.924947 -1.30897,1.098641 1.19944,1.42937 c 0.42815,-0.37581 0.86529,-0.741268 1.31101,-1.096057 z m 46.71344,0 -1.18341,1.41025 c 0.43723,0.365673 0.86556,0.741814 1.28469,1.128096 l 1.20819,-1.439705 z m -49.16599,2.146639 -1.20872,1.208195 1.30897,1.308964 c 0.39952,-0.406315 0.80873,-0.80296 1.22732,-1.189591 z m 51.61907,0 -1.30844,1.308447 c 0.40632,0.399507 0.80295,0.80873 1.18959,1.227316 l 1.32755,-1.327568 z m -53.87578,2.352311 -1.09866,1.308964 1.41026,1.183391 c 0.36568,-0.437039 0.74184,-0.865214 1.1281,-1.28416 z m 56.13249,0 -1.42938,1.19941 c 0.37581,0.42816 0.74128,0.865296 1.09606,1.311032 l 1.43195,-1.201478 z m -58.17579,2.539898 -0.97978,1.399913 1.52292,1.066086 c 0.32006,-0.471091 0.6514,-0.934419 0.99372,-1.389581 z m 60.21856,0 -1.53636,1.075902 c 0.34335,0.454617 0.67575,0.917429 0.99685,1.38803 l 1.51982,-1.064019 z m -62.03238,2.70836 -0.85424,1.480013 1.62111,0.93586 c 0.27143,-0.500769 0.55488,-0.994939 0.85007,-1.482079 z m 63.84623,0 -1.62782,0.939477 c 0.30914,0.479044 0.60671,0.965462 0.89246,1.458828 l 1.59007,-0.918292 z m -65.41669,2.856156 -0.72192,1.548743 1.70222,0.79375 c 0.22019,-0.525385 0.45297,-1.0454 0.69816,-1.559594 z m 66.98765,0 -1.70172,0.79375 c 0.26001,0.506941 0.50779,1.020066 0.74311,1.538925 l 1.68103,-0.783932 z m -68.30385,2.982248 -0.58446,1.606103 1.76577,0.642855 c 0.16939,-0.544332 0.35187,-1.084506 0.54727,-1.620057 z m 69.61952,0 -1.75752,0.639755 c 0.20836,0.530415 0.40391,1.065765 0.58653,1.605586 l 1.75649,-0.639238 z m -70.6701,3.0856 -0.44286,1.650545 1.81073,0.48524 c 0.12882,-0.555072 0.27096,-1.106963 0.42632,-1.655196 z m 71.72121,0 -1.79369,0.480589 c 0.15433,0.548431 0.29546,1.100497 0.42323,1.655715 l 1.81332,-0.485759 z m -72.49946,3.165181 -0.29662,1.683102 1.83555,0.323493 c 0.0876,-0.562867 0.18875,-1.123548 0.30334,-1.681552 z m 73.27771,0 -1.81023,0.31936 c 0.0988,0.561311 0.1841,1.124921 0.2558,1.690336 l 1.85105,-0.326594 z m -73.77743,3.220993 -0.14882,1.702736 1.8371,0.160716 c 0.0473,-0.567931 0.10832,-1.134642 0.18294,-1.699638 z m 74.27662,5.29e-4 -1.8459,0.161232 c 0.0555,0.567179 0.0974,1.13561 0.12557,1.704803 l 1.86966,-0.163815 z m -74.49312,3.251999 v 1.709454 h 1.86809 c -0.0177,-0.284726 -0.032,-0.569656 -0.0429,-0.854726 0.007,-0.285022 0.0169,-0.569952 0.0305,-0.854728 z m 72.84206,0 c 0.0177,0.284726 0.032,0.569656 0.0429,0.854728 -0.007,0.28502 -0.0167,0.569947 -0.03,0.854726 h 1.85468 v -1.709454 z m -70.90473,3.095416 -1.86965,0.163817 0.14935,1.70222 1.84587,-0.161748 c -0.0555,-0.567007 -0.0974,-1.135268 -0.12557,-1.704289 z m 70.86803,0.0031 c -0.0473,0.567759 -0.10834,1.134298 -0.18293,1.699123 l 1.87069,0.163814 0.14882,-1.702221 z m -70.53471,3.07475 -1.85105,0.326593 0.29662,1.683102 1.81023,-0.31936 c -0.0988,-0.561311 -0.1841,-1.124921 -0.2558,-1.690335 z m 70.18435,0.0031 c -0.0878,0.562872 -0.18912,1.123551 -0.30387,1.681549 l 1.8428,0.325046 0.29662,-1.683102 z m -69.59007,3.035472 -1.81332,0.485759 0.44286,1.650545 1.79369,-0.480592 c -0.15433,-0.54843 -0.29546,-1.100494 -0.42323,-1.655712 z m 68.98235,5.29e-4 c -0.12882,0.55507 -0.27096,1.106962 -0.42632,1.655194 l 1.79472,0.480592 0.44286,-1.650545 z m -0.86402,2.972427 c -0.16923,0.544328 -0.35153,1.084504 -0.54674,1.620057 l 1.72805,0.628902 0.58446,-1.606103 z m -67.26671,0.0036 -1.75596,0.639239 0.58446,1.606103 1.75752,-0.639755 c -0.2082,-0.530418 -0.40359,-1.065771 -0.58602,-1.605587 z m 66.15205,2.885096 c -0.22019,0.525561 -0.45297,1.045747 -0.69816,1.560111 l 1.67846,0.78238 0.72192,-1.548741 z m -65.04874,0.01035 -1.68053,0.783416 0.72192,1.548741 1.70172,-0.79375 c -0.26001,-0.506772 -0.50777,-1.019723 -0.74311,-1.538407 z m 63.69171,2.772442 c -0.27159,0.500949 -0.55522,0.995289 -0.8506,1.482596 l 1.61697,0.933278 0.85471,-1.480013 z m -62.344,0.01757 -1.5901,0.918292 0.85474,1.480013 1.62782,-0.939478 c -0.30914,-0.479044 -0.60671,-0.965462 -0.89246,-1.458827 z m 60.75391,2.64015 c -0.32022,0.471445 -0.65172,0.935116 -0.99425,1.390613 l 1.53686,1.075904 0.98031,-1.399916 z m -59.13593,0.0026 -1.5198,1.064017 0.98031,1.399916 1.53633,-1.075905 c -0.34335,-0.454617 -0.67575,-0.917426 -0.99684,-1.388028 z m 0.40462,3.694864 1.09866,1.308963 1.42936,-1.199409 c -1.31342,-1.564675 -0.88305,-1.489747 -2.52802,-0.109554 z m 56.91902,-1.18338 c -0.36549,0.43703 -0.74147,0.865208 -1.12757,1.28416 l 1.4397,1.208193 1.09813,-1.308962 z m -53.4448,2.308902 -1.32757,1.327568 1.20872,1.208196 1.30844,-1.308447 c -0.40632,-0.399507 -0.80295,-0.80873 -1.18959,-1.227317 z m 51.39997,0.01913 c -0.39952,0.406141 -0.80875,0.802614 -1.22732,1.189075 l 1.32757,1.327568 1.20819,-1.208196 z m -49.16702,2.124935 -1.20822,1.439706 1.3095,1.09864 1.18338,-1.41025 c -0.4372,-0.365673 -0.86556,-0.741815 -1.28466,-1.128096 z m 46.92425,0.01035 c -0.42833,0.375817 -0.86564,0.741276 -1.31154,1.096058 l 1.20148,1.431954 1.30947,-1.09864 z m -44.51614,1.9358 -1.07641,1.536857 1.39991,0.980302 1.06659,-1.522905 c -0.47127,-0.320225 -0.93477,-0.651737 -1.39009,-0.994254 z m 42.09925,5.3e-4 c -0.45463,0.343185 -0.91744,0.675388 -1.38803,0.996323 l 1.06453,1.520319 1.3994,-0.980302 z m -2.57246,1.722376 c -0.47871,0.309131 -0.96478,0.606703 -1.4578,0.892453 l 0.91778,1.589566 1.48,-0.854212 z m -36.96105,0.01085 -0.93379,1.616956 1.48,0.854213 0.93585,-1.621092 c -0.50077,-0.271438 -0.99494,-0.554879 -1.48206,-0.850077 z m 34.25113,1.486215 c -0.50694,0.260006 -1.02007,0.507778 -1.53892,0.743106 l 0.78393,1.68052 1.54874,-0.721921 z m -31.54587,0.02273 -0.7829,1.678966 1.54926,0.721921 0.79375,-1.702739 c -0.52556,-0.220173 -1.04573,-0.452956 -1.56011,-0.698148 z m 28.71764,1.237133 c -0.53026,0.208177 -1.06545,0.403569 -1.6051,0.58601 l 0.63926,1.755965 1.60557,-0.584459 z m -25.88887,0.02894 -0.62942,1.728578 1.6061,0.584459 0.64286,-1.7663 c -0.54415,-0.169233 -1.08416,-0.35153 -1.61954,-0.546737 z m 2.93729,0.984953 -0.48111,1.794722 1.65158,0.442352 0.48524,-1.810743 c -0.55525,-0.128809 -1.1073,-0.270959 -1.65571,-0.426331 z m 20.02565,5.3e-4 c -0.54861,0.154339 -1.10085,0.295457 -1.65623,0.42323 l 0.48574,1.813327 1.65108,-0.442352 z m -17.01601,0.729673 -0.32507,1.84278 1.68259,0.296622 0.32351,-1.836063 C 542.937,84.815809 542.37648,84.71467 541.81866,84.6001 Z m 14.01154,0.03255 c -0.56131,0.09881 -1.12493,0.184102 -1.69034,0.255799 l 0.3266,1.851049 1.68309,-0.296622 z m -10.95179,0.438216 -0.16381,1.871205 1.70273,0.148828 0.16071,-1.837097 c -0.56793,-0.04734 -1.13464,-0.108334 -1.69963,-0.182936 z m 7.88842,0.02479 c -0.56701,0.05551 -1.13528,0.09738 -1.70429,0.125574 l 0.16327,1.869654 1.70276,-0.148828 z m -3.09079,0.19482 c -0.28471,0.01773 -0.56964,0.03203 -0.85471,0.04289 -0.28466,-0.0066 -0.56927,-0.01656 -0.8537,-0.02997 v 1.855184 h 1.70841 z"
         id="path4877"
         inkscape:connector-curvature="0"
         sodipodi:nodetypes="cccccccccccccccccccccccccccccccccccccccccccccccccccccccccccscccccccccccccccccccccccccccccccccccccccccccccccccccccccccccccccccccccccccccccccccccccccccccccccccccccccccccccccccccccccccccccccccccccccccccccccccccccccccccccccccccccccccccccccccccccccccccccccccccccccccccccccccccccccccccccccccccccccccccccccccccccccccccacccccccccccccccccccccccccccccccccccccccccccccccccccc" />
    </g>
    <path
       style="opacity:1;fill:#534c4c;fill-opacity:1;stroke:none;stroke-width:0.26499999;stroke-linecap:square;stroke-miterlimit:4;stroke-dasharray:none;stroke-dashoffset:0;stroke-opacity:1"
       d="m 556.22478,31.582503 -1.15973,2.008671 -1.15942,-2.008347 -50.30383,29.042758 h -7.65016 v 5.734051 h 116.7004 v -5.734051 h -6.12312 z m -1.15942,5.951643 23.74,13.706382 v 9.385057 h -47.47544 v -9.387656 z m -29.46949,17.014437 v 6.077002 h -10.52564 z m 58.94354,0.0026 10.52108,6.074405 h -10.52108 z"
       id="rect4881"
       inkscape:connector-curvature="0" />
    <rect
       ry="7.088779"
       y="-17.748413"
       x="598.52887"
       height="36.887436"
       width="32.076019"
       id="rect4896"
       style="opacity:1;fill:#b3acac;fill-opacity:1;stroke:none;stroke-width:0.26499999;stroke-linecap:square;stroke-miterlimit:4;stroke-dasharray:none;stroke-dashoffset:0;stroke-opacity:1"
       rx="7.088779" />
    <g
       id="g5123"
       transform="matrix(-1,0,0,1,955.7532,0)">
      <path
         style="fill:none;fill-rule:evenodd;stroke:#6d6d6d;stroke-width:2;stroke-linecap:butt;stroke-linejoin:miter;stroke-miterlimit:4;stroke-dasharray:none;stroke-opacity:1"
         d="m 256.32731,374.21432 c 0,11.95404 5.01019,18.13167 18.13167,18.13167 h 196.80181"
         id="path5104"
         inkscape:connector-curvature="0"
         sodipodi:nodetypes="ccc" />
      <path
         sodipodi:nodetypes="ccc"
         inkscape:connector-curvature="0"
         id="path5106"
         d="m 335.70236,363.63098 c 0,11.95404 5.01019,18.13167 18.13167,18.13167 h 75.09348"
         style="fill:none;fill-rule:evenodd;stroke:#6d6d6d;stroke-width:2;stroke-linecap:butt;stroke-linejoin:miter;stroke-miterlimit:4;stroke-dasharray:none;stroke-opacity:1" />
      <path
         sodipodi:nodetypes="ccc"
         inkscape:connector-curvature="0"
         id="path5102"
         d="m 256.32731,245.17923 c 0,-11.95404 5.01019,-18.13167 18.13167,-18.13167 h 196.80181"
         style="fill:none;fill-rule:evenodd;stroke:#6d6d6d;stroke-width:2;stroke-linecap:butt;stroke-linejoin:miter;stroke-miterlimit:4;stroke-dasharray:none;stroke-opacity:1" />
      <g
         id="g4925"
         transform="matrix(1.6278312,0,0,1.6278312,-226.70883,-27.331812)"
         style="stroke-width:0.61431432">
        <circle
           r="51.59375"
           cy="198.91518"
           cx="262.88245"
           id="circle4919"
           style="fill:#939393;fill-opacity:1;stroke:none;stroke-width:0.16279328;stroke-linecap:square;stroke-miterlimit:4;stroke-dasharray:none;stroke-dashoffset:0;stroke-opacity:1" />
        <circle
           style="fill:url(#radialGradient4927);fill-opacity:1;stroke:none;stroke-width:0.16279328;stroke-linecap:square;stroke-miterlimit:4;stroke-dasharray:none;stroke-dashoffset:0;stroke-opacity:1"
           id="circle4921"
           cx="262.88245"
           cy="198.91518"
           r="51.59375" />
        <rect
           rx="0.5542677"
           ry="0.5542677"
           y="198.01292"
           x="209.34869"
           height="1.8045084"
           width="107.0675"
           id="rect4923"
           style="opacity:1;fill:#3c3c3c;fill-opacity:1;stroke:none;stroke-width:0.16279328;stroke-linecap:square;stroke-miterlimit:4;stroke-dasharray:none;stroke-dashoffset:0;stroke-opacity:1" />
      </g>
      <g
         style="stroke-width:1.58214021"
         transform="matrix(0.63205525,0,0,0.63205525,77.028755,222.11899)"
         id="g4907">
        <circle
           style="fill:#939393;fill-opacity:1;stroke:none;stroke-width:0.41926712;stroke-linecap:square;stroke-miterlimit:4;stroke-dasharray:none;stroke-dashoffset:0;stroke-opacity:1"
           id="path910"
           cx="262.88245"
           cy="198.91518"
           r="51.59375" />
        <circle
           r="51.59375"
           cy="198.91518"
           cx="262.88245"
           id="circle912"
           style="fill:url(#radialGradient922);fill-opacity:1;stroke:none;stroke-width:0.41926712;stroke-linecap:square;stroke-miterlimit:4;stroke-dasharray:none;stroke-dashoffset:0;stroke-opacity:1" />
        <rect
           style="opacity:1;fill:#3c3c3c;fill-opacity:1;stroke:none;stroke-width:0.41926712;stroke-linecap:square;stroke-miterlimit:4;stroke-dasharray:none;stroke-dashoffset:0;stroke-opacity:1"
           id="rect4898"
           width="107.0675"
           height="1.8045084"
           x="209.34869"
           y="198.01292"
           ry="1.4274926"
           rx="1.4274926" />
      </g>
      <g
         style="stroke-width:1.58214021"
         id="g4915"
         transform="matrix(0.63205525,0,0,0.63205525,150.61052,222.11899)">
        <circle
           r="51.59375"
           cy="198.91518"
           cx="262.88245"
           id="circle4909"
           style="fill:#939393;fill-opacity:1;stroke:none;stroke-width:0.41926712;stroke-linecap:square;stroke-miterlimit:4;stroke-dasharray:none;stroke-dashoffset:0;stroke-opacity:1" />
        <circle
           style="fill:url(#radialGradient4917);fill-opacity:1;stroke:none;stroke-width:0.41926712;stroke-linecap:square;stroke-miterlimit:4;stroke-dasharray:none;stroke-dashoffset:0;stroke-opacity:1"
           id="circle4911"
           cx="262.88245"
           cy="198.91518"
           r="51.59375" />
        <rect
           rx="1.4274926"
           ry="1.4274926"
           y="198.01292"
           x="209.34869"
           height="1.8045084"
           width="107.0675"
           id="rect4913"
           style="opacity:1;fill:#3c3c3c;fill-opacity:1;stroke:none;stroke-width:0.41926712;stroke-linecap:square;stroke-miterlimit:4;stroke-dasharray:none;stroke-dashoffset:0;stroke-opacity:1" />
      </g>
    </g>
    <g
       id="g4936"
       transform="translate(-95.250003,26.458334)">
      <path
         sodipodi:nodetypes="sssssss"
         id="rect841"
         d="m 35.07912,54.452901 c 10.03156,0 18.10751,8.07595 18.10751,18.10751 v 78.548359 c 0,10.03156 -8.07595,18.1075 -18.10751,18.1075 -10.03156,0 -18.10751,-8.07594 -18.10751,-18.1075 V 72.560411 c 0,-10.03156 8.07595,-18.10751 18.10751,-18.10751 z"
         style="fill:#939393;fill-opacity:1;stroke:none;stroke-width:0.26499999;stroke-linecap:square;stroke-miterlimit:4;stroke-dasharray:none;stroke-dashoffset:0;stroke-opacity:1"
         inkscape:connector-curvature="0" />
      <path
         sodipodi:nodetypes="sssssss"
         style="fill:url(#linearGradient874);fill-opacity:1;stroke:none;stroke-width:0.26499999;stroke-linecap:square;stroke-miterlimit:4;stroke-dasharray:none;stroke-dashoffset:0;stroke-opacity:1"
         d="m 35.07912,54.452901 c 10.03156,0 18.10751,8.07595 18.10751,18.10751 v 78.548359 c 0,10.03156 -8.07595,18.1075 -18.10751,18.1075 -10.03156,0 -18.10751,-8.07594 -18.10751,-18.1075 V 72.560411 c 0,-10.03156 8.07595,-18.10751 18.10751,-18.10751 z"
         id="path866"
         inkscape:connector-curvature="0" />
      <rect
         ry="0.90225297"
         rx="0.90225303"
         y="70.772293"
         x="15.158645"
         height="1.8671488"
         width="39.84095"
         id="rect4929"
         style="opacity:1;fill:#3c3c3c;fill-opacity:1;stroke:none;stroke-width:0.26499999;stroke-linecap:square;stroke-miterlimit:4;stroke-dasharray:none;stroke-dashoffset:0;stroke-opacity:1" />
    </g>
    <g
       id="g4944"
       transform="translate(-52.916669,26.458334)">
      <path
         inkscape:connector-curvature="0"
         style="fill:#939393;fill-opacity:1;stroke:none;stroke-width:0.26499999;stroke-linecap:square;stroke-miterlimit:4;stroke-dasharray:none;stroke-dashoffset:0;stroke-opacity:1"
         d="m 35.07912,54.452901 c 10.03156,0 18.10751,8.07595 18.10751,18.10751 v 78.548359 c 0,10.03156 -8.07595,18.1075 -18.10751,18.1075 -10.03156,0 -18.10751,-8.07594 -18.10751,-18.1075 V 72.560411 c 0,-10.03156 8.07595,-18.10751 18.10751,-18.10751 z"
         id="path4938"
         sodipodi:nodetypes="sssssss" />
      <path
         inkscape:connector-curvature="0"
         id="path4940"
         d="m 35.07912,54.452901 c 10.03156,0 18.10751,8.07595 18.10751,18.10751 v 78.548359 c 0,10.03156 -8.07595,18.1075 -18.10751,18.1075 -10.03156,0 -18.10751,-8.07594 -18.10751,-18.1075 V 72.560411 c 0,-10.03156 8.07595,-18.10751 18.10751,-18.10751 z"
         style="fill:url(#linearGradient4946);fill-opacity:1;stroke:none;stroke-width:0.26499999;stroke-linecap:square;stroke-miterlimit:4;stroke-dasharray:none;stroke-dashoffset:0;stroke-opacity:1"
         sodipodi:nodetypes="sssssss" />
      <rect
         style="opacity:1;fill:#3c3c3c;fill-opacity:1;stroke:none;stroke-width:0.26499999;stroke-linecap:square;stroke-miterlimit:4;stroke-dasharray:none;stroke-dashoffset:0;stroke-opacity:1"
         id="rect4942"
         width="39.84095"
         height="1.8671488"
         x="15.158645"
         y="70.772293"
         rx="0.90225303"
         ry="0.90225297" />
    </g>
    <g
       id="g4954"
       transform="translate(-10.583333,26.458334)">
      <path
         sodipodi:nodetypes="sssssss"
         id="path4948"
         d="m 35.07912,54.452901 c 10.03156,0 18.10751,8.07595 18.10751,18.10751 v 78.548359 c 0,10.03156 -8.07595,18.1075 -18.10751,18.1075 -10.03156,0 -18.10751,-8.07594 -18.10751,-18.1075 V 72.560411 c 0,-10.03156 8.07595,-18.10751 18.10751,-18.10751 z"
         style="fill:#939393;fill-opacity:1;stroke:none;stroke-width:0.26499999;stroke-linecap:square;stroke-miterlimit:4;stroke-dasharray:none;stroke-dashoffset:0;stroke-opacity:1"
         inkscape:connector-curvature="0" />
      <path
         sodipodi:nodetypes="sssssss"
         style="fill:url(#linearGradient4956);fill-opacity:1;stroke:none;stroke-width:0.26499999;stroke-linecap:square;stroke-miterlimit:4;stroke-dasharray:none;stroke-dashoffset:0;stroke-opacity:1"
         d="m 35.07912,54.452901 c 10.03156,0 18.10751,8.07595 18.10751,18.10751 v 78.548359 c 0,10.03156 -8.07595,18.1075 -18.10751,18.1075 -10.03156,0 -18.10751,-8.07594 -18.10751,-18.1075 V 72.560411 c 0,-10.03156 8.07595,-18.10751 18.10751,-18.10751 z"
         id="path4950"
         inkscape:connector-curvature="0" />
      <rect
         ry="0.90225297"
         rx="0.90225303"
         y="70.772293"
         x="15.158645"
         height="1.8671488"
         width="39.84095"
         id="rect4952"
         style="opacity:1;fill:#3c3c3c;fill-opacity:1;stroke:none;stroke-width:0.26499999;stroke-linecap:square;stroke-miterlimit:4;stroke-dasharray:none;stroke-dashoffset:0;stroke-opacity:1" />
    </g>
    <g
       id="g4964"
       transform="translate(31.749999,26.458334)">
      <path
         inkscape:connector-curvature="0"
         style="fill:#939393;fill-opacity:1;stroke:none;stroke-width:0.26499999;stroke-linecap:square;stroke-miterlimit:4;stroke-dasharray:none;stroke-dashoffset:0;stroke-opacity:1"
         d="m 35.07912,54.452901 c 10.03156,0 18.10751,8.07595 18.10751,18.10751 v 78.548359 c 0,10.03156 -8.07595,18.1075 -18.10751,18.1075 -10.03156,0 -18.10751,-8.07594 -18.10751,-18.1075 V 72.560411 c 0,-10.03156 8.07595,-18.10751 18.10751,-18.10751 z"
         id="path4958"
         sodipodi:nodetypes="sssssss" />
      <path
         inkscape:connector-curvature="0"
         id="path4960"
         d="m 35.07912,54.452901 c 10.03156,0 18.10751,8.07595 18.10751,18.10751 v 78.548359 c 0,10.03156 -8.07595,18.1075 -18.10751,18.1075 -10.03156,0 -18.10751,-8.07594 -18.10751,-18.1075 V 72.560411 c 0,-10.03156 8.07595,-18.10751 18.10751,-18.10751 z"
         style="fill:url(#linearGradient4966);fill-opacity:1;stroke:none;stroke-width:0.26499999;stroke-linecap:square;stroke-miterlimit:4;stroke-dasharray:none;stroke-dashoffset:0;stroke-opacity:1"
         sodipodi:nodetypes="sssssss" />
      <rect
         style="opacity:1;fill:#3c3c3c;fill-opacity:1;stroke:none;stroke-width:0.26499999;stroke-linecap:square;stroke-miterlimit:4;stroke-dasharray:none;stroke-dashoffset:0;stroke-opacity:1"
         id="rect4962"
         width="39.84095"
         height="1.8671488"
         x="15.158645"
         y="70.772293"
         rx="0.90225303"
         ry="0.90225297" />
    </g>
    <g
       transform="translate(-95.250003,-121.70835)"
       id="g4974">
      <path
         inkscape:connector-curvature="0"
         style="fill:#939393;fill-opacity:1;stroke:none;stroke-width:0.26499999;stroke-linecap:square;stroke-miterlimit:4;stroke-dasharray:none;stroke-dashoffset:0;stroke-opacity:1"
         d="m 35.07912,54.452901 c 10.03156,0 18.10751,8.07595 18.10751,18.10751 v 78.548359 c 0,10.03156 -8.07595,18.1075 -18.10751,18.1075 -10.03156,0 -18.10751,-8.07594 -18.10751,-18.1075 V 72.560411 c 0,-10.03156 8.07595,-18.10751 18.10751,-18.10751 z"
         id="path4968"
         sodipodi:nodetypes="sssssss" />
      <path
         inkscape:connector-curvature="0"
         id="path4970"
         d="m 35.07912,54.452901 c 10.03156,0 18.10751,8.07595 18.10751,18.10751 v 78.548359 c 0,10.03156 -8.07595,18.1075 -18.10751,18.1075 -10.03156,0 -18.10751,-8.07594 -18.10751,-18.1075 V 72.560411 c 0,-10.03156 8.07595,-18.10751 18.10751,-18.10751 z"
         style="fill:url(#linearGradient5000);fill-opacity:1;stroke:none;stroke-width:0.26499999;stroke-linecap:square;stroke-miterlimit:4;stroke-dasharray:none;stroke-dashoffset:0;stroke-opacity:1"
         sodipodi:nodetypes="sssssss" />
      <rect
         style="opacity:1;fill:#3c3c3c;fill-opacity:1;stroke:none;stroke-width:0.26499999;stroke-linecap:square;stroke-miterlimit:4;stroke-dasharray:none;stroke-dashoffset:0;stroke-opacity:1"
         id="rect4972"
         width="39.84095"
         height="1.8671488"
         x="15.158645"
         y="70.772293"
         rx="0.90225303"
         ry="0.90225297" />
    </g>
    <g
       transform="translate(-52.916669,-121.70835)"
       id="g4982">
      <path
         sodipodi:nodetypes="sssssss"
         id="path4976"
         d="m 35.07912,54.452901 c 10.03156,0 18.10751,8.07595 18.10751,18.10751 v 78.548359 c 0,10.03156 -8.07595,18.1075 -18.10751,18.1075 -10.03156,0 -18.10751,-8.07594 -18.10751,-18.1075 V 72.560411 c 0,-10.03156 8.07595,-18.10751 18.10751,-18.10751 z"
         style="fill:#939393;fill-opacity:1;stroke:none;stroke-width:0.26499999;stroke-linecap:square;stroke-miterlimit:4;stroke-dasharray:none;stroke-dashoffset:0;stroke-opacity:1"
         inkscape:connector-curvature="0" />
      <path
         sodipodi:nodetypes="sssssss"
         style="fill:url(#linearGradient5002);fill-opacity:1;stroke:none;stroke-width:0.26499999;stroke-linecap:square;stroke-miterlimit:4;stroke-dasharray:none;stroke-dashoffset:0;stroke-opacity:1"
         d="m 35.07912,54.452901 c 10.03156,0 18.10751,8.07595 18.10751,18.10751 v 78.548359 c 0,10.03156 -8.07595,18.1075 -18.10751,18.1075 -10.03156,0 -18.10751,-8.07594 -18.10751,-18.1075 V 72.560411 c 0,-10.03156 8.07595,-18.10751 18.10751,-18.10751 z"
         id="path4978"
         inkscape:connector-curvature="0" />
      <rect
         ry="0.90225297"
         rx="0.90225303"
         y="70.772293"
         x="15.158645"
         height="1.8671488"
         width="39.84095"
         id="rect4980"
         style="opacity:1;fill:#3c3c3c;fill-opacity:1;stroke:none;stroke-width:0.26499999;stroke-linecap:square;stroke-miterlimit:4;stroke-dasharray:none;stroke-dashoffset:0;stroke-opacity:1" />
    </g>
    <g
       transform="translate(-10.583333,-121.70835)"
       id="g4990">
      <path
         inkscape:connector-curvature="0"
         style="fill:#939393;fill-opacity:1;stroke:none;stroke-width:0.26499999;stroke-linecap:square;stroke-miterlimit:4;stroke-dasharray:none;stroke-dashoffset:0;stroke-opacity:1"
         d="m 35.07912,54.452901 c 10.03156,0 18.10751,8.07595 18.10751,18.10751 v 78.548359 c 0,10.03156 -8.07595,18.1075 -18.10751,18.1075 -10.03156,0 -18.10751,-8.07594 -18.10751,-18.1075 V 72.560411 c 0,-10.03156 8.07595,-18.10751 18.10751,-18.10751 z"
         id="path4984"
         sodipodi:nodetypes="sssssss" />
      <path
         inkscape:connector-curvature="0"
         id="path4986"
         d="m 35.07912,54.452901 c 10.03156,0 18.10751,8.07595 18.10751,18.10751 v 78.548359 c 0,10.03156 -8.07595,18.1075 -18.10751,18.1075 -10.03156,0 -18.10751,-8.07594 -18.10751,-18.1075 V 72.560411 c 0,-10.03156 8.07595,-18.10751 18.10751,-18.10751 z"
         style="fill:url(#linearGradient5004);fill-opacity:1;stroke:none;stroke-width:0.26499999;stroke-linecap:square;stroke-miterlimit:4;stroke-dasharray:none;stroke-dashoffset:0;stroke-opacity:1"
         sodipodi:nodetypes="sssssss" />
      <rect
         style="opacity:1;fill:#3c3c3c;fill-opacity:1;stroke:none;stroke-width:0.26499999;stroke-linecap:square;stroke-miterlimit:4;stroke-dasharray:none;stroke-dashoffset:0;stroke-opacity:1"
         id="rect4988"
         width="39.84095"
         height="1.8671488"
         x="15.158645"
         y="70.772293"
         rx="0.90225303"
         ry="0.90225297" />
    </g>
    <g
       transform="translate(31.749999,-121.70835)"
       id="g4998">
      <path
         sodipodi:nodetypes="sssssss"
         id="path4992"
         d="m 35.07912,54.452901 c 10.03156,0 18.10751,8.07595 18.10751,18.10751 v 78.548359 c 0,10.03156 -8.07595,18.1075 -18.10751,18.1075 -10.03156,0 -18.10751,-8.07594 -18.10751,-18.1075 V 72.560411 c 0,-10.03156 8.07595,-18.10751 18.10751,-18.10751 z"
         style="fill:#939393;fill-opacity:1;stroke:none;stroke-width:0.26499999;stroke-linecap:square;stroke-miterlimit:4;stroke-dasharray:none;stroke-dashoffset:0;stroke-opacity:1"
         inkscape:connector-curvature="0" />
      <path
         sodipodi:nodetypes="sssssss"
         style="fill:url(#linearGradient5006);fill-opacity:1;stroke:none;stroke-width:0.26499999;stroke-linecap:square;stroke-miterlimit:4;stroke-dasharray:none;stroke-dashoffset:0;stroke-opacity:1"
         d="m 35.07912,54.452901 c 10.03156,0 18.10751,8.07595 18.10751,18.10751 v 78.548359 c 0,10.03156 -8.07595,18.1075 -18.10751,18.1075 -10.03156,0 -18.10751,-8.07594 -18.10751,-18.1075 V 72.560411 c 0,-10.03156 8.07595,-18.10751 18.10751,-18.10751 z"
         id="path4994"
         inkscape:connector-curvature="0" />
      <rect
         ry="0.90225297"
         rx="0.90225303"
         y="70.772293"
         x="15.158645"
         height="1.8671488"
         width="39.84095"
         id="rect4996"
         style="opacity:1;fill:#3c3c3c;fill-opacity:1;stroke:none;stroke-width:0.26499999;stroke-linecap:square;stroke-miterlimit:4;stroke-dasharray:none;stroke-dashoffset:0;stroke-opacity:1" />
    </g>
    <path
       sodipodi:nodetypes="ccc"
       inkscape:connector-curvature="0"
       id="path5018"
       d="m -16.722787,47.507834 c 0,11.954035 5.010186,18.131655 18.131653,18.131655 h 16.885085"
       style="fill:none;fill-rule:evenodd;stroke:#6d6d6d;stroke-width:2;stroke-linecap:butt;stroke-linejoin:miter;stroke-miterlimit:4;stroke-dasharray:none;stroke-opacity:1" />
    <path
       style="fill:none;fill-rule:evenodd;stroke:#6d6d6d;stroke-width:2;stroke-linecap:butt;stroke-linejoin:miter;stroke-miterlimit:4;stroke-dasharray:none;stroke-opacity:1"
       d="m 25.610547,47.507834 c 0,11.954035 5.010186,18.131655 18.131654,18.131655 h 16.885086"
       id="path5020"
       inkscape:connector-curvature="0"
       sodipodi:nodetypes="ccc" />
    <path
       sodipodi:nodetypes="ccc"
       inkscape:connector-curvature="0"
       id="path5022"
       d="m 67.943883,47.507834 c 0,11.954035 5.010186,18.131655 18.131654,18.131655 h 16.885083"
       style="fill:none;fill-rule:evenodd;stroke:#6d6d6d;stroke-width:2;stroke-linecap:butt;stroke-linejoin:miter;stroke-miterlimit:4;stroke-dasharray:none;stroke-opacity:1" />
    <path
       sodipodi:nodetypes="ccccc"
       inkscape:connector-curvature="0"
       id="path5024"
       d="m -61.172791,195.67456 c 0,11.95404 5.010186,18.13167 18.131655,18.13167 H 153.76059 c 8.28821,0 14.14915,-6.32583 22.67548,-15.88748 l 52.17341,-66.50401"
       style="fill:none;fill-rule:evenodd;stroke:#6d6d6d;stroke-width:2;stroke-linecap:butt;stroke-linejoin:miter;stroke-miterlimit:4;stroke-dasharray:none;stroke-opacity:1" />
    <path
       style="fill:none;fill-rule:evenodd;stroke:#6d6d6d;stroke-width:2;stroke-linecap:butt;stroke-linejoin:miter;stroke-miterlimit:4;stroke-dasharray:none;stroke-opacity:1"
       d="m -16.722787,195.67456 c 0,11.95404 5.010186,18.13167 18.131653,18.13167 h 16.885085"
       id="path5026"
       inkscape:connector-curvature="0"
       sodipodi:nodetypes="ccc" />
    <path
       sodipodi:nodetypes="ccc"
       inkscape:connector-curvature="0"
       id="path5028"
       d="m 25.610547,195.67456 c 0,11.95404 5.010186,18.13167 18.131654,18.13167 h 16.885086"
       style="fill:none;fill-rule:evenodd;stroke:#6d6d6d;stroke-width:2;stroke-linecap:butt;stroke-linejoin:miter;stroke-miterlimit:4;stroke-dasharray:none;stroke-opacity:1" />
    <path
       style="fill:none;fill-rule:evenodd;stroke:#6d6d6d;stroke-width:2;stroke-linecap:butt;stroke-linejoin:miter;stroke-miterlimit:4;stroke-dasharray:none;stroke-opacity:1"
       d="m 67.943883,195.67456 c 0,11.95404 5.010186,18.13167 18.131654,18.13167 h 16.885083"
       id="path5030"
       inkscape:connector-curvature="0"
       sodipodi:nodetypes="ccc" />
    <path
       sodipodi:nodetypes="cscscc"
       inkscape:connector-curvature="0"
       id="path5032"
       d="m 195.14411,-16.646973 c 0.14647,10.7407003 -0.38176,37.481473 -0.38176,45.739397 0,26.474026 -19.98424,0.06324 -19.98424,0.06324 -20.18438,0 -16.86477,27.259075 -16.86477,65.006476 0,68.33231 77.98746,77.46927 134.19618,77.46927 H 471.8857"
       style="fill:none;fill-rule:evenodd;stroke:#6d6d6d;stroke-width:10;stroke-linecap:butt;stroke-linejoin:miter;stroke-miterlimit:4;stroke-dasharray:none;stroke-opacity:1" />
    <path
       style="fill:none;fill-rule:evenodd;stroke:#6d6d6d;stroke-width:10;stroke-linecap:butt;stroke-linejoin:miter;stroke-miterlimit:4;stroke-dasharray:none;stroke-opacity:1"
       d="m 311.56085,-16.646973 c 0.14647,10.7407003 -0.38176,37.481473 -0.38176,45.739397 0,26.474026 -19.98424,0.06324 -19.98424,0.06324 -20.18438,0 -16.86477,27.259075 -16.86477,65.006476 0,68.33231 30.36246,63.71094 86.57118,63.71094 h 110.98451"
       id="path5044"
       inkscape:connector-curvature="0"
       sodipodi:nodetypes="cscscc" />
    <g
       id="g5061">
      <path
         sodipodi:nodetypes="ssscssscssss"
         inkscape:connector-curvature="0"
         id="rect924"
         d="m 180.77926,13.29819 c -4.90867,0 -8.86028,3.95178 -8.86028,8.86046 v 10.82929 c 0,0.19762 0.007,0.39355 0.0197,0.58786 -0.0121,0.29492 -0.0197,0.59103 -0.0197,0.88903 0,11.72629 9.44017,21.16646 21.16647,21.16646 11.72629,0 21.16663,-9.44017 21.16663,-21.16646 0,-0.29777 -0.008,-0.59365 -0.0197,-0.88835 0.0126,-0.19454 0.0197,-0.3907 0.0197,-0.58854 V 22.15865 c 0,-4.90868 -3.95178,-8.86046 -8.86045,-8.86046 z"
         style="fill:#002be4;fill-opacity:1;stroke:none;stroke-width:0.26499999;stroke-linecap:square;stroke-miterlimit:4;stroke-dasharray:none;stroke-dashoffset:0;stroke-opacity:1" />
      <path
         style="fill:url(#linearGradient937);fill-opacity:1;stroke:none;stroke-width:0.26499999;stroke-linecap:square;stroke-miterlimit:4;stroke-dasharray:none;stroke-dashoffset:0;stroke-opacity:1"
         d="m 180.77926,13.29819 c -4.90867,0 -8.86028,3.95178 -8.86028,8.86046 v 10.82929 c 0,0.19762 0.007,0.39355 0.0197,0.58786 -0.0121,0.29492 -0.0197,0.59103 -0.0197,0.88903 0,11.72629 9.44017,21.16646 21.16647,21.16646 11.72629,0 21.16663,-9.44017 21.16663,-21.16646 0,-0.29777 -0.008,-0.59365 -0.0197,-0.88835 0.0126,-0.19454 0.0197,-0.3907 0.0197,-0.58854 V 22.15865 c 0,-4.90868 -3.95178,-8.86046 -8.86045,-8.86046 z"
         id="path929"
         inkscape:connector-curvature="0"
         sodipodi:nodetypes="ssscssscssss" />
      <circle
         r="8.5212898"
         cy="33.859013"
         cx="193.08553"
         id="path5054"
         style="opacity:1;fill:#021f8e;fill-opacity:1;stroke:#6d6d6d;stroke-width:5;stroke-linecap:square;stroke-miterlimit:4;stroke-dasharray:none;stroke-dashoffset:0;stroke-opacity:1" />
    </g>
    <g
       id="g5069"
       transform="translate(116.41668)">
      <path
         style="fill:#002be4;fill-opacity:1;stroke:none;stroke-width:0.26499999;stroke-linecap:square;stroke-miterlimit:4;stroke-dasharray:none;stroke-dashoffset:0;stroke-opacity:1"
         d="m 180.77926,13.29819 c -4.90867,0 -8.86028,3.95178 -8.86028,8.86046 v 10.82929 c 0,0.19762 0.007,0.39355 0.0197,0.58786 -0.0121,0.29492 -0.0197,0.59103 -0.0197,0.88903 0,11.72629 9.44017,21.16646 21.16647,21.16646 11.72629,0 21.16663,-9.44017 21.16663,-21.16646 0,-0.29777 -0.008,-0.59365 -0.0197,-0.88835 0.0126,-0.19454 0.0197,-0.3907 0.0197,-0.58854 V 22.15865 c 0,-4.90868 -3.95178,-8.86046 -8.86045,-8.86046 z"
         id="path5063"
         inkscape:connector-curvature="0"
         sodipodi:nodetypes="ssscssscssss" />
      <path
         sodipodi:nodetypes="ssscssscssss"
         inkscape:connector-curvature="0"
         id="path5065"
         d="m 180.77926,13.29819 c -4.90867,0 -8.86028,3.95178 -8.86028,8.86046 v 10.82929 c 0,0.19762 0.007,0.39355 0.0197,0.58786 -0.0121,0.29492 -0.0197,0.59103 -0.0197,0.88903 0,11.72629 9.44017,21.16646 21.16647,21.16646 11.72629,0 21.16663,-9.44017 21.16663,-21.16646 0,-0.29777 -0.008,-0.59365 -0.0197,-0.88835 0.0126,-0.19454 0.0197,-0.3907 0.0197,-0.58854 V 22.15865 c 0,-4.90868 -3.95178,-8.86046 -8.86045,-8.86046 z"
         style="fill:url(#linearGradient5071);fill-opacity:1;stroke:none;stroke-width:0.26499999;stroke-linecap:square;stroke-miterlimit:4;stroke-dasharray:none;stroke-dashoffset:0;stroke-opacity:1" />
      <circle
         style="opacity:1;fill:#021f8e;fill-opacity:1;stroke:#6d6d6d;stroke-width:5;stroke-linecap:square;stroke-miterlimit:4;stroke-dasharray:none;stroke-dashoffset:0;stroke-opacity:1"
         id="circle5067"
         cx="193.08553"
         cy="33.859013"
         r="8.5212898" />
    </g>
    <path
       style="opacity:1;fill:#302c2c;fill-opacity:1;stroke:none;stroke-width:5;stroke-linecap:square;stroke-miterlimit:4;stroke-dasharray:none;stroke-dashoffset:0;stroke-opacity:1"
       d="m 504.06682,17.33633 a 4.4440736,4.4440736 0 0 0 -6.11234,1.462398 4.4440736,4.4440736 0 0 0 0.34899,5.132705 L 429.66728,135.73245 c -0.12808,0.20864 -0.0635,0.47959 0.14519,0.60767 l 1.73765,1.06677 c 0.20864,0.12809 0.47973,0.0632 0.60781,-0.14539 L 500.79412,25.46048 a 4.4440736,4.4440736 0 0 0 4.73497,-2.011595 4.4440736,4.4440736 0 0 0 -1.46227,-6.112555 z"
       id="path5073"
       inkscape:connector-curvature="0" />
    <rect
       rx="7.088779"
       ry="7.088779"
       y="113.94893"
       x="398.84494"
       height="309.92038"
       width="137.93185"
       id="rect5078"
       style="opacity:1;fill:#a1a1a1;fill-opacity:1;stroke:none;stroke-width:0.26499999;stroke-linecap:square;stroke-miterlimit:4;stroke-dasharray:none;stroke-dashoffset:0;stroke-opacity:1" />
    <rect
       style="opacity:1;fill:url(#linearGradient5090);fill-opacity:1;stroke:none;stroke-width:0.26499999;stroke-linecap:square;stroke-miterlimit:4;stroke-dasharray:none;stroke-dashoffset:0;stroke-opacity:1"
       id="rect5082"
       width="137.93185"
       height="309.92038"
       x="398.84494"
       y="113.94893"
       ry="7.088779"
       rx="7.088779" />
    <rect
       rx="7.088779"
       ry="7.088779"
       y="113.94893"
       x="398.84494"
       height="309.92038"
       width="137.93185"
       id="rect5092"
       style="opacity:1;fill:url(#linearGradient5094);fill-opacity:1;stroke:none;stroke-width:0.26499999;stroke-linecap:square;stroke-miterlimit:4;stroke-dasharray:none;stroke-dashoffset:0;stroke-opacity:1" />
    <rect
       style="opacity:1;fill:#a1a1a1;fill-opacity:1;stroke:none;stroke-width:0.26499999;stroke-linecap:square;stroke-miterlimit:4;stroke-dasharray:none;stroke-dashoffset:0;stroke-opacity:1"
       id="rect5096"
       width="137.93185"
       height="309.92038"
       x="398.84494"
       y="113.94893"
       ry="7.088779"
       rx="7.088779" />
    <rect
       rx="7.088779"
       ry="7.088779"
       y="113.94893"
       x="398.84494"
       height="309.92038"
       width="137.93185"
       id="rect5098"
       style="opacity:1;fill:url(#linearGradient5090);fill-opacity:1;stroke:none;stroke-width:0.26499999;stroke-linecap:square;stroke-miterlimit:4;stroke-dasharray:none;stroke-dashoffset:0;stroke-opacity:1" />
    <rect
       style="opacity:1;fill:url(#linearGradient5094);fill-opacity:1;stroke:none;stroke-width:0.26499999;stroke-linecap:square;stroke-miterlimit:4;stroke-dasharray:none;stroke-dashoffset:0;stroke-opacity:1"
       id="rect5100"
       width="137.93185"
       height="309.92038"
       x="398.84494"
       y="113.94893"
       ry="7.088779"
       rx="7.088779" />
  </g>
  <g
     inkscape:groupmode="layer"
     id="layer2"
     inkscape:label="anar"
     style="display:inline">
    <g
       id="g5156">
      <path
         inkscape:connector-curvature="0"
         id="path5150"
         d="m -18.714376,-41.843631 c 0.183563,1.10713 1.732217,1.658307 2.268409,2.551961 2.088823,3.481369 5.589457,8.46382 6.5216767,12.192699 0.3580805,1.432322 4.0639534,4.221575 2.8355115,3.402614 -3.2208332,-2.147223 -6.3103642,-9.785216 -7.9394322,-13.043353 -0.938531,-1.877063 -2.747634,-6.980984 -3.686165,-5.103921 -0.887329,1.774658 3.020337,11.162963 3.686165,13.326903 0.703192,2.285377 0.577637,8.496001 2.268409,6.805228 1.27521,-1.27521 -3.696339,-12.697501 -4.253267,-14.461108 -0.594305,-1.881965 -2.796049,-7.313136 -1.701307,-5.671023 2.779358,4.169036 5.029945,9.602372 7.088779,14.177557 1.300861,2.890804 2.9134162,5.517314 4.5368182,8.222984 0.1753331,0.292222 0.6936672,1.167065 0.5671024,0.850653 -2.2424382,-5.606095 -5.2903106,-11.003965 -7.3723296,-16.729517 -0.09636,-0.264977 -2.208357,-7.655883 -2.551961,-7.655883 -0.472585,0 -0.149445,0.969423 0,1.417757 1.743506,5.230519 3.515024,10.999763 5.954574,15.878864 0.6815726,1.363145 2.7503539,5.41555 2.2684095,3.969716 -2.2222365,-6.66671 -5.5274215,-13.018666 -8.2229835,-19.565029 -5.12645,-12.44995 4.197281,19.904567 5.954574,18.147274 0.6337807,-0.633781 -6.226007,-13.22269 -8.222983,-18.714376 -0.193803,-0.532959 0,-2.268408 0,-1.701308 0,3.361393 1.969288,8.236508 3.402614,11.342047 0.802003,1.737675 1.984858,7.301296 1.984858,5.387472 0,-2.347 -6.450642,-15.364597 -3.402614,-8.506534 0.549618,1.236641 1.005051,2.525739 1.701307,3.686164"
         style="fill:none;fill-rule:evenodd;stroke:#00ae9c;stroke-width:0.26458332px;stroke-linecap:butt;stroke-linejoin:miter;stroke-opacity:1" />
      <path
         inkscape:connector-curvature="0"
         id="path5152"
         d="m -11.30974,-38.218492 c -2.29939,0.899902 -10.557634,5.977435 -11.753609,9.429895 -0.129481,0.373775 2.183136,-1.66065 2.221309,-1.697381 1.536791,-1.478768 3.080636,-3.018242 4.573283,-4.52635 4.523502,-4.57035 -7.14983,8.098755 -0.391995,1.131588 1.784496,-1.839773 3.521082,-2.797015 5.351012,-4.337752 0.882896,-0.743366 3.27246,-3.488746 2.3582367,-2.828967 -2.4094027,1.738826 -4.6782527,5.038708 -6.9252577,7.355317 -0.737505,0.760351 -2.221309,3.57133 -2.221309,2.263174 0,-0.104623 0.600472,0.283957 0.653326,0.188598 0.602719,-1.08743 4.787367,-5.469337 4.181288,-5.469337 -3.933404,0 -7.766961,9.241295 -11.498541,9.241295 -0.217775,0 0.368671,-0.343529 0.522661,-0.565794 1.87577,-2.707424 3.9327,-4.616042 6.141266,-6.789524 0.691276,-0.680293 2.796644,-2.263174 1.959978,-2.263174 -1.154689,0 -4.716527,5.29371 -5.618605,6.22373 -1.193105,1.230063 -3.439189,3.836023 -3.26663,3.960555 0.973402,0.702489 13.719849,-9.803882 13.719849,-10.372882 0,-0.508825 -2.639474,2.101231 -5.879935,4.714947 -2.309227,1.862592 -4.410983,4.042077 -6.663927,6.035131 -0.999894,0.88455 -1.972723,1.837853 -3.005301,2.64037 -0.257253,0.199937 -0.914657,0.188598 -0.783992,0.565794 0.723235,2.087783 14.831039,-13.459854 16.326893,-14.899233 0.217366,-0.209159 -2.507157,2.602186 -3.260369,3.206164 -2.099244,1.683323 -4.120771,3.95093 -6.141266,5.846535 -0.679282,0.637295 -2.77015,2.074576 -1.959978,2.074576 0.52612,0 7.367602,-8.18238 8.362575,-9.61849"
         style="fill:none;fill-rule:evenodd;stroke:#00ae9c;stroke-width:0.26458332px;stroke-linecap:butt;stroke-linejoin:miter;stroke-opacity:1" />
    </g>
    <path
       style="fill:none;fill-rule:evenodd;stroke:#ff0000;stroke-width:0.80000001;stroke-linecap:butt;stroke-linejoin:miter;stroke-miterlimit:4;stroke-dasharray:none;stroke-opacity:1"
       d="m 86.687196,-23.723575 c 7.104128,-0.506213 0.52632,6.039801 -2.731241,4.411021 -0.634161,-0.317081 4.568386,0.644637 4.812022,0.401001 1.888445,-1.888443 -3.84339,-5.94409 -4.411019,-6.41603 -0.235104,-0.195469 8.553188,2.273862 8.421039,2.406012 -3.884711,3.88471 -3.333602,2.406011 -8.421039,2.406011 -1.890342,0 4.768638,2.492776 5.614024,0.802004 1.130861,-2.26172 -1.172977,-5.213025 -3.283786,-5.213025"
       id="path5158"
       inkscape:connector-curvature="0" />
    <path
       style="fill:none;fill-rule:evenodd;stroke:#ff0000;stroke-width:0.80000001;stroke-linecap:butt;stroke-linejoin:miter;stroke-miterlimit:4;stroke-dasharray:none;stroke-opacity:1"
       d="m 86.687196,-23.723575 c 7.323532,4.603063 14.396644,1.528415 22.531874,1.203006 44.39694,-1.775878 32.18627,-0.125857 52.13025,26.4661243 3.06357,4.084764 4.76721,10.8121127 9.62405,12.4310587 2.58638,0.862128 10.5932,2.504811 8.02003,1.604007 -1.58727,-0.555665 -3.11658,-1.264787 -4.67487,-1.89718"
       id="path5160"
       inkscape:connector-curvature="0" />
  </g>
</svg>
