<?xml version='1.0' encoding='ascii'?>
<svg xmlns="http://www.w3.org/2000/svg" xmlns:inkscape="http://www.inkscape.org/namespaces/inkscape" height="1123" version="1.1" width="794">
    <g id="View Layer_LineSet" inkscape:groupmode="lineset" inkscape:label="View Layer_LineSet">
        <g id="fills" inkscape:groupmode="layer" inkscape:label="fills" xmlns:inkscape="http://www.inkscape.org/namespaces/inkscape">
            <path d=" M 478.655, 808.500 480.257, 814.134 477.561, 815.402 471.312, 811.953 468.477, 810.677 465.601, 812.113 464.396, 815.471 466.349, 820.940 463.168, 822.685 457.224, 819.404 454.255, 818.324 452.642, 819.226 451.502, 819.935 450.487, 823.373 452.782, 828.655 449.205, 830.911 443.517, 827.771 440.470, 826.909 437.783, 828.757 436.985, 832.173 439.613, 837.245 435.723, 840.040 430.246, 837.017 427.172, 836.384 424.547, 838.370 423.948, 841.834 426.897, 846.675 422.770, 850.030 417.468, 847.103 414.305, 846.687 412.450, 848.226 411.828, 848.791 411.430, 852.316 414.688, 856.905 410.396, 860.836 405.237, 857.988 402.015, 857.796 399.665, 860.126 399.484, 863.574 403.037, 867.892 398.647, 872.410 393.603, 869.626 390.404, 869.660 388.133, 872.120 388.160, 875.561 391.994, 879.591 387.570, 884.702 382.615, 881.968 379.377, 882.227 377.457, 884.497 377.263, 884.747 377.504, 888.227 381.603, 891.952 377.209, 897.660 372.320, 894.961 369.042, 895.450 367.120, 898.170 367.563, 901.520 371.909, 904.923 367.605, 911.226 362.761, 908.553 359.557, 909.253 357.728, 912.092 358.378, 915.382 362.953, 918.450 358.798, 925.345 353.978, 922.685 350.785, 923.607 349.113, 926.465 349.986, 929.757 354.771, 932.476 350.982, 939.657 346.007, 937.298 342.795, 938.455 341.371, 941.456 342.424, 944.583 347.258, 947.251 344.026, 954.321 338.883, 952.332 335.793, 953.673 334.478, 956.782 335.724, 959.798 340.594, 962.487 337.925, 969.334 332.634, 967.722 329.605, 969.269 328.446, 972.376 329.912, 975.340 334.842, 978.061 332.704, 984.632 327.288, 983.405 324.263, 985.193 323.388, 988.355 325.014, 991.142 330.025, 993.908 328.384, 1000.152 322.866, 999.315 320.006, 1001.249 319.257, 1004.506 321.050, 1007.138 326.168, 1009.963 324.985, 1015.828 319.387, 1015.385 316.633, 1017.497 316.038, 1020.733 318.037, 1023.261 323.288, 1026.160 322.520, 1031.595 316.866, 1031.547 314.165, 1033.885 314.104, 1034.325 313.847, 1037.103 315.987, 1039.444 321.402, 1042.433 320.999, 1047.386 315.313, 1047.734 312.790, 1050.191 312.636, 1053.468 314.909, 1055.618 320.523, 1058.717 320.430, 1063.136 314.736, 1063.878 312.360, 1066.476 312.355, 1069.715 314.808, 1071.717 320.661, 1074.947 320.814, 1078.778 315.135, 1079.911 312.860, 1082.706 312.902, 1083.654 313.106, 1085.866 315.684, 1087.671 321.824, 1091.060 322.149, 1094.247 316.510, 1095.766 314.420, 1098.656 314.864, 1101.826 317.533, 1103.415 324.019, 1106.995 324.431, 1109.478 318.855, 1111.376 316.944, 1114.362 317.534, 1117.478 327.291, 1122.863 327.649, 1124.406 322.159, 1126.677 320.391, 1129.820 320.724, 1131.209 321.193, 1132.810 331.678, 1138.597 331.791, 1138.970 326.410, 1141.603 324.834, 1144.820 325.857, 1147.760 336.201, 1153.470 331.590, 1156.092 330.215, 1159.354 331.379, 1162.224 341.316, 1167.709 337.675, 1170.084 336.475, 1173.456 337.270, 1175.160 337.806, 1176.167 347.408, 1181.468 344.642, 1183.519 343.640, 1186.945 345.200, 1189.542 354.469, 1194.659 352.461, 1196.342 351.673, 1199.758 353.368, 1202.269 362.411, 1207.260 361.098, 1208.498 360.507, 1211.973 361.904, 1213.819 362.317, 1214.309 371.202, 1219.213 370.519, 1219.937 370.133, 1223.444 372.167, 1225.600 380.860, 1230.399 380.682, 1230.610 380.511, 1234.054 382.673, 1236.107 391.552, 1241.008 391.583, 1243.922 393.678, 1245.701 393.807, 1245.798 403.173, 1250.968 403.316, 1252.944 405.740, 1254.577 415.512, 1259.971 415.644, 1260.950 418.190, 1262.464 428.725, 1268.280 428.805, 1268.249 439.070, 1273.915 441.645, 1275.258 442.712, 1274.759 452.475, 1280.148 455.193, 1281.198 457.080, 1280.167 466.287, 1285.250 469.117, 1286.166 471.690, 1284.547 480.505, 1289.413 483.346, 1290.161 486.213, 1288.107 486.316, 1287.774 495.086, 1292.615 495.128, 1292.624 497.991, 1293.051 500.707, 1290.848 500.984, 1289.727 509.858, 1294.625 512.862, 1294.907 515.442, 1292.551 515.798, 1290.642 524.866, 1295.647 527.863, 1295.767 530.356, 1293.208 530.698, 1290.504 540.062, 1295.673 540.591, 1295.666 543.057, 1295.504 545.388, 1292.817 545.626, 1289.223 555.255, 1294.538 558.315, 1294.177 560.474, 1291.380 560.501, 1286.873 570.484, 1292.383 573.521, 1291.865 575.550, 1288.901 575.249, 1283.454 585.720, 1289.234 586.732, 1289.008 588.698, 1288.465 590.554, 1285.392 589.854, 1279.451 590.431, 1279.286 600.767, 1284.991 603.764, 1284.002 605.423, 1280.868 604.359, 1275.032 606.024, 1274.435 615.641, 1279.743 618.600, 1278.604 620.094, 1275.347 618.669, 1269.640 621.087, 1268.595 627.512, 1272.141 630.341, 1273.541 631.780, 1272.906 633.195, 1272.200 634.505, 1268.853 632.727, 1263.299 635.678, 1261.797 641.767, 1265.158 644.682, 1266.342 647.501, 1264.766 648.597, 1261.413 646.472, 1256.034 649.861, 1254.038 655.672, 1257.245 658.640, 1258.203 661.404, 1256.484 662.309, 1253.057 659.847, 1247.878 663.590, 1245.355 669.168, 1248.434 672.249, 1249.185 674.002, 1247.980 674.875, 1247.319 675.586, 1243.822 672.796, 1238.863 676.813, 1235.790 682.199, 1238.763 685.347, 1239.293 687.878, 1237.193 688.370, 1233.745 685.265, 1229.028 689.483, 1225.386 694.710, 1228.271 697.861, 1228.572 700.322, 1226.338 700.608, 1222.870 697.201, 1218.414 701.551, 1214.190 706.649, 1217.004 709.865, 1217.083 711.777, 1215.186 712.171, 1214.760 712.250, 1211.241 708.554, 1207.064 712.969, 1202.250 717.966, 1205.008 721.231, 1204.860 723.377, 1202.322 723.245, 1198.908 719.277, 1195.029 723.694, 1189.619 728.612, 1192.334 731.829, 1191.965 733.889, 1189.302 733.549, 1185.921 729.325, 1182.356 733.681, 1176.350 738.545, 1179.034 741.776, 1178.441 743.652, 1175.786 743.678, 1175.746 743.117, 1172.337 738.655, 1169.100 742.891, 1162.500 747.721, 1165.165 750.981, 1164.339 752.662, 1161.465 751.911, 1158.211 747.228, 1155.316 751.220, 1148.245 756.102, 1150.785 759.264, 1149.760 760.843, 1146.771 759.891, 1143.603 755.069, 1140.941 758.592, 1133.778 763.654, 1135.954 766.780, 1134.713 768.202, 1131.717 767.026, 1128.574 762.177, 1125.897 765.124, 1118.932 770.344, 1120.734 773.477, 1119.255 774.631, 1116.159 773.286, 1113.188 768.388, 1110.484 770.788, 1103.769 776.144, 1105.189 779.133, 1103.544 780.170, 1100.346 778.644, 1097.508 773.676, 1094.766 775.561, 1088.352 781.031, 1089.384 783.936, 1087.546 784.818, 1084.359 783.077, 1081.601 778.015, 1078.807 779.422, 1072.746 784.984, 1073.386 787.862, 1071.311 787.903, 1071.134 788.459, 1068.109 786.567, 1065.532 781.386, 1062.673 782.356, 1057.016 787.985, 1057.262 790.689, 1055.056 791.143, 1051.773 789.100, 1049.371 783.771, 1046.429 784.350, 1041.228 790.023, 1041.078 792.599, 1038.712 792.901, 1035.459 790.664, 1033.184 785.155, 1030.143 785.395, 1025.450 791.089, 1024.905 793.588, 1022.326 793.621, 1021.626 793.625, 1019.122 791.254, 1017.039 785.527, 1013.877 785.488, 1009.745 791.178, 1008.808 793.495, 1006.122 793.350, 1002.883 790.867, 1001.004 784.877, 997.698 784.628, 994.182 790.290, 992.855 792.443, 990.050 792.150, 986.857 789.504, 985.147 783.199, 981.666 782.819, 978.824 788.429, 977.114 790.460, 974.131 790.295, 972.950 789.934, 971.042 780.482, 965.825 780.067, 963.737 785.603, 961.651 787.445, 958.584 786.708, 955.513 776.646, 949.959 776.385, 948.983 781.823, 946.530 783.474, 943.391 782.593, 940.384 772.057, 934.568 771.961, 934.533 777.106, 931.814 778.596, 928.541 778.052, 926.975 777.525, 925.678 767.365, 920.070 771.470, 917.566 772.766, 914.230 771.468, 911.447 761.737, 906.076 764.941, 903.846 766.027, 900.491 764.590, 897.787 755.166, 892.585 757.544, 890.710 758.443, 887.270 757.362, 885.470 756.866, 884.735 747.680, 879.665 749.312, 878.214 750.009, 874.731 748.203, 872.343 739.274, 867.414 740.278, 866.410 740.760, 862.964 738.822, 860.671 730.052, 855.830 730.481, 855.348 730.759, 851.870 729.022, 850.029 728.733, 849.755 719.965, 844.915 720.030, 841.575 717.790, 839.672 708.724, 834.667 708.623, 832.223 706.258, 830.430 696.740, 825.177 696.584, 823.674 694.179, 822.055 684.031, 816.453 683.957, 816.010 673.421, 810.194 670.837, 808.847 670.241, 809.103 660.289, 803.610 657.588, 802.388 656.110, 803.138 646.670, 797.927 643.949, 796.875 641.694, 798.199 632.611, 793.185 629.786, 792.441 626.915, 794.370 626.908, 794.392 618.251, 789.614 615.320, 789.012 612.565, 791.113 612.357, 791.860 603.568, 787.009 600.635, 786.572 597.943, 788.890 597.624, 790.364 588.609, 785.388 588.327, 785.361 585.646, 785.254 583.110, 787.709 582.749, 790.022 573.556, 784.948 570.510, 784.988 568.129, 787.576 567.825, 790.738 558.366, 785.517 555.335, 785.716 553.063, 788.491 552.917, 792.518 543.078, 787.087 542.303, 787.178 540.078, 787.558 537.974, 790.450 538.096, 795.422 527.887, 789.787 524.843, 790.466 522.926, 793.445 523.442, 799.429 523.299, 799.322 512.763, 793.506 509.751, 794.339 507.981, 797.464 508.864, 803.356 507.723, 803.724 497.724, 798.205 496.488, 798.613 494.795, 799.265 493.204, 802.489 494.449, 808.264 492.337, 809.099 485.720, 805.446 482.961, 803.952 480.039, 805.242 478.655, 808.500  z M 399.477, 1117.918 397.107, 1109.828 395.126, 1101.579 393.537, 1093.189 392.346, 1084.678 391.554, 1076.068 391.163, 1067.379 391.176, 1058.632 391.591, 1049.848 392.407, 1041.047 393.623, 1032.253 395.236, 1023.484 397.241, 1014.764 399.634, 1006.112 402.410, 997.550 405.560, 989.097 409.079, 980.776 412.957, 972.604 417.186, 964.603 421.754, 956.792 426.651, 949.189 431.865, 941.812 437.383, 934.680 443.193, 927.810 449.280, 921.217 455.629, 914.919 462.226, 908.930 469.054, 903.265 476.097, 897.936 483.338, 892.958 490.759, 888.342 498.344, 884.100 506.072, 880.240 513.926, 876.774 521.887, 873.708 529.936, 871.052 538.053, 868.809 546.218, 866.988 554.413, 865.591 562.617, 864.622 570.810, 864.083 578.973, 863.976 587.086, 864.301 595.130, 865.057 603.085, 866.242 610.932, 867.854 618.652, 869.889 626.227, 872.341 633.638, 875.205 640.867, 878.473 641.742, 878.930 644.176, 880.378 650.758, 884.810 657.092, 889.610 663.162, 894.766 668.954, 900.266 674.454, 906.097 679.649, 912.244 684.527, 918.692 689.074, 925.427 693.281, 932.432 697.138, 939.689 700.634, 947.182 703.762, 954.893 706.514, 962.802 708.884, 970.891 710.865, 979.141 712.454, 987.531 713.645, 996.042 714.437, 1004.652 714.827, 1013.341 714.815, 1022.088 714.400, 1030.872 713.584, 1039.672 712.368, 1048.467 710.755, 1057.235 708.750, 1065.956 706.357, 1074.608 703.582, 1083.170 700.431, 1091.622 696.912, 1099.944 693.034, 1108.115 688.806, 1116.116 684.238, 1123.928 679.341, 1131.531 674.127, 1138.908 668.608, 1146.040 662.799, 1152.910 656.712, 1159.502 650.362, 1165.801 643.765, 1171.790 636.937, 1177.455 629.894, 1182.784 622.653, 1187.762 615.232, 1192.378 607.648, 1196.620 599.919, 1200.480 592.065, 1203.946 584.104, 1207.012 576.055, 1209.669 567.939, 1211.911 559.773, 1213.733 551.578, 1215.130 543.375, 1216.099 535.181, 1216.637 527.018, 1216.744 518.905, 1216.419 510.861, 1215.663 502.906, 1214.478 495.059, 1212.866 487.339, 1210.832 479.764, 1208.379 472.353, 1205.516 465.124, 1202.247 464.249, 1201.791 461.815, 1200.342 455.233, 1195.910 448.899, 1191.110 442.829, 1185.954 437.036, 1180.454 431.536, 1174.623 426.341, 1168.476 421.464, 1162.027 416.917, 1155.293 412.710, 1148.288 408.853, 1141.031 405.357, 1133.537 402.229, 1125.827 399.477, 1117.918  z" fill="rgb(204, 0, 0)" fill-opacity="1.0" fill_rule="evenodd" stroke="none" />
        </g>
        <g id="strokes" inkscape:groupmode="layer" inkscape:label="strokes">
            <path d=" M 402.229, 1125.827 399.477, 1117.918 397.107, 1109.828 395.126, 1101.579 393.537, 1093.189 392.346, 1084.678 391.554, 1076.068 391.163, 1067.379 391.176, 1058.632 391.591, 1049.848 392.407, 1041.047 393.623, 1032.253 395.236, 1023.484 397.241, 1014.764 399.634, 1006.112 402.410, 997.550 405.560, 989.097 409.079, 980.776 412.957, 972.604 417.186, 964.603 421.754, 956.792 426.651, 949.189 431.865, 941.812 437.383, 934.680 443.193, 927.810 449.280, 921.217 455.629, 914.919 462.226, 908.930 469.054, 903.265 476.097, 897.936 483.338, 892.958 490.759, 888.342 498.344, 884.100 506.072, 880.240 513.926, 876.774 521.887, 873.708 529.936, 871.052 538.053, 868.809 546.218, 866.988 554.413, 865.591 562.617, 864.622 570.810, 864.083 578.973, 863.976 587.086, 864.301 595.130, 865.057 603.085, 866.242 610.932, 867.854 618.652, 869.889 626.227, 872.341 633.638, 875.205 640.867, 878.473 641.742, 878.930 " fill="none" stroke="rgb(0, 0, 0)" stroke-linecap="round" stroke-linejoin="round" stroke-opacity="1.0" stroke-width="2.0" />
            <path d=" M 684.238, 1123.928 688.806, 1116.116 693.034, 1108.115 696.912, 1099.944 700.431, 1091.622 703.582, 1083.170 706.357, 1074.608 708.750, 1065.956 710.755, 1057.235 712.368, 1048.467 713.584, 1039.672 714.400, 1030.872 714.815, 1022.088 714.827, 1013.341 714.437, 1004.652 713.645, 996.042 712.454, 987.531 710.865, 979.141 708.884, 970.891 706.514, 962.802 703.762, 954.893 700.634, 947.182 697.138, 939.689 693.281, 932.432 689.074, 925.427 684.527, 918.692 679.649, 912.244 674.454, 906.097 668.954, 900.266 663.162, 894.766 657.092, 889.610 650.758, 884.810 644.176, 880.378 641.742, 878.930 637.361, 876.324 630.331, 872.658 623.102, 869.389 615.691, 866.525 608.116, 864.073 600.396, 862.039 592.549, 860.427 584.594, 859.241 576.550, 858.485 568.437, 858.160 560.274, 858.267 552.081, 858.806 543.877, 859.775 535.682, 861.172 527.517, 862.994 519.400, 865.236 511.351, 867.893 503.390, 870.958 495.536, 874.425 487.808, 878.284 480.224, 882.527 472.802, 887.143 465.561, 892.121 458.518, 897.449 451.690, 903.114 445.093, 909.104 438.744, 915.402 432.657, 921.994 426.847, 928.865 421.329, 935.997 416.115, 943.373 411.218, 950.976 406.650, 958.788 402.421, 966.789 398.543, 974.960 395.025, 983.282 391.874, 991.734 389.098, 1000.296 386.705, 1008.948 384.700, 1017.669 383.087, 1026.437 381.871, 1035.232 381.055, 1044.032 380.640, 1052.816 380.628, 1061.563 381.018, 1070.253 381.810, 1078.863 383.001, 1087.373 384.590, 1095.763 386.571, 1104.013 388.941, 1112.102 391.693, 1120.011 394.821, 1127.722 " fill="none" stroke="rgb(0, 0, 0)" stroke-linecap="round" stroke-linejoin="round" stroke-opacity="1.0" stroke-width="2.0" />
            <path d=" M 492.337, 809.099 485.720, 805.446 482.961, 803.952 480.039, 805.242 478.655, 808.500 480.257, 814.134 477.561, 815.402 477.277, 815.535 474.320, 816.925 473.264, 817.422 " fill="none" stroke="rgb(0, 0, 0)" stroke-linecap="round" stroke-linejoin="round" stroke-opacity="1.0" stroke-width="2.0" />
            <path d=" M 459.519, 824.686 459.815, 824.523 462.660, 822.963 463.168, 822.685 466.349, 820.940 464.396, 815.471 465.601, 812.113 468.477, 810.677 471.312, 811.953 473.264, 817.422 " fill="none" stroke="rgb(0, 0, 0)" stroke-linecap="round" stroke-linejoin="round" stroke-opacity="1.0" stroke-width="2.0" />
            <path d=" M 446.144, 832.842 448.512, 831.348 449.205, 830.911 452.782, 828.655 450.487, 823.373 451.502, 819.935 452.642, 819.226 454.255, 818.324 457.224, 819.404 459.519, 824.686 " fill="none" stroke="rgb(0, 0, 0)" stroke-linecap="round" stroke-linejoin="round" stroke-opacity="1.0" stroke-width="2.0" />
            <path d=" M 433.195, 841.857 434.885, 840.642 435.723, 840.040 439.613, 837.245 436.985, 832.173 437.783, 828.757 440.470, 826.909 443.517, 827.771 446.144, 832.842 " fill="none" stroke="rgb(0, 0, 0)" stroke-linecap="round" stroke-linejoin="round" stroke-opacity="1.0" stroke-width="2.0" />
            <path d=" M 420.726, 851.692 421.796, 850.822 422.770, 850.030 426.897, 846.675 423.948, 841.834 424.547, 838.370 427.172, 836.384 430.246, 837.017 433.195, 841.857 " fill="none" stroke="rgb(0, 0, 0)" stroke-linecap="round" stroke-linejoin="round" stroke-opacity="1.0" stroke-width="2.0" />
            <path d=" M 408.790, 862.307 409.315, 861.826 410.396, 860.836 414.688, 856.905 411.430, 852.316 411.828, 848.791 412.450, 848.226 414.305, 846.687 417.468, 847.103 420.726, 851.692 " fill="none" stroke="rgb(0, 0, 0)" stroke-linecap="round" stroke-linejoin="round" stroke-opacity="1.0" stroke-width="2.0" />
            <path d=" M 397.437, 873.656 397.509, 873.581 398.647, 872.410 403.037, 867.892 399.484, 863.574 399.665, 860.126 402.015, 857.796 405.237, 857.988 408.790, 862.307 " fill="none" stroke="rgb(0, 0, 0)" stroke-linecap="round" stroke-linejoin="round" stroke-opacity="1.0" stroke-width="2.0" />
            <path d=" M 386.714, 885.692 387.570, 884.702 391.994, 879.591 388.160, 875.561 388.133, 872.120 390.404, 869.660 393.603, 869.626 397.437, 873.656 " fill="none" stroke="rgb(0, 0, 0)" stroke-linecap="round" stroke-linejoin="round" stroke-opacity="1.0" stroke-width="2.0" />
            <path d=" M 376.666, 898.364 377.209, 897.660 381.603, 891.952 377.504, 888.227 377.263, 884.747 377.457, 884.497 379.377, 882.227 382.615, 881.968 386.714, 885.692 " fill="none" stroke="rgb(0, 0, 0)" stroke-linecap="round" stroke-linejoin="round" stroke-opacity="1.0" stroke-width="2.0" />
            <path d=" M 367.336, 911.620 367.605, 911.226 371.909, 904.923 367.563, 901.520 367.120, 898.170 369.042, 895.450 372.320, 894.961 376.666, 898.364 " fill="none" stroke="rgb(0, 0, 0)" stroke-linecap="round" stroke-linejoin="round" stroke-opacity="1.0" stroke-width="2.0" />
            <path d=" M 358.763, 925.404 358.798, 925.345 362.953, 918.450 358.378, 915.382 357.728, 912.092 359.557, 909.253 362.761, 908.553 367.336, 911.620 " fill="none" stroke="rgb(0, 0, 0)" stroke-linecap="round" stroke-linejoin="round" stroke-opacity="1.0" stroke-width="2.0" />
            <path d=" M 347.258, 947.251 342.424, 944.583 341.371, 941.456 342.795, 938.455 346.007, 937.298 350.982, 939.657 354.771, 932.476 349.986, 929.757 349.113, 926.465 350.785, 923.607 353.978, 922.685 358.763, 925.404 " fill="none" stroke="rgb(0, 0, 0)" stroke-linecap="round" stroke-linejoin="round" stroke-opacity="1.0" stroke-width="2.0" />
            <path d=" M 340.594, 962.487 335.724, 959.798 334.478, 956.782 335.793, 953.673 338.883, 952.332 344.026, 954.321 347.258, 947.251 347.399, 946.942 342.424, 944.583 " fill="none" stroke="rgb(0, 0, 0)" stroke-linecap="round" stroke-linejoin="round" stroke-opacity="1.0" stroke-width="2.0" />
            <path d=" M 334.842, 978.061 329.912, 975.340 328.446, 972.376 329.605, 969.269 332.634, 967.722 337.925, 969.334 340.594, 962.487 340.867, 961.788 335.724, 959.798 " fill="none" stroke="rgb(0, 0, 0)" stroke-linecap="round" stroke-linejoin="round" stroke-opacity="1.0" stroke-width="2.0" />
            <path d=" M 330.025, 993.908 325.014, 991.142 323.388, 988.355 324.263, 985.193 327.288, 983.405 332.704, 984.632 334.842, 978.061 335.203, 976.951 329.912, 975.340 " fill="none" stroke="rgb(0, 0, 0)" stroke-linecap="round" stroke-linejoin="round" stroke-opacity="1.0" stroke-width="2.0" />
            <path d=" M 326.168, 1009.963 321.050, 1007.138 319.257, 1004.506 320.006, 1001.249 322.866, 999.315 328.384, 1000.152 330.025, 993.908 330.430, 992.368 325.014, 991.142 " fill="none" stroke="rgb(0, 0, 0)" stroke-linecap="round" stroke-linejoin="round" stroke-opacity="1.0" stroke-width="2.0" />
            <path d=" M 323.288, 1026.160 318.037, 1023.261 316.038, 1020.733 316.633, 1017.497 319.387, 1015.385 324.985, 1015.828 326.168, 1009.963 326.466, 1008.485 326.569, 1007.974 321.050, 1007.138 " fill="none" stroke="rgb(0, 0, 0)" stroke-linecap="round" stroke-linejoin="round" stroke-opacity="1.0" stroke-width="2.0" />
            <path d=" M 321.402, 1042.433 315.987, 1039.444 313.847, 1037.103 314.104, 1034.325 314.165, 1033.885 316.866, 1031.547 322.520, 1031.595 323.288, 1026.160 323.475, 1024.838 323.635, 1023.704 318.037, 1023.261 " fill="none" stroke="rgb(0, 0, 0)" stroke-linecap="round" stroke-linejoin="round" stroke-opacity="1.0" stroke-width="2.0" />
            <path d=" M 320.523, 1058.717 314.909, 1055.618 312.636, 1053.468 312.790, 1050.191 315.313, 1047.734 320.999, 1047.386 321.402, 1042.433 321.492, 1041.323 321.641, 1039.492 315.987, 1039.444 " fill="none" stroke="rgb(0, 0, 0)" stroke-linecap="round" stroke-linejoin="round" stroke-opacity="1.0" stroke-width="2.0" />
            <path d=" M 320.661, 1074.947 314.808, 1071.717 312.355, 1069.715 312.360, 1066.476 314.736, 1063.878 320.430, 1063.136 320.523, 1058.717 320.542, 1057.832 320.596, 1055.271 314.909, 1055.618 " fill="none" stroke="rgb(0, 0, 0)" stroke-linecap="round" stroke-linejoin="round" stroke-opacity="1.0" stroke-width="2.0" />
            <path d=" M 321.824, 1091.060 315.684, 1087.671 313.106, 1085.866 312.902, 1083.654 312.860, 1082.706 315.135, 1079.911 320.814, 1078.778 320.661, 1074.947 320.635, 1074.285 320.503, 1070.975 314.808, 1071.717 " fill="none" stroke="rgb(0, 0, 0)" stroke-linecap="round" stroke-linejoin="round" stroke-opacity="1.0" stroke-width="2.0" />
            <path d=" M 324.019, 1106.995 317.533, 1103.415 314.864, 1101.826 314.420, 1098.656 316.510, 1095.766 322.149, 1094.247 321.824, 1091.060 321.783, 1090.656 321.456, 1087.450 321.363, 1086.539 315.684, 1087.671 " fill="none" stroke="rgb(0, 0, 0)" stroke-linecap="round" stroke-linejoin="round" stroke-opacity="1.0" stroke-width="2.0" />
            <path d=" M 327.291, 1122.863 318.536, 1118.031 317.534, 1117.478 316.944, 1114.362 318.855, 1111.376 324.431, 1109.478 324.019, 1106.995 323.998, 1106.868 323.463, 1103.647 323.172, 1101.896 317.533, 1103.415 " fill="none" stroke="rgb(0, 0, 0)" stroke-linecap="round" stroke-linejoin="round" stroke-opacity="1.0" stroke-width="2.0" />
            <path d=" M 327.649, 1124.406 327.291, 1122.863 326.547, 1119.662 325.924, 1116.984 320.348, 1118.882 320.165, 1118.791 317.534, 1117.478 " fill="none" stroke="rgb(0, 0, 0)" stroke-linecap="round" stroke-linejoin="round" stroke-opacity="1.0" stroke-width="2.0" />
            <path d=" M 756.491, 1122.759 751.429, 1120.583 " fill="none" stroke="rgb(0, 0, 0)" stroke-linecap="round" stroke-linejoin="round" stroke-opacity="1.0" stroke-width="2.0" />
            <path d=" M 762.941, 1113.439 759.808, 1114.918 754.588, 1113.117 " fill="none" stroke="rgb(0, 0, 0)" stroke-linecap="round" stroke-linejoin="round" stroke-opacity="1.0" stroke-width="2.0" />
            <path d=" M 751.429, 1120.583 754.588, 1113.117 763.343, 1117.949 765.124, 1118.932 " fill="none" stroke="rgb(0, 0, 0)" stroke-linecap="round" stroke-linejoin="round" stroke-opacity="1.0" stroke-width="2.0" />
            <path d=" M 762.177, 1125.897 765.124, 1118.932 770.344, 1120.734 773.477, 1119.255 774.631, 1116.159 773.286, 1113.188 768.388, 1110.484 " fill="none" stroke="rgb(0, 0, 0)" stroke-linecap="round" stroke-linejoin="round" stroke-opacity="1.0" stroke-width="2.0" />
            <path d=" M 756.491, 1122.759 756.782, 1123.538 " fill="none" stroke="rgb(0, 0, 0)" stroke-linecap="round" stroke-linejoin="round" stroke-opacity="1.0" stroke-width="2.0" />
            <path d=" M 773.477, 1119.255 764.722, 1114.423 762.941, 1113.439 764.095, 1110.343 " fill="none" stroke="rgb(0, 0, 0)" stroke-linecap="round" stroke-linejoin="round" stroke-opacity="1.0" stroke-width="2.0" />
            <path d=" M 762.750, 1107.372 757.530, 1105.571 " fill="none" stroke="rgb(0, 0, 0)" stroke-linecap="round" stroke-linejoin="round" stroke-opacity="1.0" stroke-width="2.0" />
            <path d=" M 768.598, 1097.728 765.609, 1099.373 760.252, 1097.953 " fill="none" stroke="rgb(0, 0, 0)" stroke-linecap="round" stroke-linejoin="round" stroke-opacity="1.0" stroke-width="2.0" />
            <path d=" M 757.530, 1105.571 760.252, 1097.953 769.007, 1102.786 770.788, 1103.769 " fill="none" stroke="rgb(0, 0, 0)" stroke-linecap="round" stroke-linejoin="round" stroke-opacity="1.0" stroke-width="2.0" />
            <path d=" M 768.388, 1110.484 770.788, 1103.769 776.144, 1105.189 779.133, 1103.544 780.170, 1100.346 778.644, 1097.508 773.676, 1094.766 " fill="none" stroke="rgb(0, 0, 0)" stroke-linecap="round" stroke-linejoin="round" stroke-opacity="1.0" stroke-width="2.0" />
            <path d=" M 762.750, 1107.372 763.402, 1108.812 764.095, 1110.343 772.850, 1115.176 774.631, 1116.159 " fill="none" stroke="rgb(0, 0, 0)" stroke-linecap="round" stroke-linejoin="round" stroke-opacity="1.0" stroke-width="2.0" />
            <path d=" M 779.133, 1103.544 770.379, 1098.711 768.598, 1097.728 769.634, 1094.530 " fill="none" stroke="rgb(0, 0, 0)" stroke-linecap="round" stroke-linejoin="round" stroke-opacity="1.0" stroke-width="2.0" />
            <path d=" M 768.108, 1091.692 762.751, 1090.273 " fill="none" stroke="rgb(0, 0, 0)" stroke-linecap="round" stroke-linejoin="round" stroke-opacity="1.0" stroke-width="2.0" />
            <path d=" M 773.400, 1081.730 770.495, 1083.569 765.025, 1082.536 " fill="none" stroke="rgb(0, 0, 0)" stroke-linecap="round" stroke-linejoin="round" stroke-opacity="1.0" stroke-width="2.0" />
            <path d=" M 762.751, 1090.273 765.025, 1082.536 773.780, 1087.369 775.561, 1088.352 " fill="none" stroke="rgb(0, 0, 0)" stroke-linecap="round" stroke-linejoin="round" stroke-opacity="1.0" stroke-width="2.0" />
            <path d=" M 773.676, 1094.766 775.561, 1088.352 781.031, 1089.384 783.936, 1087.546 784.818, 1084.359 783.077, 1081.601 778.015, 1078.807 " fill="none" stroke="rgb(0, 0, 0)" stroke-linecap="round" stroke-linejoin="round" stroke-opacity="1.0" stroke-width="2.0" />
            <path d=" M 768.108, 1091.692 769.284, 1093.878 769.634, 1094.530 778.389, 1099.363 780.170, 1100.346 " fill="none" stroke="rgb(0, 0, 0)" stroke-linecap="round" stroke-linejoin="round" stroke-opacity="1.0" stroke-width="2.0" />
            <path d=" M 783.936, 1087.546 775.181, 1082.713 773.400, 1081.730 774.236, 1078.708 774.282, 1078.543 " fill="none" stroke="rgb(0, 0, 0)" stroke-linecap="round" stroke-linejoin="round" stroke-opacity="1.0" stroke-width="2.0" />
            <path d=" M 772.541, 1075.785 767.071, 1074.753 " fill="none" stroke="rgb(0, 0, 0)" stroke-linecap="round" stroke-linejoin="round" stroke-opacity="1.0" stroke-width="2.0" />
            <path d=" M 777.326, 1065.496 774.448, 1067.570 768.886, 1066.930 " fill="none" stroke="rgb(0, 0, 0)" stroke-linecap="round" stroke-linejoin="round" stroke-opacity="1.0" stroke-width="2.0" />
            <path d=" M 767.071, 1074.753 768.886, 1066.930 777.641, 1071.763 779.422, 1072.746 " fill="none" stroke="rgb(0, 0, 0)" stroke-linecap="round" stroke-linejoin="round" stroke-opacity="1.0" stroke-width="2.0" />
            <path d=" M 778.015, 1078.807 779.422, 1072.746 784.984, 1073.386 787.862, 1071.311 787.903, 1071.134 788.459, 1068.109 786.567, 1065.532 781.386, 1062.673 " fill="none" stroke="rgb(0, 0, 0)" stroke-linecap="round" stroke-linejoin="round" stroke-opacity="1.0" stroke-width="2.0" />
            <path d=" M 772.541, 1075.785 774.282, 1078.543 777.646, 1080.400 784.818, 1084.359 " fill="none" stroke="rgb(0, 0, 0)" stroke-linecap="round" stroke-linejoin="round" stroke-opacity="1.0" stroke-width="2.0" />
            <path d=" M 787.862, 1071.311 779.107, 1066.479 777.326, 1065.496 777.367, 1065.318 777.773, 1063.108 777.923, 1062.293 " fill="none" stroke="rgb(0, 0, 0)" stroke-linecap="round" stroke-linejoin="round" stroke-opacity="1.0" stroke-width="2.0" />
            <path d=" M 776.031, 1059.717 770.470, 1059.077 " fill="none" stroke="rgb(0, 0, 0)" stroke-linecap="round" stroke-linejoin="round" stroke-opacity="1.0" stroke-width="2.0" />
            <path d=" M 780.153, 1049.241 777.449, 1051.446 771.820, 1051.200 " fill="none" stroke="rgb(0, 0, 0)" stroke-linecap="round" stroke-linejoin="round" stroke-opacity="1.0" stroke-width="2.0" />
            <path d=" M 770.470, 1059.077 771.820, 1051.200 780.575, 1056.033 782.356, 1057.016 " fill="none" stroke="rgb(0, 0, 0)" stroke-linecap="round" stroke-linejoin="round" stroke-opacity="1.0" stroke-width="2.0" />
            <path d=" M 781.386, 1062.673 782.356, 1057.016 787.985, 1057.262 790.689, 1055.056 791.143, 1051.773 789.100, 1049.371 783.771, 1046.429 " fill="none" stroke="rgb(0, 0, 0)" stroke-linecap="round" stroke-linejoin="round" stroke-opacity="1.0" stroke-width="2.0" />
            <path d=" M 776.031, 1059.717 777.923, 1062.293 781.146, 1064.072 788.459, 1068.109 " fill="none" stroke="rgb(0, 0, 0)" stroke-linecap="round" stroke-linejoin="round" stroke-opacity="1.0" stroke-width="2.0" />
            <path d=" M 790.689, 1055.056 781.934, 1050.224 780.153, 1049.241 780.403, 1047.432 780.607, 1045.958 " fill="none" stroke="rgb(0, 0, 0)" stroke-linecap="round" stroke-linejoin="round" stroke-opacity="1.0" stroke-width="2.0" />
            <path d=" M 778.564, 1043.555 772.935, 1043.310 " fill="none" stroke="rgb(0, 0, 0)" stroke-linecap="round" stroke-linejoin="round" stroke-opacity="1.0" stroke-width="2.0" />
            <path d=" M 782.064, 1032.897 779.487, 1035.263 773.814, 1035.413 " fill="none" stroke="rgb(0, 0, 0)" stroke-linecap="round" stroke-linejoin="round" stroke-opacity="1.0" stroke-width="2.0" />
            <path d=" M 772.935, 1043.310 773.814, 1035.413 782.569, 1040.245 784.350, 1041.228 " fill="none" stroke="rgb(0, 0, 0)" stroke-linecap="round" stroke-linejoin="round" stroke-opacity="1.0" stroke-width="2.0" />
            <path d=" M 783.771, 1046.429 784.350, 1041.228 790.023, 1041.078 792.599, 1038.712 792.901, 1035.459 790.664, 1033.184 785.155, 1030.143 " fill="none" stroke="rgb(0, 0, 0)" stroke-linecap="round" stroke-linejoin="round" stroke-opacity="1.0" stroke-width="2.0" />
            <path d=" M 778.564, 1043.555 780.607, 1045.958 783.637, 1047.630 791.143, 1051.773 " fill="none" stroke="rgb(0, 0, 0)" stroke-linecap="round" stroke-linejoin="round" stroke-opacity="1.0" stroke-width="2.0" />
            <path d=" M 792.599, 1038.712 783.845, 1033.880 782.064, 1032.897 782.168, 1031.775 782.365, 1029.643 " fill="none" stroke="rgb(0, 0, 0)" stroke-linecap="round" stroke-linejoin="round" stroke-opacity="1.0" stroke-width="2.0" />
            <path d=" M 780.129, 1027.368 774.456, 1027.518 " fill="none" stroke="rgb(0, 0, 0)" stroke-linecap="round" stroke-linejoin="round" stroke-opacity="1.0" stroke-width="2.0" />
            <path d=" M 783.052, 1016.510 780.553, 1019.089 774.860, 1019.634 " fill="none" stroke="rgb(0, 0, 0)" stroke-linecap="round" stroke-linejoin="round" stroke-opacity="1.0" stroke-width="2.0" />
            <path d=" M 774.456, 1027.518 774.860, 1019.634 783.614, 1024.466 785.395, 1025.450 " fill="none" stroke="rgb(0, 0, 0)" stroke-linecap="round" stroke-linejoin="round" stroke-opacity="1.0" stroke-width="2.0" />
            <path d=" M 785.155, 1030.143 785.395, 1025.450 791.089, 1024.905 793.588, 1022.326 793.621, 1021.626 793.625, 1019.122 791.254, 1017.039 785.527, 1013.877 " fill="none" stroke="rgb(0, 0, 0)" stroke-linecap="round" stroke-linejoin="round" stroke-opacity="1.0" stroke-width="2.0" />
            <path d=" M 780.129, 1027.368 782.365, 1029.643 785.103, 1031.154 792.901, 1035.459 " fill="none" stroke="rgb(0, 0, 0)" stroke-linecap="round" stroke-linejoin="round" stroke-opacity="1.0" stroke-width="2.0" />
            <path d=" M 793.588, 1022.326 784.833, 1017.493 783.052, 1016.510 783.066, 1016.207 783.085, 1015.810 783.089, 1013.306 " fill="none" stroke="rgb(0, 0, 0)" stroke-linecap="round" stroke-linejoin="round" stroke-opacity="1.0" stroke-width="2.0" />
            <path d=" M 780.718, 1011.223 775.025, 1011.768 " fill="none" stroke="rgb(0, 0, 0)" stroke-linecap="round" stroke-linejoin="round" stroke-opacity="1.0" stroke-width="2.0" />
            <path d=" M 782.959, 1000.307 782.719, 1000.585 780.642, 1002.992 774.952, 1003.930 " fill="none" stroke="rgb(0, 0, 0)" stroke-linecap="round" stroke-linejoin="round" stroke-opacity="1.0" stroke-width="2.0" />
            <path d=" M 775.025, 1011.768 774.952, 1003.930 783.707, 1008.762 785.488, 1009.745 " fill="none" stroke="rgb(0, 0, 0)" stroke-linecap="round" stroke-linejoin="round" stroke-opacity="1.0" stroke-width="2.0" />
            <path d=" M 785.527, 1013.877 785.488, 1009.745 791.178, 1008.808 793.495, 1006.122 793.350, 1002.883 790.867, 1001.004 784.877, 997.698 " fill="none" stroke="rgb(0, 0, 0)" stroke-linecap="round" stroke-linejoin="round" stroke-opacity="1.0" stroke-width="2.0" />
            <path d=" M 780.718, 1011.223 783.089, 1013.306 785.534, 1014.656 793.625, 1019.122 " fill="none" stroke="rgb(0, 0, 0)" stroke-linecap="round" stroke-linejoin="round" stroke-opacity="1.0" stroke-width="2.0" />
            <path d=" M 793.495, 1006.122 785.147, 1001.514 782.959, 1000.307 782.814, 997.067 " fill="none" stroke="rgb(0, 0, 0)" stroke-linecap="round" stroke-linejoin="round" stroke-opacity="1.0" stroke-width="2.0" />
            <path d=" M 780.331, 995.189 774.641, 996.126 " fill="none" stroke="rgb(0, 0, 0)" stroke-linecap="round" stroke-linejoin="round" stroke-opacity="1.0" stroke-width="2.0" />
            <path d=" M 781.908, 984.235 781.276, 985.057 779.754, 987.040 774.092, 988.366 " fill="none" stroke="rgb(0, 0, 0)" stroke-linecap="round" stroke-linejoin="round" stroke-opacity="1.0" stroke-width="2.0" />
            <path d=" M 774.641, 996.126 774.092, 988.366 782.847, 993.199 784.628, 994.182 " fill="none" stroke="rgb(0, 0, 0)" stroke-linecap="round" stroke-linejoin="round" stroke-opacity="1.0" stroke-width="2.0" />
            <path d=" M 784.877, 997.698 784.628, 994.182 790.290, 992.855 792.443, 990.050 792.150, 986.857 789.504, 985.147 783.199, 981.666 " fill="none" stroke="rgb(0, 0, 0)" stroke-linecap="round" stroke-linejoin="round" stroke-opacity="1.0" stroke-width="2.0" />
            <path d=" M 780.331, 995.189 782.814, 997.067 784.914, 998.226 793.350, 1002.883 " fill="none" stroke="rgb(0, 0, 0)" stroke-linecap="round" stroke-linejoin="round" stroke-opacity="1.0" stroke-width="2.0" />
            <path d=" M 792.443, 990.050 783.673, 985.209 781.908, 984.235 781.614, 981.042 " fill="none" stroke="rgb(0, 0, 0)" stroke-linecap="round" stroke-linejoin="round" stroke-opacity="1.0" stroke-width="2.0" />
            <path d=" M 778.968, 979.331 773.306, 980.658 " fill="none" stroke="rgb(0, 0, 0)" stroke-linecap="round" stroke-linejoin="round" stroke-opacity="1.0" stroke-width="2.0" />
            <path d=" M 779.924, 968.316 778.923, 969.787 777.893, 971.299 772.283, 973.008 " fill="none" stroke="rgb(0, 0, 0)" stroke-linecap="round" stroke-linejoin="round" stroke-opacity="1.0" stroke-width="2.0" />
            <path d=" M 773.306, 980.658 772.283, 973.008 781.037, 977.841 782.819, 978.824 " fill="none" stroke="rgb(0, 0, 0)" stroke-linecap="round" stroke-linejoin="round" stroke-opacity="1.0" stroke-width="2.0" />
            <path d=" M 783.199, 981.666 782.819, 978.824 788.429, 977.114 790.460, 974.131 790.295, 972.950 789.934, 971.042 781.179, 966.210 780.482, 965.825 779.398, 965.227 776.635, 963.717 771.024, 965.427 " fill="none" stroke="rgb(0, 0, 0)" stroke-linecap="round" stroke-linejoin="round" stroke-opacity="1.0" stroke-width="2.0" />
            <path d=" M 778.968, 979.331 781.614, 981.042 783.235, 981.936 791.990, 986.769 792.150, 986.857 " fill="none" stroke="rgb(0, 0, 0)" stroke-linecap="round" stroke-linejoin="round" stroke-opacity="1.0" stroke-width="2.0" />
            <path d=" M 790.460, 974.131 781.705, 969.299 781.108, 968.969 779.924, 968.316 779.759, 967.134 779.398, 965.227 " fill="none" stroke="rgb(0, 0, 0)" stroke-linecap="round" stroke-linejoin="round" stroke-opacity="1.0" stroke-width="2.0" />
            <path d=" M 776.910, 952.768 775.667, 954.837 775.067, 955.835 769.531, 957.921 " fill="none" stroke="rgb(0, 0, 0)" stroke-linecap="round" stroke-linejoin="round" stroke-opacity="1.0" stroke-width="2.0" />
            <path d=" M 771.024, 965.427 769.578, 958.155 769.531, 957.921 778.286, 962.754 780.067, 963.737 " fill="none" stroke="rgb(0, 0, 0)" stroke-linecap="round" stroke-linejoin="round" stroke-opacity="1.0" stroke-width="2.0" />
            <path d=" M 780.482, 965.825 780.067, 963.737 785.603, 961.651 787.445, 958.584 786.708, 955.513 777.953, 950.680 776.646, 949.959 776.172, 949.697 773.342, 948.413 767.806, 950.498 " fill="none" stroke="rgb(0, 0, 0)" stroke-linecap="round" stroke-linejoin="round" stroke-opacity="1.0" stroke-width="2.0" />
            <path d=" M 787.445, 958.584 778.691, 953.751 777.479, 953.083 776.910, 952.768 776.172, 949.697 " fill="none" stroke="rgb(0, 0, 0)" stroke-linecap="round" stroke-linejoin="round" stroke-opacity="1.0" stroke-width="2.0" />
            <path d=" M 772.938, 937.576 772.846, 937.750 771.520, 940.271 771.287, 940.714 765.849, 943.167 " fill="none" stroke="rgb(0, 0, 0)" stroke-linecap="round" stroke-linejoin="round" stroke-opacity="1.0" stroke-width="2.0" />
            <path d=" M 767.806, 950.498 765.849, 943.167 774.604, 948.000 776.385, 948.983 " fill="none" stroke="rgb(0, 0, 0)" stroke-linecap="round" stroke-linejoin="round" stroke-opacity="1.0" stroke-width="2.0" />
            <path d=" M 776.646, 949.959 776.385, 948.983 781.823, 946.530 783.474, 943.391 782.593, 940.384 773.838, 935.551 772.057, 934.568 771.961, 934.533 770.948, 934.160 769.102, 933.482 763.664, 935.935 " fill="none" stroke="rgb(0, 0, 0)" stroke-linecap="round" stroke-linejoin="round" stroke-opacity="1.0" stroke-width="2.0" />
            <path d=" M 783.474, 943.391 774.719, 938.559 772.938, 937.576 772.057, 934.568 " fill="none" stroke="rgb(0, 0, 0)" stroke-linecap="round" stroke-linejoin="round" stroke-opacity="1.0" stroke-width="2.0" />
            <path d=" M 768.061, 922.725 767.572, 923.799 766.570, 925.999 766.396, 926.091 761.253, 928.809 " fill="none" stroke="rgb(0, 0, 0)" stroke-linecap="round" stroke-linejoin="round" stroke-opacity="1.0" stroke-width="2.0" />
            <path d=" M 763.664, 935.935 761.253, 928.809 770.008, 933.641 770.948, 934.160 " fill="none" stroke="rgb(0, 0, 0)" stroke-linecap="round" stroke-linejoin="round" stroke-opacity="1.0" stroke-width="2.0" />
            <path d=" M 771.961, 934.533 777.106, 931.814 778.596, 928.541 778.052, 926.975 777.525, 925.678 768.770, 920.845 767.365, 920.070 766.989, 919.862 763.934, 918.987 763.535, 919.198 758.617, 921.797 " fill="none" stroke="rgb(0, 0, 0)" stroke-linecap="round" stroke-linejoin="round" stroke-opacity="1.0" stroke-width="2.0" />
            <path d=" M 778.596, 928.541 769.842, 923.708 768.061, 922.725 767.516, 921.160 767.132, 920.212 766.989, 919.862 " fill="none" stroke="rgb(0, 0, 0)" stroke-linecap="round" stroke-linejoin="round" stroke-opacity="1.0" stroke-width="2.0" />
            <path d=" M 762.230, 908.414 761.457, 910.406 760.934, 911.751 760.120, 912.248 755.760, 914.906 " fill="none" stroke="rgb(0, 0, 0)" stroke-linecap="round" stroke-linejoin="round" stroke-opacity="1.0" stroke-width="2.0" />
            <path d=" M 758.617, 921.797 755.760, 914.906 763.535, 919.198 " fill="none" stroke="rgb(0, 0, 0)" stroke-linecap="round" stroke-linejoin="round" stroke-opacity="1.0" stroke-width="2.0" />
            <path d=" M 767.365, 920.070 771.470, 917.566 772.766, 914.230 771.468, 911.447 762.713, 906.615 761.737, 906.076 760.932, 905.632 757.859, 904.989 756.826, 905.619 752.685, 908.144 " fill="none" stroke="rgb(0, 0, 0)" stroke-linecap="round" stroke-linejoin="round" stroke-opacity="1.0" stroke-width="2.0" />
            <path d=" M 772.766, 914.230 764.011, 909.397 762.230, 908.414 761.286, 906.390 760.932, 905.632 " fill="none" stroke="rgb(0, 0, 0)" stroke-linecap="round" stroke-linejoin="round" stroke-opacity="1.0" stroke-width="2.0" />
            <path d=" M 755.491, 894.676 754.538, 897.618 754.405, 898.030 753.042, 898.979 749.396, 901.517 " fill="none" stroke="rgb(0, 0, 0)" stroke-linecap="round" stroke-linejoin="round" stroke-opacity="1.0" stroke-width="2.0" />
            <path d=" M 752.685, 908.144 749.396, 901.517 756.826, 905.619 " fill="none" stroke="rgb(0, 0, 0)" stroke-linecap="round" stroke-linejoin="round" stroke-opacity="1.0" stroke-width="2.0" />
            <path d=" M 761.737, 906.076 764.941, 903.846 766.027, 900.491 764.590, 897.787 755.836, 892.955 755.166, 892.585 754.055, 891.972 750.903, 891.546 749.329, 892.642 745.894, 895.033 " fill="none" stroke="rgb(0, 0, 0)" stroke-linecap="round" stroke-linejoin="round" stroke-opacity="1.0" stroke-width="2.0" />
            <path d=" M 766.027, 900.491 757.272, 895.659 755.491, 894.676 754.613, 893.022 754.055, 891.972 " fill="none" stroke="rgb(0, 0, 0)" stroke-linecap="round" stroke-linejoin="round" stroke-opacity="1.0" stroke-width="2.0" />
            <path d=" M 747.907, 881.454 747.008, 884.894 746.648, 885.178 745.182, 886.335 742.185, 888.699 " fill="none" stroke="rgb(0, 0, 0)" stroke-linecap="round" stroke-linejoin="round" stroke-opacity="1.0" stroke-width="2.0" />
            <path d=" M 745.894, 895.033 742.185, 888.699 749.329, 892.642 " fill="none" stroke="rgb(0, 0, 0)" stroke-linecap="round" stroke-linejoin="round" stroke-opacity="1.0" stroke-width="2.0" />
            <path d=" M 755.166, 892.585 757.544, 890.710 758.443, 887.270 757.362, 885.470 756.866, 884.735 748.111, 879.903 747.680, 879.665 746.330, 878.920 743.095, 878.716 741.065, 880.317 738.272, 882.520 " fill="none" stroke="rgb(0, 0, 0)" stroke-linecap="round" stroke-linejoin="round" stroke-opacity="1.0" stroke-width="2.0" />
            <path d=" M 758.443, 887.270 749.688, 882.437 747.907, 881.454 747.128, 880.156 746.827, 879.655 746.330, 878.920 " fill="none" stroke="rgb(0, 0, 0)" stroke-linecap="round" stroke-linejoin="round" stroke-opacity="1.0" stroke-width="2.0" />
            <path d=" M 739.473, 868.915 738.776, 872.398 737.825, 873.244 736.565, 874.364 734.159, 876.504 " fill="none" stroke="rgb(0, 0, 0)" stroke-linecap="round" stroke-linejoin="round" stroke-opacity="1.0" stroke-width="2.0" />
            <path d=" M 738.272, 882.520 734.159, 876.504 741.065, 880.317 " fill="none" stroke="rgb(0, 0, 0)" stroke-linecap="round" stroke-linejoin="round" stroke-opacity="1.0" stroke-width="2.0" />
            <path d=" M 747.680, 879.665 749.312, 878.214 750.009, 874.731 748.203, 872.343 739.448, 867.511 739.274, 867.414 737.667, 866.527 734.467, 866.551 732.062, 868.690 729.850, 870.657 " fill="none" stroke="rgb(0, 0, 0)" stroke-linecap="round" stroke-linejoin="round" stroke-opacity="1.0" stroke-width="2.0" />
            <path d=" M 750.009, 874.731 741.254, 869.898 739.473, 868.915 738.741, 867.947 737.667, 866.527 " fill="none" stroke="rgb(0, 0, 0)" stroke-linecap="round" stroke-linejoin="round" stroke-opacity="1.0" stroke-width="2.0" />
            <path d=" M 730.224, 857.148 729.742, 860.595 728.246, 862.090 727.222, 863.113 725.350, 864.985 " fill="none" stroke="rgb(0, 0, 0)" stroke-linecap="round" stroke-linejoin="round" stroke-opacity="1.0" stroke-width="2.0" />
            <path d=" M 729.850, 870.657 725.350, 864.985 732.062, 868.690 " fill="none" stroke="rgb(0, 0, 0)" stroke-linecap="round" stroke-linejoin="round" stroke-opacity="1.0" stroke-width="2.0" />
            <path d=" M 739.274, 867.414 740.278, 866.410 740.760, 862.964 738.822, 860.671 730.052, 855.830 728.286, 854.855 725.056, 855.103 722.352, 857.807 720.664, 859.493 " fill="none" stroke="rgb(0, 0, 0)" stroke-linecap="round" stroke-linejoin="round" stroke-opacity="1.0" stroke-width="2.0" />
            <path d=" M 740.760, 862.964 732.005, 858.132 730.224, 857.148 729.568, 856.372 728.286, 854.855 " fill="none" stroke="rgb(0, 0, 0)" stroke-linecap="round" stroke-linejoin="round" stroke-opacity="1.0" stroke-width="2.0" />
            <path d=" M 720.223, 846.055 719.945, 849.533 717.963, 851.757 717.188, 852.628 715.797, 854.189 " fill="none" stroke="rgb(0, 0, 0)" stroke-linecap="round" stroke-linejoin="round" stroke-opacity="1.0" stroke-width="2.0" />
            <path d=" M 720.664, 859.493 715.797, 854.189 722.352, 857.807 " fill="none" stroke="rgb(0, 0, 0)" stroke-linecap="round" stroke-linejoin="round" stroke-opacity="1.0" stroke-width="2.0" />
            <path d=" M 730.052, 855.830 730.481, 855.348 730.759, 851.870 729.022, 850.029 728.733, 849.755 719.965, 844.915 718.197, 843.939 714.901, 844.420 711.970, 847.711 710.753, 849.076 " fill="none" stroke="rgb(0, 0, 0)" stroke-linecap="round" stroke-linejoin="round" stroke-opacity="1.0" stroke-width="2.0" />
            <path d=" M 730.759, 851.870 722.004, 847.038 720.223, 846.055 719.659, 845.457 718.486, 844.214 718.197, 843.939 " fill="none" stroke="rgb(0, 0, 0)" stroke-linecap="round" stroke-linejoin="round" stroke-opacity="1.0" stroke-width="2.0" />
            <path d=" M 709.494, 835.759 709.426, 839.259 707.028, 842.283 706.500, 842.949 705.539, 844.161 " fill="none" stroke="rgb(0, 0, 0)" stroke-linecap="round" stroke-linejoin="round" stroke-opacity="1.0" stroke-width="2.0" />
            <path d=" M 710.753, 849.076 705.539, 844.161 711.970, 847.711 " fill="none" stroke="rgb(0, 0, 0)" stroke-linecap="round" stroke-linejoin="round" stroke-opacity="1.0" stroke-width="2.0" />
            <path d=" M 720.030, 841.575 711.275, 836.742 709.494, 835.759 708.742, 835.121 707.254, 833.856 " fill="none" stroke="rgb(0, 0, 0)" stroke-linecap="round" stroke-linejoin="round" stroke-opacity="1.0" stroke-width="2.0" />
            <path d=" M 719.965, 844.915 720.030, 841.575 717.790, 839.672 709.035, 834.839 708.724, 834.667 707.254, 833.856 704.045, 834.547 700.956, 838.443 700.159, 839.449 " fill="none" stroke="rgb(0, 0, 0)" stroke-linecap="round" stroke-linejoin="round" stroke-opacity="1.0" stroke-width="2.0" />
            <path d=" M 698.087, 826.407 698.228, 829.817 695.494, 833.701 695.201, 834.117 694.619, 834.944 " fill="none" stroke="rgb(0, 0, 0)" stroke-linecap="round" stroke-linejoin="round" stroke-opacity="1.0" stroke-width="2.0" />
            <path d=" M 700.159, 839.449 694.619, 834.944 700.956, 838.443 " fill="none" stroke="rgb(0, 0, 0)" stroke-linecap="round" stroke-linejoin="round" stroke-opacity="1.0" stroke-width="2.0" />
            <path d=" M 708.623, 832.223 699.868, 827.390 698.087, 826.407 696.763, 825.404 695.722, 824.615 " fill="none" stroke="rgb(0, 0, 0)" stroke-linecap="round" stroke-linejoin="round" stroke-opacity="1.0" stroke-width="2.0" />
            <path d=" M 708.724, 834.667 708.623, 832.223 706.258, 830.430 697.503, 825.598 696.740, 825.177 695.722, 824.615 692.534, 825.524 689.356, 830.040 688.924, 830.652 " fill="none" stroke="rgb(0, 0, 0)" stroke-linecap="round" stroke-linejoin="round" stroke-opacity="1.0" stroke-width="2.0" />
            <path d=" M 686.048, 817.859 686.399, 821.245 683.417, 826.038 683.337, 826.167 683.082, 826.577 " fill="none" stroke="rgb(0, 0, 0)" stroke-linecap="round" stroke-linejoin="round" stroke-opacity="1.0" stroke-width="2.0" />
            <path d=" M 688.924, 830.652 683.082, 826.577 689.356, 830.040 " fill="none" stroke="rgb(0, 0, 0)" stroke-linecap="round" stroke-linejoin="round" stroke-opacity="1.0" stroke-width="2.0" />
            <path d=" M 696.584, 823.674 687.829, 818.842 686.048, 817.859 684.040, 816.506 683.643, 816.239 " fill="none" stroke="rgb(0, 0, 0)" stroke-linecap="round" stroke-linejoin="round" stroke-opacity="1.0" stroke-width="2.0" />
            <path d=" M 696.740, 825.177 696.584, 823.674 694.179, 822.055 685.424, 817.222 684.031, 816.453 683.643, 816.239 680.415, 817.391 677.214, 822.536 677.098, 822.723 " fill="none" stroke="rgb(0, 0, 0)" stroke-linecap="round" stroke-linejoin="round" stroke-opacity="1.0" stroke-width="2.0" />
            <path d=" M 673.421, 810.194 673.988, 813.580 670.978, 819.094 " fill="none" stroke="rgb(0, 0, 0)" stroke-linecap="round" stroke-linejoin="round" stroke-opacity="1.0" stroke-width="2.0" />
            <path d=" M 677.098, 822.723 670.978, 819.094 677.214, 822.536 " fill="none" stroke="rgb(0, 0, 0)" stroke-linecap="round" stroke-linejoin="round" stroke-opacity="1.0" stroke-width="2.0" />
            <path d=" M 684.031, 816.453 683.957, 816.010 675.202, 811.178 673.421, 810.194 670.837, 808.847 670.241, 809.103 670.176, 809.132 667.739, 810.181 664.729, 815.694 662.740, 814.706 658.357, 812.527 " fill="none" stroke="rgb(0, 0, 0)" stroke-linecap="round" stroke-linejoin="round" stroke-opacity="1.0" stroke-width="2.0" />
            <path d=" M 660.289, 803.610 661.048, 806.855 658.357, 812.527 " fill="none" stroke="rgb(0, 0, 0)" stroke-linecap="round" stroke-linejoin="round" stroke-opacity="1.0" stroke-width="2.0" />
            <path d=" M 670.241, 809.103 661.487, 804.271 660.289, 803.610 657.588, 802.388 656.110, 803.138 655.907, 803.241 654.560, 803.923 651.870, 809.596 649.736, 808.725 645.272, 806.904 " fill="none" stroke="rgb(0, 0, 0)" stroke-linecap="round" stroke-linejoin="round" stroke-opacity="1.0" stroke-width="2.0" />
            <path d=" M 646.670, 797.927 647.633, 801.096 645.272, 806.904 " fill="none" stroke="rgb(0, 0, 0)" stroke-linecap="round" stroke-linejoin="round" stroke-opacity="1.0" stroke-width="2.0" />
            <path d=" M 656.110, 803.138 647.355, 798.305 646.670, 797.927 643.949, 796.875 641.694, 798.199 641.202, 798.488 640.933, 798.646 638.573, 804.453 636.252, 803.700 631.778, 802.247 " fill="none" stroke="rgb(0, 0, 0)" stroke-linecap="round" stroke-linejoin="round" stroke-opacity="1.0" stroke-width="2.0" />
            <path d=" M 632.611, 793.185 633.798, 796.329 631.778, 802.247 " fill="none" stroke="rgb(0, 0, 0)" stroke-linecap="round" stroke-linejoin="round" stroke-opacity="1.0" stroke-width="2.0" />
            <path d=" M 641.694, 798.199 632.939, 793.366 632.611, 793.185 629.786, 792.441 626.915, 794.370 626.908, 794.392 626.700, 795.001 624.896, 800.288 622.341, 799.660 617.932, 798.577 " fill="none" stroke="rgb(0, 0, 0)" stroke-linecap="round" stroke-linejoin="round" stroke-opacity="1.0" stroke-width="2.0" />
            <path d=" M 618.251, 789.614 619.603, 792.573 617.932, 798.577 " fill="none" stroke="rgb(0, 0, 0)" stroke-linecap="round" stroke-linejoin="round" stroke-opacity="1.0" stroke-width="2.0" />
            <path d=" M 626.908, 794.392 618.251, 789.614 615.320, 789.012 612.565, 791.113 612.357, 791.860 612.169, 792.536 610.894, 797.117 608.061, 796.635 603.791, 795.909 " fill="none" stroke="rgb(0, 0, 0)" stroke-linecap="round" stroke-linejoin="round" stroke-opacity="1.0" stroke-width="2.0" />
            <path d=" M 603.568, 787.009 605.106, 789.845 603.791, 795.909 " fill="none" stroke="rgb(0, 0, 0)" stroke-linecap="round" stroke-linejoin="round" stroke-opacity="1.0" stroke-width="2.0" />
            <path d=" M 612.357, 791.860 603.568, 787.009 600.635, 786.572 597.943, 788.890 597.624, 790.364 597.459, 791.121 596.628, 794.954 593.471, 794.648 589.414, 794.254 " fill="none" stroke="rgb(0, 0, 0)" stroke-linecap="round" stroke-linejoin="round" stroke-opacity="1.0" stroke-width="2.0" />
            <path d=" M 588.609, 785.388 590.368, 788.155 589.414, 794.254 " fill="none" stroke="rgb(0, 0, 0)" stroke-linecap="round" stroke-linejoin="round" stroke-opacity="1.0" stroke-width="2.0" />
            <path d=" M 597.624, 790.364 588.869, 785.531 588.609, 785.388 588.327, 785.361 585.646, 785.254 583.110, 787.709 582.749, 790.022 582.630, 790.782 582.157, 793.809 578.634, 793.717 574.863, 793.619 " fill="none" stroke="rgb(0, 0, 0)" stroke-linecap="round" stroke-linejoin="round" stroke-opacity="1.0" stroke-width="2.0" />
            <path d=" M 573.556, 784.948 575.451, 787.510 574.863, 793.619 " fill="none" stroke="rgb(0, 0, 0)" stroke-linecap="round" stroke-linejoin="round" stroke-opacity="1.0" stroke-width="2.0" />
            <path d=" M 582.749, 790.022 573.994, 785.189 573.556, 784.948 570.510, 784.988 568.129, 787.576 567.825, 790.738 567.760, 791.408 567.541, 793.685 563.980, 793.841 560.198, 794.007 " fill="none" stroke="rgb(0, 0, 0)" stroke-linecap="round" stroke-linejoin="round" stroke-opacity="1.0" stroke-width="2.0" />
            <path d=" M 558.366, 785.517 560.419, 787.914 560.198, 794.007 " fill="none" stroke="rgb(0, 0, 0)" stroke-linecap="round" stroke-linejoin="round" stroke-opacity="1.0" stroke-width="2.0" />
            <path d=" M 567.825, 790.738 559.070, 785.906 558.366, 785.517 555.335, 785.716 553.063, 788.491 552.917, 792.518 552.900, 792.987 552.842, 794.584 549.455, 794.967 545.481, 795.416 " fill="none" stroke="rgb(0, 0, 0)" stroke-linecap="round" stroke-linejoin="round" stroke-opacity="1.0" stroke-width="2.0" />
            <path d=" M 543.078, 787.087 545.333, 789.365 545.481, 795.416 " fill="none" stroke="rgb(0, 0, 0)" stroke-linecap="round" stroke-linejoin="round" stroke-opacity="1.0" stroke-width="2.0" />
            <path d=" M 552.917, 792.518 544.162, 787.685 543.078, 787.087 542.303, 787.178 540.078, 787.558 537.974, 790.450 538.096, 795.422 538.102, 795.675 538.122, 796.501 534.855, 797.096 530.773, 797.840 " fill="none" stroke="rgb(0, 0, 0)" stroke-linecap="round" stroke-linejoin="round" stroke-opacity="1.0" stroke-width="2.0" />
            <path d=" M 527.887, 789.787 530.257, 791.856 530.773, 797.840 " fill="none" stroke="rgb(0, 0, 0)" stroke-linecap="round" stroke-linejoin="round" stroke-opacity="1.0" stroke-width="2.0" />
            <path d=" M 538.096, 795.422 529.341, 790.590 527.887, 789.787 524.843, 790.466 522.926, 793.445 523.442, 799.429 523.442, 799.429 520.241, 800.235 516.137, 801.269 " fill="none" stroke="rgb(0, 0, 0)" stroke-linecap="round" stroke-linejoin="round" stroke-opacity="1.0" stroke-width="2.0" />
            <path d=" M 512.763, 793.506 515.254, 795.377 516.137, 801.269 " fill="none" stroke="rgb(0, 0, 0)" stroke-linecap="round" stroke-linejoin="round" stroke-opacity="1.0" stroke-width="2.0" />
            <path d=" M 523.442, 799.429 523.299, 799.322 514.544, 794.490 512.763, 793.506 509.751, 794.339 507.981, 797.464 508.864, 803.356 507.723, 803.724 504.662, 804.711 501.632, 805.689 " fill="none" stroke="rgb(0, 0, 0)" stroke-linecap="round" stroke-linejoin="round" stroke-opacity="1.0" stroke-width="2.0" />
            <path d=" M 497.724, 798.205 500.387, 799.914 501.632, 805.689 " fill="none" stroke="rgb(0, 0, 0)" stroke-linecap="round" stroke-linejoin="round" stroke-opacity="1.0" stroke-width="2.0" />
            <path d=" M 507.723, 803.724 498.968, 798.892 497.724, 798.205 496.488, 798.613 494.795, 799.265 493.204, 802.489 494.449, 808.264 492.337, 809.099 492.307, 809.111 489.242, 810.321 487.322, 811.080 " fill="none" stroke="rgb(0, 0, 0)" stroke-linecap="round" stroke-linejoin="round" stroke-opacity="1.0" stroke-width="2.0" />
            <path d=" M 485.720, 805.446 487.322, 811.080 " fill="none" stroke="rgb(0, 0, 0)" stroke-linecap="round" stroke-linejoin="round" stroke-opacity="1.0" stroke-width="2.0" />
            <path d=" M 358.798, 925.345 353.978, 922.685 " fill="none" stroke="rgb(0, 0, 0)" stroke-linecap="round" stroke-linejoin="round" stroke-opacity="1.0" stroke-width="2.0" />
            <path d=" M 367.605, 911.226 362.761, 908.553 " fill="none" stroke="rgb(0, 0, 0)" stroke-linecap="round" stroke-linejoin="round" stroke-opacity="1.0" stroke-width="2.0" />
            <path d=" M 377.209, 897.660 372.320, 894.961 " fill="none" stroke="rgb(0, 0, 0)" stroke-linecap="round" stroke-linejoin="round" stroke-opacity="1.0" stroke-width="2.0" />
            <path d=" M 387.570, 884.702 382.615, 881.968 " fill="none" stroke="rgb(0, 0, 0)" stroke-linecap="round" stroke-linejoin="round" stroke-opacity="1.0" stroke-width="2.0" />
            <path d=" M 398.647, 872.410 393.603, 869.626 " fill="none" stroke="rgb(0, 0, 0)" stroke-linecap="round" stroke-linejoin="round" stroke-opacity="1.0" stroke-width="2.0" />
            <path d=" M 410.396, 860.836 405.237, 857.988 " fill="none" stroke="rgb(0, 0, 0)" stroke-linecap="round" stroke-linejoin="round" stroke-opacity="1.0" stroke-width="2.0" />
            <path d=" M 422.770, 850.030 417.468, 847.103 " fill="none" stroke="rgb(0, 0, 0)" stroke-linecap="round" stroke-linejoin="round" stroke-opacity="1.0" stroke-width="2.0" />
            <path d=" M 435.723, 840.040 430.246, 837.017 " fill="none" stroke="rgb(0, 0, 0)" stroke-linecap="round" stroke-linejoin="round" stroke-opacity="1.0" stroke-width="2.0" />
            <path d=" M 449.205, 830.911 443.517, 827.771 " fill="none" stroke="rgb(0, 0, 0)" stroke-linecap="round" stroke-linejoin="round" stroke-opacity="1.0" stroke-width="2.0" />
            <path d=" M 463.168, 822.685 457.224, 819.404 " fill="none" stroke="rgb(0, 0, 0)" stroke-linecap="round" stroke-linejoin="round" stroke-opacity="1.0" stroke-width="2.0" />
            <path d=" M 477.561, 815.402 471.312, 811.953 " fill="none" stroke="rgb(0, 0, 0)" stroke-linecap="round" stroke-linejoin="round" stroke-opacity="1.0" stroke-width="2.0" />
        </g>
    </g>
</svg>
