<?xml version='1.0' encoding='ascii'?>
<svg xmlns="http://www.w3.org/2000/svg" xmlns:inkscape="http://www.inkscape.org/namespaces/inkscape" height="1123" version="1.1" width="794">
    <g id="View Layer_LineSet" inkscape:groupmode="lineset" inkscape:label="View Layer_LineSet">
        <g id="fills" inkscape:groupmode="layer" inkscape:label="fills" xmlns:inkscape="http://www.inkscape.org/namespaces/inkscape">
            <path d=" M 542.508, 194.117 544.469, 199.960 542.047, 201.597 536.209, 198.374 533.151, 197.604 532.567, 198.103 531.839, 198.784 531.921, 202.223 535.475, 206.990 532.049, 211.013 526.870, 208.155 523.631, 208.417 523.318, 208.873 522.663, 209.923 523.695, 213.070 528.527, 216.336 526.021, 221.624 520.342, 220.149 517.208, 221.423 517.100, 221.726 516.670, 223.118 518.562, 225.693 523.971, 228.679 523.226, 232.844 517.203, 233.290 514.453, 235.466 514.446, 235.556 514.393, 237.196 516.976, 238.971 523.406, 242.520 523.565, 244.083 517.734, 246.411 515.617, 249.293 516.032, 250.908 525.041, 255.880 521.886, 258.346 520.592, 261.673 521.443, 263.036 529.642, 267.562 529.291, 268.034 528.932, 271.511 530.144, 272.504 539.887, 277.882 539.897, 277.934 550.433, 283.750 551.735, 284.226 551.910, 284.279 554.681, 282.141 554.866, 281.671 563.049, 286.187 564.264, 286.215 564.660, 286.203 566.805, 283.353 567.229, 279.472 576.197, 284.423 577.204, 284.127 577.796, 283.921 579.127, 280.613 578.038, 274.422 579.373, 273.772 585.845, 277.345 588.710, 278.612 589.439, 278.142 590.151, 277.638 590.426, 275.253 590.552, 274.165 587.763, 268.800 590.864, 266.017 596.291, 269.013 599.475, 269.270 599.918, 268.776 600.628, 267.911 600.064, 264.581 595.824, 260.520 598.999, 255.605 604.314, 258.003 607.536, 257.226 607.736, 256.835 608.298, 255.607 606.819, 252.714 601.651, 249.861 603.285, 244.773 609.202, 245.293 612.177, 243.549 612.221, 243.348 612.479, 241.817 610.217, 239.617 604.407, 236.410 604.526, 233.417 610.521, 232.014 612.984, 229.454 612.802, 227.765 602.972, 222.339 608.153, 219.344 609.877, 216.205 609.237, 214.699 600.748, 210.013 602.309, 208.410 603.145, 204.970 602.102, 203.779 593.466, 199.013 593.383, 196.748 592.096, 196.013 581.560, 190.198 581.488, 190.162 579.597, 191.239 570.924, 186.452 569.647, 186.213 569.362, 186.176 566.877, 188.699 566.358, 190.782 557.896, 186.112 556.773, 186.263 556.273, 186.357 554.516, 189.471 554.693, 195.336 544.921, 189.942 544.048, 190.344 543.383, 190.688 542.739, 193.215 542.508, 194.117  z M 553.686, 249.249 553.312, 248.481 552.975, 247.689 552.678, 246.877 552.419, 246.045 552.201, 245.196 552.023, 244.332 551.886, 243.454 551.791, 242.566 551.737, 241.669 551.724, 240.765 551.754, 239.856 551.825, 238.945 551.937, 238.034 552.091, 237.125 552.285, 236.220 552.520, 235.322 552.795, 234.432 553.108, 233.553 553.461, 232.686 553.850, 231.835 554.276, 231.001 554.738, 230.185 555.234, 229.391 555.763, 228.619 556.325, 227.872 556.917, 227.152 557.538, 226.459 558.186, 225.797 558.861, 225.166 559.561, 224.569 560.283, 224.005 561.026, 223.478 561.789, 222.988 562.569, 222.536 563.364, 222.123 564.174, 221.751 564.995, 221.420 565.825, 221.131 566.664, 220.885 567.508, 220.682 568.356, 220.523 569.205, 220.408 570.054, 220.337 570.900, 220.312 571.742, 220.331 572.369, 220.379 572.499, 220.545 572.981, 221.232 573.429, 221.949 573.840, 222.692 574.214, 223.460 574.551, 224.251 574.848, 225.064 575.107, 225.896 575.325, 226.745 575.503, 227.609 575.640, 228.486 575.735, 229.375 575.789, 230.272 575.801, 231.176 575.772, 232.085 575.701, 232.996 575.588, 233.907 575.435, 234.816 575.240, 235.721 575.006, 236.619 574.731, 237.509 574.417, 238.388 574.065, 239.254 573.676, 240.106 573.250, 240.940 572.788, 241.756 572.292, 242.550 571.763, 243.322 571.201, 244.069 570.609, 244.789 569.988, 245.481 569.339, 246.144 568.665, 246.774 567.965, 247.372 567.243, 247.935 566.500, 248.463 565.737, 248.953 564.957, 249.405 564.161, 249.818 563.352, 250.190 562.531, 250.521 561.701, 250.810 560.862, 251.056 560.018, 251.259 559.170, 251.418 558.321, 251.533 557.472, 251.603 556.625, 251.629 555.783, 251.610 555.157, 251.562 555.027, 251.396 554.544, 250.708 554.097, 249.992 553.686, 249.249  z" fill="rgb(204, 0, 0)" fill-opacity="1.0" fill_rule="evenodd" stroke="none" />
        </g>
        <g id="strokes" inkscape:groupmode="layer" inkscape:label="strokes">
            <path d=" M 555.157, 251.562 555.027, 251.396 554.544, 250.708 554.097, 249.992 553.686, 249.249 553.312, 248.481 552.975, 247.689 552.678, 246.877 552.419, 246.045 552.201, 245.196 552.023, 244.332 551.886, 243.454 551.791, 242.566 551.737, 241.669 551.724, 240.765 551.754, 239.856 551.825, 238.945 551.937, 238.034 552.091, 237.125 552.285, 236.220 552.520, 235.322 552.795, 234.432 553.108, 233.553 553.461, 232.686 553.850, 231.835 554.276, 231.001 554.738, 230.185 555.234, 229.391 555.763, 228.619 556.325, 227.872 556.917, 227.152 557.538, 226.459 558.186, 225.797 558.861, 225.166 559.561, 224.569 560.283, 224.005 561.026, 223.478 561.789, 222.988 562.569, 222.536 563.364, 222.123 564.174, 221.751 564.995, 221.420 565.825, 221.131 566.664, 220.885 567.508, 220.682 568.356, 220.523 569.205, 220.408 570.054, 220.337 570.900, 220.312 571.742, 220.331 572.369, 220.379 " fill="none" stroke="rgb(0, 0, 0)" stroke-linecap="round" stroke-linejoin="round" stroke-opacity="1.0" stroke-width="2.0" />
            <path d=" M 567.542, 216.250 566.807, 215.884 566.052, 215.559 565.279, 215.276 564.489, 215.036 563.685, 214.840 562.869, 214.687 562.042, 214.579 561.206, 214.515 560.365, 214.496 559.518, 214.522 558.669, 214.592 557.820, 214.707 556.972, 214.866 556.128, 215.069 555.289, 215.315 554.459, 215.604 553.638, 215.935 552.829, 216.307 552.033, 216.720 551.253, 217.172 550.490, 217.662 549.747, 218.190 549.025, 218.753 548.325, 219.351 547.651, 219.982 547.002, 220.644 546.381, 221.336 545.789, 222.056 545.227, 222.803 544.698, 223.575 544.202, 224.370 543.740, 225.185 543.314, 226.019 542.925, 226.871 542.573, 227.737 542.259, 228.616 541.984, 229.506 541.750, 230.405 541.555, 231.309 541.401, 232.218 541.289, 233.130 541.218, 234.040 541.189, 234.949 541.201, 235.853 541.255, 236.750 541.350, 237.639 541.487, 238.516 541.665, 239.380 541.883, 240.229 542.142, 241.061 542.439, 241.874 542.776, 242.665 543.150, 243.433 543.561, 244.176 544.009, 244.893 544.491, 245.581 545.007, 246.238 545.555, 246.864 546.134, 247.457 546.744, 248.015 547.381, 248.537 548.046, 249.022 548.735, 249.468 549.448, 249.875 550.183, 250.241 550.938, 250.566 551.711, 250.849 552.501, 251.089 553.305, 251.285 554.121, 251.438 554.948, 251.546 555.157, 251.562 555.783, 251.610 556.625, 251.629 557.472, 251.603 558.321, 251.533 559.170, 251.418 560.018, 251.259 560.862, 251.056 561.701, 250.810 562.531, 250.521 563.352, 250.190 564.161, 249.818 564.957, 249.405 565.737, 248.953 566.500, 248.463 567.243, 247.935 567.965, 247.372 568.665, 246.774 569.339, 246.144 569.988, 245.481 570.609, 244.789 571.201, 244.069 571.763, 243.322 572.292, 242.550 572.788, 241.756 573.250, 240.940 573.676, 240.106 574.065, 239.254 574.417, 238.388 574.731, 237.509 575.006, 236.619 575.240, 235.721 575.435, 234.816 575.588, 233.907 575.701, 232.996 575.772, 232.085 575.801, 231.176 575.789, 230.272 575.735, 229.375 575.640, 228.486 575.503, 227.609 575.325, 226.745 575.107, 225.896 574.848, 225.064 574.551, 224.251 574.214, 223.460 573.840, 222.692 573.429, 221.949 572.981, 221.232 572.499, 220.545 572.369, 220.379 571.983, 219.887 571.435, 219.261 570.855, 218.668 570.246, 218.110 569.609, 217.588 568.944, 217.103 568.255, 216.657 567.542, 216.250 " fill="none" stroke="rgb(0, 0, 0)" stroke-linecap="round" stroke-linejoin="round" stroke-opacity="1.0" stroke-width="2.0" />
            <path d=" M 554.693, 195.336 545.938, 190.503 544.921, 189.942 544.048, 190.344 543.383, 190.688 542.739, 193.215 542.508, 194.117 544.469, 199.960 542.047, 201.597 541.300, 202.102 539.763, 203.141 " fill="none" stroke="rgb(0, 0, 0)" stroke-linecap="round" stroke-linejoin="round" stroke-opacity="1.0" stroke-width="2.0" />
            <path d=" M 531.702, 211.421 532.049, 211.013 535.475, 206.990 531.921, 202.223 531.839, 198.784 532.567, 198.103 533.151, 197.604 536.209, 198.374 539.763, 203.141 " fill="none" stroke="rgb(0, 0, 0)" stroke-linecap="round" stroke-linejoin="round" stroke-opacity="1.0" stroke-width="2.0" />
            <path d=" M 523.971, 228.679 518.562, 225.693 516.670, 223.118 517.100, 221.726 517.208, 221.423 520.342, 220.149 526.021, 221.624 528.527, 216.336 523.695, 213.070 522.663, 209.923 523.318, 208.873 523.631, 208.417 526.870, 208.155 531.702, 211.421 " fill="none" stroke="rgb(0, 0, 0)" stroke-linecap="round" stroke-linejoin="round" stroke-opacity="1.0" stroke-width="2.0" />
            <path d=" M 523.406, 242.520 516.976, 238.971 514.393, 237.196 514.446, 235.556 514.453, 235.466 517.203, 233.290 523.226, 232.844 523.971, 228.679 524.220, 227.286 524.241, 227.168 518.562, 225.693 " fill="none" stroke="rgb(0, 0, 0)" stroke-linecap="round" stroke-linejoin="round" stroke-opacity="1.0" stroke-width="2.0" />
            <path d=" M 525.041, 255.880 516.286, 251.048 516.032, 250.908 515.617, 249.293 517.734, 246.411 523.565, 244.083 523.406, 242.520 523.369, 242.151 523.178, 240.283 522.999, 238.524 516.976, 238.971 " fill="none" stroke="rgb(0, 0, 0)" stroke-linecap="round" stroke-linejoin="round" stroke-opacity="1.0" stroke-width="2.0" />
            <path d=" M 529.642, 267.562 521.443, 263.036 520.592, 261.673 521.886, 258.346 525.041, 255.880 526.080, 255.068 526.320, 254.880 527.008, 254.343 526.901, 254.090 524.911, 249.395 519.080, 251.723 516.032, 250.908 " fill="none" stroke="rgb(0, 0, 0)" stroke-linecap="round" stroke-linejoin="round" stroke-opacity="1.0" stroke-width="2.0" />
            <path d=" M 539.887, 277.882 531.132, 273.049 530.144, 272.504 528.932, 271.511 529.291, 268.034 529.642, 267.562 530.113, 266.928 533.248, 262.712 529.808, 258.815 524.686, 262.818 521.443, 263.036 " fill="none" stroke="rgb(0, 0, 0)" stroke-linecap="round" stroke-linejoin="round" stroke-opacity="1.0" stroke-width="2.0" />
            <path d=" M 554.866, 281.671 554.681, 282.141 551.910, 284.279 551.735, 284.226 550.433, 283.750 541.678, 278.917 539.897, 277.934 539.887, 277.882 539.842, 277.633 539.583, 276.213 539.291, 274.615 541.732, 268.446 538.074, 266.404 537.253, 265.946 535.301, 268.572 533.296, 271.269 530.144, 272.504 " fill="none" stroke="rgb(0, 0, 0)" stroke-linecap="round" stroke-linejoin="round" stroke-opacity="1.0" stroke-width="2.0" />
            <path d=" M 541.374, 278.464 541.199, 278.411 540.810, 278.268 540.151, 278.027 539.897, 277.934 " fill="none" stroke="rgb(0, 0, 0)" stroke-linecap="round" stroke-linejoin="round" stroke-opacity="1.0" stroke-width="2.0" />
            <path d=" M 546.585, 270.156 546.279, 270.929 544.145, 276.325 542.470, 277.618 541.374, 278.464 550.129, 283.296 551.910, 284.279 " fill="none" stroke="rgb(0, 0, 0)" stroke-linecap="round" stroke-linejoin="round" stroke-opacity="1.0" stroke-width="2.0" />
            <path d=" M 551.705, 271.037 551.504, 272.871 551.405, 273.780 551.404, 273.785 551.002, 277.460 550.998, 277.504 552.513, 280.372 554.866, 281.671 563.049, 286.187 564.264, 286.215 564.660, 286.203 566.805, 283.353 567.229, 279.472 " fill="none" stroke="rgb(0, 0, 0)" stroke-linecap="round" stroke-linejoin="round" stroke-opacity="1.0" stroke-width="2.0" />
            <path d=" M 551.705, 271.037 546.585, 270.156 551.504, 272.871 " fill="none" stroke="rgb(0, 0, 0)" stroke-linecap="round" stroke-linejoin="round" stroke-opacity="1.0" stroke-width="2.0" />
            <path d=" M 554.124, 280.387 553.728, 280.399 552.513, 280.372 " fill="none" stroke="rgb(0, 0, 0)" stroke-linecap="round" stroke-linejoin="round" stroke-opacity="1.0" stroke-width="2.0" />
            <path d=" M 556.976, 271.070 556.679, 273.783 556.269, 277.537 554.124, 280.387 555.150, 280.954 563.905, 285.786 564.660, 286.203 " fill="none" stroke="rgb(0, 0, 0)" stroke-linecap="round" stroke-linejoin="round" stroke-opacity="1.0" stroke-width="2.0" />
            <path d=" M 562.281, 270.253 563.011, 274.401 563.370, 276.444 565.661, 278.607 567.229, 279.472 575.984, 284.305 576.197, 284.423 577.204, 284.127 577.796, 283.921 579.127, 280.613 578.038, 274.422 579.373, 273.772 " fill="none" stroke="rgb(0, 0, 0)" stroke-linecap="round" stroke-linejoin="round" stroke-opacity="1.0" stroke-width="2.0" />
            <path d=" M 562.281, 270.253 556.976, 271.070 563.011, 274.401 " fill="none" stroke="rgb(0, 0, 0)" stroke-linecap="round" stroke-linejoin="round" stroke-opacity="1.0" stroke-width="2.0" />
            <path d=" M 567.260, 278.106 566.668, 278.312 565.661, 278.607 " fill="none" stroke="rgb(0, 0, 0)" stroke-linecap="round" stroke-linejoin="round" stroke-opacity="1.0" stroke-width="2.0" />
            <path d=" M 578.038, 274.422 569.283, 269.589 567.502, 268.606 " fill="none" stroke="rgb(0, 0, 0)" stroke-linecap="round" stroke-linejoin="round" stroke-opacity="1.0" stroke-width="2.0" />
            <path d=" M 575.310, 271.530 572.521, 266.165 567.502, 268.606 568.384, 273.622 568.591, 274.797 567.767, 276.846 567.423, 277.701 567.260, 278.106 567.372, 278.167 576.127, 283.000 577.796, 283.921 " fill="none" stroke="rgb(0, 0, 0)" stroke-linecap="round" stroke-linejoin="round" stroke-opacity="1.0" stroke-width="2.0" />
            <path d=" M 579.373, 273.772 585.845, 277.345 588.710, 278.612 589.439, 278.142 590.151, 277.638 590.426, 275.253 590.552, 274.165 587.763, 268.800 590.864, 266.017 " fill="none" stroke="rgb(0, 0, 0)" stroke-linecap="round" stroke-linejoin="round" stroke-opacity="1.0" stroke-width="2.0" />
            <path d=" M 588.710, 278.612 579.955, 273.779 579.676, 273.625 578.174, 272.796 " fill="none" stroke="rgb(0, 0, 0)" stroke-linecap="round" stroke-linejoin="round" stroke-opacity="1.0" stroke-width="2.0" />
            <path d=" M 579.615, 271.822 578.904, 272.327 578.174, 272.796 575.310, 271.530 " fill="none" stroke="rgb(0, 0, 0)" stroke-linecap="round" stroke-linejoin="round" stroke-opacity="1.0" stroke-width="2.0" />
            <path d=" M 587.763, 268.800 579.008, 263.968 577.227, 262.985 " fill="none" stroke="rgb(0, 0, 0)" stroke-linecap="round" stroke-linejoin="round" stroke-opacity="1.0" stroke-width="2.0" />
            <path d=" M 585.755, 263.197 581.515, 259.136 577.227, 262.985 580.016, 268.349 579.804, 270.185 579.615, 271.822 581.380, 272.796 590.151, 277.638 " fill="none" stroke="rgb(0, 0, 0)" stroke-linecap="round" stroke-linejoin="round" stroke-opacity="1.0" stroke-width="2.0" />
            <path d=" M 590.864, 266.017 596.291, 269.013 599.475, 269.270 599.918, 268.776 600.628, 267.911 600.064, 264.581 595.824, 260.520 598.999, 255.605 604.314, 258.003 607.536, 257.226 607.736, 256.835 608.298, 255.607 606.819, 252.714 601.651, 249.861 " fill="none" stroke="rgb(0, 0, 0)" stroke-linecap="round" stroke-linejoin="round" stroke-opacity="1.0" stroke-width="2.0" />
            <path d=" M 599.475, 269.270 591.899, 265.088 588.939, 263.454 " fill="none" stroke="rgb(0, 0, 0)" stroke-linecap="round" stroke-linejoin="round" stroke-opacity="1.0" stroke-width="2.0" />
            <path d=" M 590.092, 262.096 589.382, 262.961 589.071, 263.307 588.939, 263.454 585.755, 263.197 " fill="none" stroke="rgb(0, 0, 0)" stroke-linecap="round" stroke-linejoin="round" stroke-opacity="1.0" stroke-width="2.0" />
            <path d=" M 595.824, 260.520 587.069, 255.687 585.288, 254.704 " fill="none" stroke="rgb(0, 0, 0)" stroke-linecap="round" stroke-linejoin="round" stroke-opacity="1.0" stroke-width="2.0" />
            <path d=" M 588.463, 249.790 585.288, 254.704 589.528, 258.766 590.092, 262.096 598.847, 266.928 600.628, 267.911 " fill="none" stroke="rgb(0, 0, 0)" stroke-linecap="round" stroke-linejoin="round" stroke-opacity="1.0" stroke-width="2.0" />
            <path d=" M 597.001, 251.410 593.778, 252.187 588.463, 249.790 597.218, 254.622 598.999, 255.605 " fill="none" stroke="rgb(0, 0, 0)" stroke-linecap="round" stroke-linejoin="round" stroke-opacity="1.0" stroke-width="2.0" />
            <path d=" M 607.536, 257.226 598.782, 252.393 597.001, 251.410 597.200, 251.020 597.762, 249.791 " fill="none" stroke="rgb(0, 0, 0)" stroke-linecap="round" stroke-linejoin="round" stroke-opacity="1.0" stroke-width="2.0" />
            <path d=" M 596.284, 246.898 590.969, 244.501 " fill="none" stroke="rgb(0, 0, 0)" stroke-linecap="round" stroke-linejoin="round" stroke-opacity="1.0" stroke-width="2.0" />
            <path d=" M 601.642, 237.733 598.666, 239.477 592.749, 238.957 " fill="none" stroke="rgb(0, 0, 0)" stroke-linecap="round" stroke-linejoin="round" stroke-opacity="1.0" stroke-width="2.0" />
            <path d=" M 590.969, 244.501 592.749, 238.957 601.503, 243.790 603.285, 244.773 " fill="none" stroke="rgb(0, 0, 0)" stroke-linecap="round" stroke-linejoin="round" stroke-opacity="1.0" stroke-width="2.0" />
            <path d=" M 601.651, 249.861 603.285, 244.773 609.202, 245.293 612.177, 243.549 612.221, 243.348 612.479, 241.817 610.217, 239.617 604.407, 236.410 " fill="none" stroke="rgb(0, 0, 0)" stroke-linecap="round" stroke-linejoin="round" stroke-opacity="1.0" stroke-width="2.0" />
            <path d=" M 596.284, 246.898 596.665, 247.646 597.762, 249.791 606.517, 254.624 608.298, 255.607 " fill="none" stroke="rgb(0, 0, 0)" stroke-linecap="round" stroke-linejoin="round" stroke-opacity="1.0" stroke-width="2.0" />
            <path d=" M 612.177, 243.549 603.423, 238.716 601.642, 237.733 601.661, 237.641 601.685, 237.532 601.944, 236.001 " fill="none" stroke="rgb(0, 0, 0)" stroke-linecap="round" stroke-linejoin="round" stroke-opacity="1.0" stroke-width="2.0" />
            <path d=" M 599.681, 233.802 593.763, 233.281 " fill="none" stroke="rgb(0, 0, 0)" stroke-linecap="round" stroke-linejoin="round" stroke-opacity="1.0" stroke-width="2.0" />
            <path d=" M 602.448, 223.639 600.321, 225.849 599.985, 226.198 593.991, 227.601 " fill="none" stroke="rgb(0, 0, 0)" stroke-linecap="round" stroke-linejoin="round" stroke-opacity="1.0" stroke-width="2.0" />
            <path d=" M 593.763, 233.281 593.991, 227.601 602.745, 232.433 604.526, 233.417 " fill="none" stroke="rgb(0, 0, 0)" stroke-linecap="round" stroke-linejoin="round" stroke-opacity="1.0" stroke-width="2.0" />
            <path d=" M 604.407, 236.410 604.526, 233.417 610.521, 232.014 612.984, 229.454 612.802, 227.765 604.047, 222.932 602.972, 222.339 602.266, 221.949 599.419, 220.640 599.238, 220.682 593.425, 222.042 " fill="none" stroke="rgb(0, 0, 0)" stroke-linecap="round" stroke-linejoin="round" stroke-opacity="1.0" stroke-width="2.0" />
            <path d=" M 599.681, 233.802 601.944, 236.001 604.370, 237.340 612.479, 241.817 " fill="none" stroke="rgb(0, 0, 0)" stroke-linecap="round" stroke-linejoin="round" stroke-opacity="1.0" stroke-width="2.0" />
            <path d=" M 612.984, 229.454 604.229, 224.622 602.963, 223.923 602.448, 223.639 602.266, 221.949 " fill="none" stroke="rgb(0, 0, 0)" stroke-linecap="round" stroke-linejoin="round" stroke-opacity="1.0" stroke-width="2.0" />
            <path d=" M 592.078, 216.730 599.238, 220.682 " fill="none" stroke="rgb(0, 0, 0)" stroke-linecap="round" stroke-linejoin="round" stroke-opacity="1.0" stroke-width="2.0" />
            <path d=" M 599.342, 210.389 599.139, 210.757 597.994, 212.843 597.782, 213.228 597.617, 213.529 595.433, 214.791 592.078, 216.730 593.425, 222.042 " fill="none" stroke="rgb(0, 0, 0)" stroke-linecap="round" stroke-linejoin="round" stroke-opacity="1.0" stroke-width="2.0" />
            <path d=" M 602.972, 222.339 608.153, 219.344 609.877, 216.205 609.237, 214.699 600.748, 210.013 598.701, 208.884 595.521, 208.581 592.572, 210.285 589.982, 211.783 " fill="none" stroke="rgb(0, 0, 0)" stroke-linecap="round" stroke-linejoin="round" stroke-opacity="1.0" stroke-width="2.0" />
            <path d=" M 609.877, 216.205 601.123, 211.372 600.019, 210.763 599.342, 210.389 598.701, 208.884 " fill="none" stroke="rgb(0, 0, 0)" stroke-linecap="round" stroke-linejoin="round" stroke-opacity="1.0" stroke-width="2.0" />
            <path d=" M 592.609, 199.155 591.773, 202.595 588.447, 206.011 587.182, 207.310 " fill="none" stroke="rgb(0, 0, 0)" stroke-linecap="round" stroke-linejoin="round" stroke-opacity="1.0" stroke-width="2.0" />
            <path d=" M 589.982, 211.783 587.182, 207.310 592.572, 210.285 " fill="none" stroke="rgb(0, 0, 0)" stroke-linecap="round" stroke-linejoin="round" stroke-opacity="1.0" stroke-width="2.0" />
            <path d=" M 600.748, 210.013 602.309, 208.410 603.145, 204.970 602.102, 203.779 593.466, 199.013 591.566, 197.964 588.484, 198.664 588.333, 198.698 584.408, 202.729 584.390, 202.747 584.207, 202.936 583.742, 203.414 " fill="none" stroke="rgb(0, 0, 0)" stroke-linecap="round" stroke-linejoin="round" stroke-opacity="1.0" stroke-width="2.0" />
            <path d=" M 603.145, 204.970 594.390, 200.138 593.488, 199.640 592.609, 199.155 591.566, 197.964 " fill="none" stroke="rgb(0, 0, 0)" stroke-linecap="round" stroke-linejoin="round" stroke-opacity="1.0" stroke-width="2.0" />
            <path d=" M 582.847, 190.932 582.972, 194.368 582.482, 195.249 579.737, 200.179 " fill="none" stroke="rgb(0, 0, 0)" stroke-linecap="round" stroke-linejoin="round" stroke-opacity="1.0" stroke-width="2.0" />
            <path d=" M 583.742, 203.414 581.072, 201.257 579.737, 200.179 581.147, 200.957 584.390, 202.747 " fill="none" stroke="rgb(0, 0, 0)" stroke-linecap="round" stroke-linejoin="round" stroke-opacity="1.0" stroke-width="2.0" />
            <path d=" M 593.383, 196.748 584.628, 191.915 582.847, 190.932 581.560, 190.198 581.488, 190.162 579.597, 191.239 579.074, 191.537 578.493, 191.868 575.258, 197.679 570.405, 195.969 " fill="none" stroke="rgb(0, 0, 0)" stroke-linecap="round" stroke-linejoin="round" stroke-opacity="1.0" stroke-width="2.0" />
            <path d=" M 593.466, 199.013 593.383, 196.748 592.096, 196.013 583.341, 191.181 581.560, 190.198 " fill="none" stroke="rgb(0, 0, 0)" stroke-linecap="round" stroke-linejoin="round" stroke-opacity="1.0" stroke-width="2.0" />
            <path d=" M 570.924, 186.452 571.996, 189.580 570.405, 195.969 " fill="none" stroke="rgb(0, 0, 0)" stroke-linecap="round" stroke-linejoin="round" stroke-opacity="1.0" stroke-width="2.0" />
            <path d=" M 579.597, 191.239 570.924, 186.452 569.647, 186.213 569.362, 186.176 566.877, 188.699 566.358, 190.782 566.108, 191.786 565.381, 194.703 565.285, 195.088 565.164, 195.088 560.014, 195.056 " fill="none" stroke="rgb(0, 0, 0)" stroke-linecap="round" stroke-linejoin="round" stroke-opacity="1.0" stroke-width="2.0" />
            <path d=" M 557.896, 186.112 559.821, 188.655 560.014, 195.056 " fill="none" stroke="rgb(0, 0, 0)" stroke-linecap="round" stroke-linejoin="round" stroke-opacity="1.0" stroke-width="2.0" />
            <path d=" M 566.358, 190.782 557.896, 186.112 556.773, 186.263 556.273, 186.357 554.516, 189.471 554.693, 195.336 554.709, 195.872 553.478, 196.260 549.488, 197.519 " fill="none" stroke="rgb(0, 0, 0)" stroke-linecap="round" stroke-linejoin="round" stroke-opacity="1.0" stroke-width="2.0" />
            <path d=" M 544.921, 189.942 547.528, 191.676 549.488, 197.519 " fill="none" stroke="rgb(0, 0, 0)" stroke-linecap="round" stroke-linejoin="round" stroke-opacity="1.0" stroke-width="2.0" />
            <path d=" M 532.049, 211.013 526.870, 208.155 " fill="none" stroke="rgb(0, 0, 0)" stroke-linecap="round" stroke-linejoin="round" stroke-opacity="1.0" stroke-width="2.0" />
            <path d=" M 542.047, 201.597 536.209, 198.374 " fill="none" stroke="rgb(0, 0, 0)" stroke-linecap="round" stroke-linejoin="round" stroke-opacity="1.0" stroke-width="2.0" />
        </g>
    </g>
</svg>
