<?xml version='1.0' encoding='ascii'?>
<svg xmlns="http://www.w3.org/2000/svg" xmlns:inkscape="http://www.inkscape.org/namespaces/inkscape" height="1123" version="1.1" width="794">
    <g id="View Layer_LineSet" inkscape:groupmode="lineset" inkscape:label="View Layer_LineSet">
        <g id="fills" inkscape:groupmode="layer" inkscape:label="fills" xmlns:inkscape="http://www.inkscape.org/namespaces/inkscape">
            <path d=" M 849.263, 230.752 844.844, 230.700 841.588, 230.834 837.938, 237.585 835.953, 252.541 823.053, 256.063 820.753, 250.969 815.570, 246.617 805.035, 240.801 801.240, 242.816 797.170, 245.227 793.193, 247.837 791.759, 248.874 791.890, 256.270 797.684, 269.101 782.546, 284.898 781.260, 284.171 770.725, 278.355 763.858, 277.984 763.095, 279.118 760.531, 283.306 758.149, 287.601 755.955, 291.993 755.948, 292.009 759.832, 297.728 771.566, 304.362 765.890, 325.649 751.942, 327.319 748.564, 329.287 745.564, 331.035 745.353, 334.102 745.244, 338.860 745.353, 343.592 745.564, 346.609 756.100, 352.425 762.478, 354.613 767.839, 353.971 771.566, 367.056 759.832, 376.500 755.948, 383.149 755.955, 383.163 758.149, 387.030 760.531, 390.754 763.095, 394.328 763.858, 395.279 774.394, 401.095 781.260, 399.079 791.344, 390.964 797.684, 396.062 791.890, 410.281 791.759, 417.708 802.295, 423.524 803.729, 424.218 807.706, 425.876 811.776, 427.312 815.570, 428.418 820.753, 422.825 826.547, 408.606 836.705, 408.947 837.938, 417.940 841.588, 423.817 852.124, 429.632 855.380, 428.987 859.799, 427.877 864.185, 426.540 866.583, 425.679 868.416, 418.311 866.431, 403.831 881.330, 394.793 883.355, 397.043 893.891, 402.858 900.176, 405.320 900.524, 405.017 904.034, 401.677 907.405, 398.173 910.630, 394.514 911.204, 393.802 909.117, 386.970 899.983, 376.826 910.876, 357.454 924.258, 360.041 931.156, 358.299 931.895, 356.168 933.292, 351.494 934.479, 346.778 935.282, 342.868 929.935, 338.753 919.399, 332.938 916.552, 332.387 916.552, 314.688 929.935, 308.897 935.282, 303.502 934.479, 299.785 933.292, 295.352 931.895, 291.013 931.156, 289.059 920.620, 283.243 913.723, 283.153 905.614, 286.662 899.983, 277.996 909.117, 265.665 911.204, 258.333 910.630, 257.759 907.405, 254.872 904.034, 252.175 900.524, 249.675 900.176, 249.456 889.641, 243.641 883.355, 247.607 874.221, 259.938 866.677, 257.168 868.416, 244.070 866.583, 237.141 856.047, 231.326 853.649, 231.039 849.263, 230.752  z M 846.489, 300.777 848.009, 300.634 849.526, 300.572 851.036, 300.590 852.535, 300.688 854.019, 300.865 855.485, 301.122 856.930, 301.458 857.399, 301.595 857.867, 302.014 858.916, 303.063 859.910, 304.172 860.846, 305.339 861.721, 306.560 862.535, 307.832 863.285, 309.153 863.969, 310.520 864.585, 311.929 865.133, 313.376 865.610, 314.859 866.016, 316.373 866.349, 317.915 866.609, 319.482 866.795, 321.069 866.907, 322.673 866.945, 324.290 866.907, 325.915 866.795, 327.546 866.609, 329.178 866.349, 330.807 866.016, 332.429 865.610, 334.040 865.133, 335.637 864.585, 337.216 863.969, 338.772 863.285, 340.302 862.535, 341.803 861.721, 343.271 860.846, 344.701 859.910, 346.092 858.916, 347.439 857.867, 348.739 856.766, 349.989 855.614, 351.186 854.415, 352.327 853.171, 353.410 851.886, 354.431 850.562, 355.389 849.204, 356.281 847.813, 357.104 846.394, 357.858 844.949, 358.539 843.483, 359.147 841.999, 359.680 840.500, 360.137 838.991, 360.516 837.474, 360.817 835.953, 361.039 834.432, 361.181 832.915, 361.244 831.405, 361.226 829.907, 361.128 828.422, 360.951 826.956, 360.694 825.512, 360.358 825.043, 360.221 824.574, 359.802 823.525, 358.753 822.532, 357.644 821.596, 356.477 820.720, 355.256 819.906, 353.984 819.156, 352.663 818.472, 351.296 817.856, 349.887 817.309, 348.440 816.831, 346.957 816.426, 345.443 816.092, 343.901 815.832, 342.334 815.646, 340.747 815.534, 339.143 815.497, 337.526 815.534, 335.901 815.646, 334.270 815.832, 332.638 816.092, 331.009 816.426, 329.387 816.831, 327.776 817.309, 326.179 817.856, 324.600 818.472, 323.044 819.156, 321.514 819.906, 320.013 820.720, 318.545 821.596, 317.115 822.532, 315.724 823.525, 314.377 824.574, 313.077 825.676, 311.827 826.828, 310.630 828.027, 309.489 829.271, 308.406 830.556, 307.385 831.879, 306.427 833.238, 305.535 834.629, 304.712 836.048, 303.958 837.492, 303.276 838.958, 302.668 840.443, 302.135 841.941, 301.679 843.451, 301.299 844.968, 300.999 846.489, 300.777  z" fill="rgb(204, 0, 0)" fill-opacity="1.0" fill_rule="evenodd" stroke="none" />
        </g>
        <g id="strokes" inkscape:groupmode="layer" inkscape:label="strokes">
            <path d=" M 797.170, 420.060 793.193, 418.402 791.759, 417.708 " fill="none" stroke="rgb(0, 0, 0)" stroke-linecap="round" stroke-linejoin="round" stroke-opacity="1.0" stroke-width="2.0" />
            <path d=" M 765.890, 347.127 767.839, 353.971 770.578, 363.589 771.566, 367.056 763.776, 373.326 759.832, 376.500 755.948, 383.149 755.955, 383.163 758.149, 387.030 760.531, 390.754 763.095, 394.328 763.858, 395.279 772.613, 400.112 774.394, 401.095 781.260, 399.079 789.051, 392.810 791.344, 390.964 " fill="none" stroke="rgb(0, 0, 0)" stroke-linecap="round" stroke-linejoin="round" stroke-opacity="1.0" stroke-width="2.0" />
            <path d=" M 782.546, 284.898 781.260, 284.171 772.506, 279.338 770.725, 278.355 763.858, 277.984 763.095, 279.118 760.531, 283.306 758.149, 287.601 755.955, 291.993 755.948, 292.009 759.832, 297.728 768.537, 302.650 771.566, 304.362 768.990, 314.024 766.413, 323.687 765.890, 325.649 755.961, 326.838 751.942, 327.319 748.564, 329.287 745.564, 331.035 745.353, 334.102 745.244, 338.860 745.353, 343.592 745.564, 346.609 754.318, 351.442 756.100, 352.425 762.478, 354.613 767.839, 353.971 " fill="none" stroke="rgb(0, 0, 0)" stroke-linecap="round" stroke-linejoin="round" stroke-opacity="1.0" stroke-width="2.0" />
            <path d=" M 797.170, 245.227 793.193, 247.837 791.759, 248.874 791.890, 256.270 796.006, 265.384 797.684, 269.101 790.765, 276.321 783.846, 283.541 782.546, 284.898 782.458, 284.989 " fill="none" stroke="rgb(0, 0, 0)" stroke-linecap="round" stroke-linejoin="round" stroke-opacity="1.0" stroke-width="2.0" />
            <path d=" M 770.725, 278.355 779.430, 283.277 782.458, 284.989 " fill="none" stroke="rgb(0, 0, 0)" stroke-linecap="round" stroke-linejoin="round" stroke-opacity="1.0" stroke-width="2.0" />
            <path d=" M 765.890, 347.127 755.961, 348.316 751.942, 348.797 745.564, 346.609 " fill="none" stroke="rgb(0, 0, 0)" stroke-linecap="round" stroke-linejoin="round" stroke-opacity="1.0" stroke-width="2.0" />
            <path d=" M 802.295, 423.524 793.540, 418.691 791.759, 417.708 791.890, 410.281 795.664, 401.021 797.684, 396.062 791.344, 390.964 783.550, 384.698 782.458, 383.820 774.668, 390.090 770.725, 393.264 763.858, 395.279 " fill="none" stroke="rgb(0, 0, 0)" stroke-linecap="round" stroke-linejoin="round" stroke-opacity="1.0" stroke-width="2.0" />
        </g>
    </g>
</svg>
