<?xml version='1.0' encoding='ascii'?>
<svg xmlns="http://www.w3.org/2000/svg" xmlns:inkscape="http://www.inkscape.org/namespaces/inkscape" height="1123" version="1.1" width="794">
    <g id="View Layer_LineSet" inkscape:groupmode="lineset" inkscape:label="View Layer_LineSet">
        <g id="fills" inkscape:groupmode="layer" inkscape:label="fills" xmlns:inkscape="http://www.inkscape.org/namespaces/inkscape">
            <path d=" M 375.434, 619.196 365.786, 613.870 367.605, 611.999 368.483, 608.297 367.566, 607.212 366.918, 606.527 357.225, 601.176 357.148, 598.524 355.545, 597.571 345.009, 591.756 344.600, 591.542 342.728, 592.568 332.792, 587.083 330.501, 586.613 327.747, 589.256 327.172, 591.354 317.610, 586.075 317.378, 586.091 315.209, 586.348 313.185, 589.626 313.139, 595.803 312.840, 595.579 302.304, 589.764 301.604, 590.034 299.987, 590.748 298.849, 594.399 300.623, 600.819 297.831, 602.485 291.319, 598.890 288.105, 597.836 287.069, 598.621 286.064, 599.455 285.902, 603.187 289.357, 608.604 285.301, 612.777 279.626, 609.644 276.160, 609.644 275.024, 611.113 274.566, 611.762 275.392, 615.278 280.248, 619.254 276.742, 625.391 270.878, 623.179 267.436, 624.234 266.507, 626.435 266.418, 626.674 268.171, 629.694 273.790, 632.796 272.181, 638.667 265.785, 638.397 262.642, 640.430 262.288, 642.997 264.823, 645.266 271.195, 648.783 271.169, 652.371 264.758, 654.067 262.189, 656.899 262.236, 657.401 262.516, 659.402 273.052, 665.218 273.653, 665.475 267.882, 668.918 266.088, 672.321 266.456, 673.228 267.074, 674.550 276.722, 679.876 274.903, 681.748 274.024, 685.449 274.942, 686.534 275.589, 687.220 285.283, 692.570 285.360, 695.222 286.963, 696.175 297.499, 701.991 297.908, 702.204 299.780, 701.179 309.716, 706.663 312.007, 707.133 314.760, 704.490 315.335, 702.393 324.898, 707.671 325.130, 707.656 327.299, 707.399 329.323, 704.120 329.368, 697.943 329.668, 698.167 340.204, 703.983 340.904, 703.713 342.521, 702.998 343.658, 699.348 341.884, 692.927 344.677, 691.262 351.188, 694.856 354.403, 695.910 355.439, 695.125 356.443, 694.292 356.606, 690.560 353.151, 685.142 357.206, 680.969 362.882, 684.102 366.348, 684.102 367.484, 682.633 367.942, 681.984 367.116, 678.468 362.260, 674.492 365.766, 668.355 371.630, 670.568 375.071, 669.512 376.001, 667.312 376.090, 667.072 374.337, 664.053 368.717, 660.951 370.327, 655.080 376.723, 655.349 379.866, 653.316 380.220, 650.749 377.685, 648.481 371.312, 644.963 371.339, 641.375 377.749, 639.680 380.318, 636.847 380.272, 636.346 379.991, 634.344 369.455, 628.529 368.854, 628.271 374.626, 624.828 376.420, 621.425 376.052, 620.519 375.434, 619.196  z M 316.031, 633.331 316.859, 632.704 317.710, 632.119 318.582, 631.576 319.473, 631.077 320.381, 630.623 321.304, 630.215 322.240, 629.855 323.186, 629.542 324.140, 629.278 325.099, 629.064 326.062, 628.899 327.027, 628.785 327.990, 628.721 328.949, 628.709 329.903, 628.746 330.848, 628.835 331.182, 628.885 331.487, 629.244 332.060, 630.002 332.595, 630.793 333.090, 631.616 333.543, 632.469 333.954, 633.350 334.322, 634.256 334.646, 635.185 334.925, 636.136 335.158, 637.105 335.345, 638.091 335.486, 639.091 335.579, 640.103 335.625, 641.124 335.624, 642.152 335.576, 643.185 335.480, 644.219 335.337, 645.253 335.148, 646.283 334.913, 647.308 334.632, 648.325 334.306, 649.332 333.936, 650.325 333.523, 651.303 333.067, 652.264 332.571, 653.204 332.034, 654.123 331.459, 655.016 330.846, 655.884 330.198, 656.722 329.515, 657.530 328.800, 658.305 328.054, 659.045 327.279, 659.749 326.477, 660.416 325.649, 661.042 324.798, 661.627 323.926, 662.170 323.035, 662.669 322.126, 663.123 321.203, 663.531 320.268, 663.891 319.322, 664.204 318.368, 664.468 317.408, 664.682 316.445, 664.847 315.481, 664.961 314.518, 665.025 313.559, 665.038 312.605, 665.000 311.660, 664.911 311.325, 664.862 311.021, 664.502 310.448, 663.744 309.913, 662.953 309.418, 662.130 308.964, 661.277 308.553, 660.397 308.185, 659.491 307.862, 658.561 307.583, 657.611 307.349, 656.641 307.162, 655.655 307.022, 654.655 306.929, 653.643 306.883, 652.622 306.884, 651.594 306.932, 650.561 307.028, 649.527 307.170, 648.494 307.359, 647.463 307.595, 646.438 307.876, 645.421 308.202, 644.415 308.572, 643.421 308.985, 642.443 309.440, 641.482 309.937, 640.542 310.474, 639.624 311.049, 638.730 311.662, 637.863 312.310, 637.024 312.993, 636.217 313.708, 635.442 314.454, 634.701 315.229, 633.997 316.031, 633.331  z" fill="rgb(204, 0, 0)" fill-opacity="1.0" fill_rule="evenodd" stroke="none" />
        </g>
        <g id="strokes" inkscape:groupmode="layer" inkscape:label="strokes">
            <path d=" M 311.325, 664.862 311.021, 664.502 310.448, 663.744 309.913, 662.953 309.418, 662.130 308.964, 661.277 308.553, 660.397 308.185, 659.491 307.862, 658.561 307.583, 657.611 307.349, 656.641 307.162, 655.655 307.022, 654.655 306.929, 653.643 306.883, 652.622 306.884, 651.594 306.932, 650.561 307.028, 649.527 307.170, 648.494 307.359, 647.463 307.595, 646.438 307.876, 645.421 308.202, 644.415 308.572, 643.421 308.985, 642.443 309.440, 641.482 309.937, 640.542 310.474, 639.624 311.049, 638.730 311.662, 637.863 312.310, 637.024 312.993, 636.217 313.708, 635.442 314.454, 634.701 315.229, 633.997 316.031, 633.331 316.859, 632.704 317.710, 632.119 318.582, 631.576 319.473, 631.077 320.381, 630.623 321.304, 630.215 322.240, 629.855 323.186, 629.542 324.140, 629.278 325.099, 629.064 326.062, 628.899 327.027, 628.785 327.990, 628.721 328.949, 628.709 329.903, 628.746 330.848, 628.835 331.182, 628.885 " fill="none" stroke="rgb(0, 0, 0)" stroke-linecap="round" stroke-linejoin="round" stroke-opacity="1.0" stroke-width="2.0" />
            <path d=" M 326.515, 625.025 325.688, 624.594 324.839, 624.210 323.967, 623.874 323.077, 623.586 322.170, 623.347 321.247, 623.158 320.312, 623.019 319.367, 622.931 318.413, 622.893 317.454, 622.906 316.491, 622.970 315.527, 623.084 314.563, 623.248 313.604, 623.463 312.650, 623.727 311.704, 624.039 310.768, 624.400 309.845, 624.808 308.937, 625.262 308.046, 625.760 307.174, 626.303 306.323, 626.889 305.495, 627.515 304.693, 628.181 303.918, 628.885 303.172, 629.626 302.457, 630.401 301.774, 631.209 301.126, 632.047 300.513, 632.914 299.938, 633.808 299.401, 634.726 298.905, 635.667 298.449, 636.627 298.036, 637.606 297.666, 638.599 297.340, 639.605 297.059, 640.622 296.824, 641.647 296.634, 642.678 296.492, 643.712 296.396, 644.746 296.348, 645.778 296.347, 646.806 296.393, 647.828 296.486, 648.839 296.627, 649.840 296.814, 650.826 297.047, 651.795 297.326, 652.746 297.649, 653.675 298.017, 654.581 298.429, 655.462 298.882, 656.314 299.377, 657.137 299.912, 657.929 300.485, 658.686 301.096, 659.409 301.743, 660.094 302.424, 660.740 303.137, 661.346 303.882, 661.909 304.656, 662.430 305.457, 662.906 306.283, 663.337 307.133, 663.721 308.004, 664.057 308.895, 664.345 309.802, 664.583 310.725, 664.773 311.325, 664.862 311.660, 664.911 312.605, 665.000 313.559, 665.038 314.518, 665.025 315.481, 664.961 316.445, 664.847 317.408, 664.682 318.368, 664.468 319.322, 664.204 320.268, 663.891 321.203, 663.531 322.126, 663.123 323.035, 662.669 323.926, 662.170 324.798, 661.627 325.649, 661.042 326.477, 660.416 327.279, 659.749 328.054, 659.045 328.800, 658.305 329.515, 657.530 330.198, 656.722 330.846, 655.884 331.459, 655.016 332.034, 654.123 332.571, 653.204 333.067, 652.264 333.523, 651.303 333.936, 650.325 334.306, 649.332 334.632, 648.325 334.913, 647.308 335.148, 646.283 335.337, 645.253 335.480, 644.219 335.576, 643.185 335.624, 642.152 335.625, 641.124 335.579, 640.103 335.486, 639.091 335.345, 638.091 335.158, 637.105 334.925, 636.136 334.646, 635.185 334.322, 634.256 333.954, 633.350 333.543, 632.469 333.090, 631.616 332.595, 630.793 332.060, 630.002 331.487, 629.244 331.182, 628.885 330.876, 628.522 330.229, 627.837 329.548, 627.191 328.834, 626.585 328.090, 626.021 327.316, 625.501 326.515, 625.025 " fill="none" stroke="rgb(0, 0, 0)" stroke-linecap="round" stroke-linejoin="round" stroke-opacity="1.0" stroke-width="2.0" />
            <path d=" M 368.854, 628.271 374.626, 624.828 376.420, 621.425 376.052, 620.519 375.434, 619.196 366.679, 614.363 365.786, 613.870 364.898, 613.380 362.948, 613.215 361.474, 613.091 358.595, 614.808 355.568, 616.614 " fill="none" stroke="rgb(0, 0, 0)" stroke-linecap="round" stroke-linejoin="round" stroke-opacity="1.0" stroke-width="2.0" />
            <path d=" M 357.947, 602.482 357.069, 606.183 354.369, 608.962 353.667, 609.683 352.146, 611.248 " fill="none" stroke="rgb(0, 0, 0)" stroke-linecap="round" stroke-linejoin="round" stroke-opacity="1.0" stroke-width="2.0" />
            <path d=" M 355.568, 616.614 352.146, 611.248 358.595, 614.808 " fill="none" stroke="rgb(0, 0, 0)" stroke-linecap="round" stroke-linejoin="round" stroke-opacity="1.0" stroke-width="2.0" />
            <path d=" M 365.786, 613.870 367.605, 611.999 368.483, 608.297 367.566, 607.212 366.918, 606.527 358.164, 601.694 357.225, 601.176 356.383, 600.711 352.911, 601.484 348.800, 605.714 347.989, 606.549 " fill="none" stroke="rgb(0, 0, 0)" stroke-linecap="round" stroke-linejoin="round" stroke-opacity="1.0" stroke-width="2.0" />
            <path d=" M 368.483, 608.297 359.728, 603.465 357.947, 602.482 357.239, 601.643 357.030, 601.396 356.383, 600.711 " fill="none" stroke="rgb(0, 0, 0)" stroke-linecap="round" stroke-linejoin="round" stroke-opacity="1.0" stroke-width="2.0" />
            <path d=" M 364.898, 613.380 365.341, 614.328 365.516, 614.703 365.884, 615.610 " fill="none" stroke="rgb(0, 0, 0)" stroke-linecap="round" stroke-linejoin="round" stroke-opacity="1.0" stroke-width="2.0" />
            <path d=" M 346.612, 592.708 346.720, 596.414 343.179, 602.611 " fill="none" stroke="rgb(0, 0, 0)" stroke-linecap="round" stroke-linejoin="round" stroke-opacity="1.0" stroke-width="2.0" />
            <path d=" M 347.989, 606.549 343.179, 602.611 348.800, 605.714 " fill="none" stroke="rgb(0, 0, 0)" stroke-linecap="round" stroke-linejoin="round" stroke-opacity="1.0" stroke-width="2.0" />
            <path d=" M 357.148, 598.524 348.393, 593.691 346.612, 592.708 345.009, 591.756 344.600, 591.542 342.728, 592.568 342.451, 592.719 341.357, 593.319 337.817, 599.515 337.136, 599.258 332.009, 597.324 " fill="none" stroke="rgb(0, 0, 0)" stroke-linecap="round" stroke-linejoin="round" stroke-opacity="1.0" stroke-width="2.0" />
            <path d=" M 357.225, 601.176 357.148, 598.524 355.545, 597.571 346.790, 592.739 345.009, 591.756 " fill="none" stroke="rgb(0, 0, 0)" stroke-linecap="round" stroke-linejoin="round" stroke-opacity="1.0" stroke-width="2.0" />
            <path d=" M 332.792, 587.083 333.881, 590.498 332.009, 597.324 " fill="none" stroke="rgb(0, 0, 0)" stroke-linecap="round" stroke-linejoin="round" stroke-opacity="1.0" stroke-width="2.0" />
            <path d=" M 342.728, 592.568 333.973, 587.735 332.792, 587.083 330.501, 586.613 327.747, 589.256 327.172, 591.354 326.991, 592.016 325.876, 596.083 323.717, 595.992 319.541, 595.816 " fill="none" stroke="rgb(0, 0, 0)" stroke-linecap="round" stroke-linejoin="round" stroke-opacity="1.0" stroke-width="2.0" />
            <path d=" M 317.610, 586.075 319.592, 588.913 319.541, 595.816 " fill="none" stroke="rgb(0, 0, 0)" stroke-linecap="round" stroke-linejoin="round" stroke-opacity="1.0" stroke-width="2.0" />
            <path d=" M 327.172, 591.354 318.418, 586.521 317.610, 586.075 317.378, 586.091 315.209, 586.348 313.185, 589.626 313.139, 595.803 313.134, 596.529 310.300, 597.279 306.785, 598.209 " fill="none" stroke="rgb(0, 0, 0)" stroke-linecap="round" stroke-linejoin="round" stroke-opacity="1.0" stroke-width="2.0" />
            <path d=" M 302.304, 589.764 305.011, 591.788 306.785, 598.209 " fill="none" stroke="rgb(0, 0, 0)" stroke-linecap="round" stroke-linejoin="round" stroke-opacity="1.0" stroke-width="2.0" />
            <path d=" M 313.139, 595.803 312.840, 595.579 304.085, 590.747 302.304, 589.764 301.604, 590.034 299.987, 590.748 298.849, 594.399 300.623, 600.819 297.831, 602.485 297.204, 602.859 294.814, 604.284 294.774, 604.308 " fill="none" stroke="rgb(0, 0, 0)" stroke-linecap="round" stroke-linejoin="round" stroke-opacity="1.0" stroke-width="2.0" />
            <path d=" M 284.482, 613.620 285.301, 612.777 289.357, 608.604 285.902, 603.187 286.064, 599.455 287.069, 598.621 288.105, 597.836 291.319, 598.890 294.774, 604.308 " fill="none" stroke="rgb(0, 0, 0)" stroke-linecap="round" stroke-linejoin="round" stroke-opacity="1.0" stroke-width="2.0" />
            <path d=" M 273.790, 632.796 268.171, 629.694 266.418, 626.674 266.507, 626.435 267.436, 624.234 270.878, 623.179 276.742, 625.391 280.248, 619.254 275.392, 615.278 274.566, 611.762 275.024, 611.113 276.160, 609.644 279.626, 609.644 284.482, 613.620 " fill="none" stroke="rgb(0, 0, 0)" stroke-linecap="round" stroke-linejoin="round" stroke-opacity="1.0" stroke-width="2.0" />
            <path d=" M 271.195, 648.783 264.823, 645.266 262.288, 642.997 262.642, 640.430 265.785, 638.397 272.181, 638.667 273.790, 632.796 274.034, 631.906 268.171, 629.694 " fill="none" stroke="rgb(0, 0, 0)" stroke-linecap="round" stroke-linejoin="round" stroke-opacity="1.0" stroke-width="2.0" />
            <path d=" M 273.653, 665.475 273.052, 665.218 264.297, 660.385 262.516, 659.402 262.236, 657.401 262.189, 656.899 264.758, 654.067 271.169, 652.371 271.195, 648.783 271.202, 647.918 271.219, 645.535 264.823, 645.266 " fill="none" stroke="rgb(0, 0, 0)" stroke-linecap="round" stroke-linejoin="round" stroke-opacity="1.0" stroke-width="2.0" />
            <path d=" M 276.722, 679.876 267.967, 675.043 267.074, 674.550 266.456, 673.228 266.088, 672.321 267.882, 668.918 273.653, 665.475 273.788, 665.395 272.972, 662.443 272.031, 659.037 265.620, 660.732 262.516, 659.402 " fill="none" stroke="rgb(0, 0, 0)" stroke-linecap="round" stroke-linejoin="round" stroke-opacity="1.0" stroke-width="2.0" />
            <path d=" M 285.283, 692.570 276.528, 687.738 275.589, 687.220 274.942, 686.534 274.024, 685.449 274.903, 681.748 276.722, 679.876 277.167, 679.418 279.825, 676.683 278.537, 674.662 276.404, 671.317 270.498, 674.840 267.074, 674.550 " fill="none" stroke="rgb(0, 0, 0)" stroke-linecap="round" stroke-linejoin="round" stroke-opacity="1.0" stroke-width="2.0" />
            <path d=" M 299.780, 701.179 297.908, 702.204 297.499, 701.991 288.744, 697.158 286.963, 696.175 285.360, 695.222 285.283, 692.570 285.269, 692.103 285.252, 691.516 288.792, 685.320 288.139, 684.785 283.983, 681.382 279.061, 686.447 275.589, 687.220 " fill="none" stroke="rgb(0, 0, 0)" stroke-linecap="round" stroke-linejoin="round" stroke-opacity="1.0" stroke-width="2.0" />
            <path d=" M 294.155, 688.416 290.615, 694.612 287.372, 696.388 " fill="none" stroke="rgb(0, 0, 0)" stroke-linecap="round" stroke-linejoin="round" stroke-opacity="1.0" stroke-width="2.0" />
            <path d=" M 299.962, 690.607 299.721, 691.488 298.091, 697.433 299.180, 700.848 299.780, 701.179 308.535, 706.011 309.716, 706.663 312.007, 707.133 314.760, 704.490 315.335, 702.393 " fill="none" stroke="rgb(0, 0, 0)" stroke-linecap="round" stroke-linejoin="round" stroke-opacity="1.0" stroke-width="2.0" />
            <path d=" M 286.963, 696.175 287.372, 696.388 296.127, 701.221 297.908, 702.204 " fill="none" stroke="rgb(0, 0, 0)" stroke-linecap="round" stroke-linejoin="round" stroke-opacity="1.0" stroke-width="2.0" />
            <path d=" M 299.962, 690.607 294.155, 688.416 299.721, 691.488 " fill="none" stroke="rgb(0, 0, 0)" stroke-linecap="round" stroke-linejoin="round" stroke-opacity="1.0" stroke-width="2.0" />
            <path d=" M 306.096, 691.848 305.585, 693.710 305.372, 694.488 304.224, 698.674 301.471, 701.317 " fill="none" stroke="rgb(0, 0, 0)" stroke-linecap="round" stroke-linejoin="round" stroke-opacity="1.0" stroke-width="2.0" />
            <path d=" M 312.431, 692.115 312.407, 695.332 312.380, 699.018 314.362, 701.855 315.335, 702.393 324.090, 707.225 324.898, 707.671 325.130, 707.656 327.299, 707.399 329.323, 704.120 329.368, 697.943 " fill="none" stroke="rgb(0, 0, 0)" stroke-linecap="round" stroke-linejoin="round" stroke-opacity="1.0" stroke-width="2.0" />
            <path d=" M 299.180, 700.848 300.056, 701.027 301.471, 701.317 310.226, 706.150 312.007, 707.133 " fill="none" stroke="rgb(0, 0, 0)" stroke-linecap="round" stroke-linejoin="round" stroke-opacity="1.0" stroke-width="2.0" />
            <path d=" M 312.431, 692.115 306.096, 691.848 312.407, 695.332 " fill="none" stroke="rgb(0, 0, 0)" stroke-linecap="round" stroke-linejoin="round" stroke-opacity="1.0" stroke-width="2.0" />
            <path d=" M 316.763, 701.583 315.517, 701.731 314.594, 701.840 314.362, 701.855 " fill="none" stroke="rgb(0, 0, 0)" stroke-linecap="round" stroke-linejoin="round" stroke-opacity="1.0" stroke-width="2.0" />
            <path d=" M 318.838, 691.401 318.807, 695.634 318.791, 697.754 318.787, 698.304 316.763, 701.583 325.518, 706.415 327.299, 707.399 " fill="none" stroke="rgb(0, 0, 0)" stroke-linecap="round" stroke-linejoin="round" stroke-opacity="1.0" stroke-width="2.0" />
            <path d=" M 325.187, 689.722 326.877, 695.839 326.961, 696.143 329.368, 697.943 329.668, 698.167 338.423, 703.000 340.204, 703.983 340.904, 703.713 342.521, 702.998 343.658, 699.348 341.884, 692.927 344.677, 691.262 " fill="none" stroke="rgb(0, 0, 0)" stroke-linecap="round" stroke-linejoin="round" stroke-opacity="1.0" stroke-width="2.0" />
            <path d=" M 325.187, 689.722 318.838, 691.401 326.877, 695.839 " fill="none" stroke="rgb(0, 0, 0)" stroke-linecap="round" stroke-linejoin="round" stroke-opacity="1.0" stroke-width="2.0" />
            <path d=" M 331.985, 697.183 330.368, 697.897 329.668, 698.167 " fill="none" stroke="rgb(0, 0, 0)" stroke-linecap="round" stroke-linejoin="round" stroke-opacity="1.0" stroke-width="2.0" />
            <path d=" M 341.884, 692.927 333.130, 688.095 331.349, 687.112 " fill="none" stroke="rgb(0, 0, 0)" stroke-linecap="round" stroke-linejoin="round" stroke-opacity="1.0" stroke-width="2.0" />
            <path d=" M 340.653, 689.040 337.198, 683.623 336.099, 684.278 331.349, 687.112 333.122, 693.532 332.971, 694.019 332.208, 696.467 331.985, 697.183 340.740, 702.015 342.521, 702.998 " fill="none" stroke="rgb(0, 0, 0)" stroke-linecap="round" stroke-linejoin="round" stroke-opacity="1.0" stroke-width="2.0" />
            <path d=" M 343.867, 690.094 340.653, 689.040 " fill="none" stroke="rgb(0, 0, 0)" stroke-linecap="round" stroke-linejoin="round" stroke-opacity="1.0" stroke-width="2.0" />
            <path d=" M 344.677, 691.262 351.188, 694.856 354.403, 695.910 355.439, 695.125 356.443, 694.292 356.606, 690.560 353.151, 685.142 357.206, 680.969 " fill="none" stroke="rgb(0, 0, 0)" stroke-linecap="round" stroke-linejoin="round" stroke-opacity="1.0" stroke-width="2.0" />
            <path d=" M 354.403, 695.910 345.648, 691.077 345.304, 690.887 343.867, 690.094 344.903, 689.310 345.907, 688.476 " fill="none" stroke="rgb(0, 0, 0)" stroke-linecap="round" stroke-linejoin="round" stroke-opacity="1.0" stroke-width="2.0" />
            <path d=" M 353.151, 685.142 344.396, 680.310 342.615, 679.326 " fill="none" stroke="rgb(0, 0, 0)" stroke-linecap="round" stroke-linejoin="round" stroke-opacity="1.0" stroke-width="2.0" />
            <path d=" M 352.346, 678.286 347.490, 674.310 342.615, 679.326 346.070, 684.744 345.909, 688.431 345.907, 688.476 347.694, 689.462 356.443, 694.292 " fill="none" stroke="rgb(0, 0, 0)" stroke-linecap="round" stroke-linejoin="round" stroke-opacity="1.0" stroke-width="2.0" />
            <path d=" M 355.812, 678.287 354.694, 678.287 352.346, 678.286 " fill="none" stroke="rgb(0, 0, 0)" stroke-linecap="round" stroke-linejoin="round" stroke-opacity="1.0" stroke-width="2.0" />
            <path d=" M 357.206, 680.969 362.882, 684.102 366.348, 684.102 367.484, 682.633 367.942, 681.984 367.116, 678.468 362.260, 674.492 365.766, 668.355 371.630, 670.568 375.071, 669.512 376.001, 667.312 376.090, 667.072 374.337, 664.053 368.717, 660.951 " fill="none" stroke="rgb(0, 0, 0)" stroke-linecap="round" stroke-linejoin="round" stroke-opacity="1.0" stroke-width="2.0" />
            <path d=" M 366.348, 684.102 357.593, 679.270 355.812, 678.287 356.948, 676.818 357.406, 676.169 " fill="none" stroke="rgb(0, 0, 0)" stroke-linecap="round" stroke-linejoin="round" stroke-opacity="1.0" stroke-width="2.0" />
            <path d=" M 362.260, 674.492 353.505, 669.660 351.724, 668.677 " fill="none" stroke="rgb(0, 0, 0)" stroke-linecap="round" stroke-linejoin="round" stroke-opacity="1.0" stroke-width="2.0" />
            <path d=" M 355.230, 662.540 351.724, 668.677 356.580, 672.653 357.406, 676.169 366.161, 681.001 367.942, 681.984 " fill="none" stroke="rgb(0, 0, 0)" stroke-linecap="round" stroke-linejoin="round" stroke-opacity="1.0" stroke-width="2.0" />
            <path d=" M 364.535, 663.696 361.094, 664.752 355.230, 662.540 363.985, 667.372 365.766, 668.355 " fill="none" stroke="rgb(0, 0, 0)" stroke-linecap="round" stroke-linejoin="round" stroke-opacity="1.0" stroke-width="2.0" />
            <path d=" M 375.071, 669.512 366.316, 664.679 364.535, 663.696 365.465, 661.496 365.554, 661.256 " fill="none" stroke="rgb(0, 0, 0)" stroke-linecap="round" stroke-linejoin="round" stroke-opacity="1.0" stroke-width="2.0" />
            <path d=" M 363.801, 658.237 357.937, 656.025 " fill="none" stroke="rgb(0, 0, 0)" stroke-linecap="round" stroke-linejoin="round" stroke-opacity="1.0" stroke-width="2.0" />
            <path d=" M 369.330, 647.501 366.187, 649.534 359.791, 649.264 " fill="none" stroke="rgb(0, 0, 0)" stroke-linecap="round" stroke-linejoin="round" stroke-opacity="1.0" stroke-width="2.0" />
            <path d=" M 357.937, 656.025 359.791, 649.264 368.546, 654.097 370.327, 655.080 " fill="none" stroke="rgb(0, 0, 0)" stroke-linecap="round" stroke-linejoin="round" stroke-opacity="1.0" stroke-width="2.0" />
            <path d=" M 368.717, 660.951 370.327, 655.080 376.723, 655.349 379.866, 653.316 380.220, 650.749 377.685, 648.481 371.312, 644.963 " fill="none" stroke="rgb(0, 0, 0)" stroke-linecap="round" stroke-linejoin="round" stroke-opacity="1.0" stroke-width="2.0" />
            <path d=" M 363.801, 658.237 364.676, 659.745 365.554, 661.256 374.309, 666.089 376.090, 667.072 " fill="none" stroke="rgb(0, 0, 0)" stroke-linecap="round" stroke-linejoin="round" stroke-opacity="1.0" stroke-width="2.0" />
            <path d=" M 379.866, 653.316 371.111, 648.484 369.330, 647.501 369.377, 647.157 369.684, 644.933 " fill="none" stroke="rgb(0, 0, 0)" stroke-linecap="round" stroke-linejoin="round" stroke-opacity="1.0" stroke-width="2.0" />
            <path d=" M 367.149, 642.665 360.752, 642.396 " fill="none" stroke="rgb(0, 0, 0)" stroke-linecap="round" stroke-linejoin="round" stroke-opacity="1.0" stroke-width="2.0" />
            <path d=" M 369.783, 631.031 369.535, 631.304 367.791, 633.227 367.214, 633.864 360.803, 635.560 " fill="none" stroke="rgb(0, 0, 0)" stroke-linecap="round" stroke-linejoin="round" stroke-opacity="1.0" stroke-width="2.0" />
            <path d=" M 360.752, 642.396 360.803, 635.560 369.557, 640.392 371.339, 641.375 " fill="none" stroke="rgb(0, 0, 0)" stroke-linecap="round" stroke-linejoin="round" stroke-opacity="1.0" stroke-width="2.0" />
            <path d=" M 371.312, 644.963 371.339, 641.375 377.749, 639.680 380.318, 636.847 380.272, 636.346 379.991, 634.344 371.236, 629.512 369.455, 628.529 368.854, 628.271 367.603, 627.735 366.352, 627.199 359.941, 628.894 " fill="none" stroke="rgb(0, 0, 0)" stroke-linecap="round" stroke-linejoin="round" stroke-opacity="1.0" stroke-width="2.0" />
            <path d=" M 367.149, 642.665 369.684, 644.933 371.306, 645.829 380.061, 650.661 380.220, 650.749 " fill="none" stroke="rgb(0, 0, 0)" stroke-linecap="round" stroke-linejoin="round" stroke-opacity="1.0" stroke-width="2.0" />
            <path d=" M 380.318, 636.847 371.564, 632.014 369.783, 631.031 369.736, 630.530 369.455, 628.529 " fill="none" stroke="rgb(0, 0, 0)" stroke-linecap="round" stroke-linejoin="round" stroke-opacity="1.0" stroke-width="2.0" />
            <path d=" M 358.184, 622.536 366.939, 627.368 367.603, 627.735 " fill="none" stroke="rgb(0, 0, 0)" stroke-linecap="round" stroke-linejoin="round" stroke-opacity="1.0" stroke-width="2.0" />
            <path d=" M 376.420, 621.425 367.665, 616.593 365.884, 615.610 364.090, 619.013 363.971, 619.084 362.083, 620.210 358.184, 622.536 359.941, 628.894 " fill="none" stroke="rgb(0, 0, 0)" stroke-linecap="round" stroke-linejoin="round" stroke-opacity="1.0" stroke-width="2.0" />
            <path d=" M 285.301, 612.777 279.626, 609.644 " fill="none" stroke="rgb(0, 0, 0)" stroke-linecap="round" stroke-linejoin="round" stroke-opacity="1.0" stroke-width="2.0" />
            <path d=" M 297.831, 602.485 291.319, 598.890 " fill="none" stroke="rgb(0, 0, 0)" stroke-linecap="round" stroke-linejoin="round" stroke-opacity="1.0" stroke-width="2.0" />
        </g>
    </g>
</svg>
