<?xml version='1.0' encoding='ascii'?>
<svg xmlns="http://www.w3.org/2000/svg" xmlns:inkscape="http://www.inkscape.org/namespaces/inkscape" height="1123" version="1.1" width="794">
    <g id="View Layer_LineSet" inkscape:groupmode="lineset" inkscape:label="View Layer_LineSet">
        <g id="fills" inkscape:groupmode="layer" inkscape:label="fills" xmlns:inkscape="http://www.inkscape.org/namespaces/inkscape">
            <path d=" M 133.582, 656.636 124.138, 651.423 124.138, 650.231 124.138, 650.230 133.582, 648.108 137.351, 643.974 126.815, 638.158 124.110, 636.731 131.420, 633.491 134.442, 628.733 123.906, 622.917 122.712, 622.596 126.577, 619.931 128.737, 614.732 118.243, 608.939 119.240, 607.948 120.454, 602.508 109.918, 596.692 109.741, 596.722 109.911, 592.531 99.375, 586.716 97.826, 587.305 97.514, 585.185 86.979, 579.369 83.919, 581.255 83.740, 580.752 73.204, 574.936 69.080, 578.651 68.906, 579.285 58.581, 573.586 55.126, 578.017 54.782, 581.785 54.208, 581.187 43.672, 575.371 41.018, 580.348 41.679, 587.423 39.585, 586.038 29.049, 580.223 27.299, 585.553 30.053, 594.904 29.697, 595.104 19.909, 589.701 15.275, 587.954 14.495, 593.434 18.968, 601.820 16.593, 603.797 7.845, 598.968 2.878, 598.269 3.099, 603.688 9.119, 610.786 5.636, 614.917 -2.557, 610.394 -7.665, 610.770 -6.451, 615.919 0.884, 621.458 -2.526, 627.308 -10.895, 623.541 -15.948, 624.977 -13.788, 629.659 -5.683, 634.133 -7.769, 639.753 -16.849, 637.904 -21.653, 640.345 -18.631, 644.379 -10.076, 649.102 -10.749, 652.790 -20.192, 652.929 -24.562, 656.282 -20.794, 659.514 -11.350, 664.726 -11.350, 665.919 -20.794, 668.041 -24.562, 672.176 -14.026, 677.991 -11.321, 679.419 -18.631, 682.658 -21.653, 687.417 -11.118, 693.232 -9.923, 693.553 -13.788, 696.219 -15.948, 701.418 -5.454, 707.210 -6.451, 708.202 -7.665, 713.642 2.871, 719.457 3.047, 719.428 2.878, 723.618 13.414, 729.434 14.962, 728.845 15.275, 730.965 25.810, 736.780 28.870, 734.894 29.049, 735.398 39.585, 741.213 43.709, 737.498 43.883, 736.865 54.208, 742.564 57.663, 738.132 58.007, 734.364 58.581, 734.963 69.117, 740.779 71.771, 735.802 71.110, 728.726 73.204, 730.111 83.740, 735.927 85.490, 730.596 82.736, 721.246 83.092, 721.046 92.880, 726.448 97.514, 728.195 98.294, 722.715 93.821, 714.329 96.196, 712.353 104.944, 717.182 109.911, 717.881 109.690, 712.462 103.670, 705.363 107.153, 701.233 115.346, 705.755 120.454, 705.380 119.240, 700.230 111.905, 694.691 115.315, 688.842 123.684, 692.608 128.737, 691.172 126.577, 686.490 118.472, 682.016 120.558, 676.397 129.638, 678.246 134.442, 675.805 131.420, 671.770 122.864, 667.048 123.538, 663.359 132.981, 663.220 137.351, 659.868 133.582, 656.636  z M 61.662, 636.460 62.791, 636.354 63.917, 636.308 65.038, 636.321 66.150, 636.394 67.252, 636.525 68.201, 636.692 68.908, 637.481 69.603, 638.347 70.253, 639.253 70.857, 640.197 71.414, 641.178 71.921, 642.192 72.379, 643.238 72.785, 644.312 73.139, 645.413 73.440, 646.537 73.688, 647.682 73.881, 648.844 74.019, 650.023 74.102, 651.213 74.130, 652.413 74.102, 653.620 74.019, 654.830 73.881, 656.041 73.688, 657.250 73.440, 658.454 73.139, 659.650 72.785, 660.835 72.379, 662.007 71.921, 663.162 71.414, 664.298 70.857, 665.412 70.253, 666.501 69.603, 667.563 68.908, 668.595 68.171, 669.595 67.392, 670.560 66.575, 671.488 65.720, 672.376 64.830, 673.223 63.906, 674.027 62.953, 674.785 61.970, 675.496 60.962, 676.158 59.930, 676.769 58.876, 677.329 57.804, 677.834 56.716, 678.286 55.614, 678.681 54.502, 679.020 53.381, 679.302 52.255, 679.525 51.127, 679.690 49.998, 679.795 48.872, 679.842 47.751, 679.829 46.639, 679.756 45.537, 679.624 44.588, 679.458 43.881, 678.669 43.186, 677.803 42.536, 676.897 41.932, 675.952 41.375, 674.971 40.868, 673.957 40.410, 672.912 40.004, 671.837 39.650, 670.737 39.348, 669.613 39.101, 668.468 38.908, 667.305 38.770, 666.127 38.687, 664.937 38.659, 663.737 38.687, 662.530 38.770, 661.320 38.908, 660.109 39.101, 658.900 39.348, 657.696 39.650, 656.499 40.004, 655.314 40.410, 654.142 40.868, 652.987 41.375, 651.851 41.932, 650.738 42.536, 649.648 43.186, 648.586 43.881, 647.554 44.618, 646.555 45.397, 645.590 46.214, 644.662 47.069, 643.773 47.959, 642.926 48.882, 642.123 49.836, 641.364 50.819, 640.654 51.827, 639.992 52.859, 639.380 53.913, 638.821 54.985, 638.315 56.073, 637.864 57.175, 637.468 58.287, 637.129 59.408, 636.848 60.534, 636.624 61.662, 636.460  z" fill="rgb(204, 0, 0)" fill-opacity="1.0" fill_rule="evenodd" stroke="none" />
        </g>
        <g id="strokes" inkscape:groupmode="layer" inkscape:label="strokes">
            <path d=" M 44.588, 679.458 43.881, 678.669 43.186, 677.803 42.536, 676.897 41.932, 675.952 41.375, 674.971 40.868, 673.957 40.410, 672.912 40.004, 671.837 39.650, 670.737 39.348, 669.613 39.101, 668.468 38.908, 667.305 38.770, 666.127 38.687, 664.937 38.659, 663.737 38.687, 662.530 38.770, 661.320 38.908, 660.109 39.101, 658.900 39.348, 657.696 39.650, 656.499 40.004, 655.314 40.410, 654.142 40.868, 652.987 41.375, 651.851 41.932, 650.738 42.536, 649.648 43.186, 648.586 43.881, 647.554 44.618, 646.555 45.397, 645.590 46.214, 644.662 47.069, 643.773 47.959, 642.926 48.882, 642.123 49.836, 641.364 50.819, 640.654 51.827, 639.992 52.859, 639.380 53.913, 638.821 54.985, 638.315 56.073, 637.864 57.175, 637.468 58.287, 637.129 59.408, 636.848 60.534, 636.624 61.662, 636.460 62.791, 636.354 63.917, 636.308 65.038, 636.321 66.150, 636.394 67.252, 636.525 68.201, 636.692 " fill="none" stroke="rgb(0, 0, 0)" stroke-linecap="round" stroke-linejoin="round" stroke-opacity="1.0" stroke-width="2.0" />
            <path d=" M 62.953, 632.717 61.970, 632.241 60.962, 631.821 59.930, 631.457 58.876, 631.150 57.804, 630.901 56.716, 630.710 55.614, 630.578 54.502, 630.505 53.381, 630.492 52.255, 630.539 51.127, 630.644 49.998, 630.809 48.872, 631.032 47.751, 631.314 46.639, 631.653 45.537, 632.048 44.449, 632.500 43.377, 633.005 42.324, 633.565 41.291, 634.176 40.283, 634.838 39.300, 635.549 38.347, 636.307 37.424, 637.111 36.533, 637.958 35.678, 638.846 34.861, 639.774 34.082, 640.739 33.345, 641.739 32.650, 642.771 32.000, 643.833 31.396, 644.922 30.839, 646.036 30.332, 647.172 29.874, 648.327 29.468, 649.499 29.114, 650.684 28.813, 651.880 28.565, 653.084 28.372, 654.293 28.234, 655.504 28.151, 656.714 28.123, 657.921 28.151, 659.121 28.234, 660.311 28.372, 661.490 28.565, 662.652 28.813, 663.797 29.114, 664.921 29.468, 666.022 29.874, 667.096 30.332, 668.142 30.839, 669.156 31.396, 670.137 32.000, 671.081 32.650, 671.987 33.345, 672.853 34.082, 673.676 34.861, 674.455 35.679, 675.187 36.533, 675.871 37.424, 676.505 38.347, 677.087 39.301, 677.617 40.283, 678.092 41.291, 678.513 42.324, 678.877 43.377, 679.184 44.449, 679.433 44.588, 679.458 45.537, 679.624 46.639, 679.756 47.751, 679.829 48.872, 679.842 49.998, 679.795 51.127, 679.690 52.255, 679.525 53.381, 679.302 54.502, 679.020 55.614, 678.681 56.716, 678.286 57.804, 677.834 58.876, 677.329 59.930, 676.769 60.962, 676.158 61.970, 675.496 62.953, 674.785 63.906, 674.027 64.830, 673.223 65.720, 672.376 66.575, 671.488 67.392, 670.560 68.171, 669.595 68.908, 668.595 69.603, 667.563 70.253, 666.501 70.857, 665.412 71.414, 664.298 71.921, 663.162 72.379, 662.007 72.785, 660.835 73.139, 659.650 73.440, 658.454 73.688, 657.250 73.881, 656.041 74.019, 654.830 74.102, 653.620 74.130, 652.413 74.102, 651.213 74.019, 650.023 73.881, 648.844 73.688, 647.682 73.440, 646.537 73.139, 645.413 72.785, 644.312 72.379, 643.238 71.921, 642.192 71.414, 641.178 70.857, 640.197 70.253, 639.253 69.603, 638.347 68.908, 637.481 68.201, 636.692 68.171, 636.658 67.392, 635.879 66.575, 635.147 65.720, 634.463 64.830, 633.829 63.906, 633.247 62.953, 632.717 " fill="none" stroke="rgb(0, 0, 0)" stroke-linecap="round" stroke-linejoin="round" stroke-opacity="1.0" stroke-width="2.0" />
            <path d=" M 123.047, 650.820 113.603, 650.959 " fill="none" stroke="rgb(0, 0, 0)" stroke-linecap="round" stroke-linejoin="round" stroke-opacity="1.0" stroke-width="2.0" />
            <path d=" M 122.864, 667.048 123.538, 663.359 132.981, 663.220 137.351, 659.868 133.582, 656.636 124.828, 651.803 124.138, 651.423 " fill="none" stroke="rgb(0, 0, 0)" stroke-linecap="round" stroke-linejoin="round" stroke-opacity="1.0" stroke-width="2.0" />
            <path d=" M 113.603, 644.415 122.358, 649.248 124.138, 650.230 " fill="none" stroke="rgb(0, 0, 0)" stroke-linecap="round" stroke-linejoin="round" stroke-opacity="1.0" stroke-width="2.0" />
            <path d=" M 124.138, 651.423 124.138, 650.231 124.138, 650.230 133.582, 648.108 137.351, 643.974 128.596, 639.141 126.815, 638.158 124.110, 636.731 122.445, 635.852 120.230, 636.350 113.002, 637.974 " fill="none" stroke="rgb(0, 0, 0)" stroke-linecap="round" stroke-linejoin="round" stroke-opacity="1.0" stroke-width="2.0" />
            <path d=" M 126.815, 638.158 123.216, 642.107 123.047, 642.293 121.468, 642.648 113.603, 644.415 113.603, 650.959 " fill="none" stroke="rgb(0, 0, 0)" stroke-linecap="round" stroke-linejoin="round" stroke-opacity="1.0" stroke-width="2.0" />
            <path d=" M 123.906, 622.917 120.884, 627.676 119.300, 628.378 116.895, 629.444 111.804, 631.699 " fill="none" stroke="rgb(0, 0, 0)" stroke-linecap="round" stroke-linejoin="round" stroke-opacity="1.0" stroke-width="2.0" />
            <path d=" M 113.002, 637.974 111.804, 631.699 120.230, 636.350 " fill="none" stroke="rgb(0, 0, 0)" stroke-linecap="round" stroke-linejoin="round" stroke-opacity="1.0" stroke-width="2.0" />
            <path d=" M 124.110, 636.731 131.420, 633.491 134.442, 628.733 125.687, 623.901 123.906, 622.917 122.712, 622.596 119.102, 621.627 114.512, 623.661 110.022, 625.650 " fill="none" stroke="rgb(0, 0, 0)" stroke-linecap="round" stroke-linejoin="round" stroke-opacity="1.0" stroke-width="2.0" />
            <path d=" M 118.201, 608.916 118.155, 609.027 116.041, 614.115 112.701, 616.419 110.756, 617.760 107.673, 619.886 " fill="none" stroke="rgb(0, 0, 0)" stroke-linecap="round" stroke-linejoin="round" stroke-opacity="1.0" stroke-width="2.0" />
            <path d=" M 110.022, 625.650 107.673, 619.886 114.512, 623.661 " fill="none" stroke="rgb(0, 0, 0)" stroke-linecap="round" stroke-linejoin="round" stroke-opacity="1.0" stroke-width="2.0" />
            <path d=" M 122.712, 622.596 126.577, 619.931 128.737, 614.732 119.982, 609.899 118.243, 608.939 118.201, 608.916 113.148, 608.690 107.317, 612.711 104.779, 614.461 " fill="none" stroke="rgb(0, 0, 0)" stroke-linecap="round" stroke-linejoin="round" stroke-opacity="1.0" stroke-width="2.0" />
            <path d=" M 101.369, 609.428 107.317, 612.711 " fill="none" stroke="rgb(0, 0, 0)" stroke-linecap="round" stroke-linejoin="round" stroke-opacity="1.0" stroke-width="2.0" />
            <path d=" M 109.918, 596.692 109.704, 597.651 109.595, 598.137 108.704, 602.132 103.977, 606.834 102.948, 607.857 101.369, 609.428 104.779, 614.461 " fill="none" stroke="rgb(0, 0, 0)" stroke-linecap="round" stroke-linejoin="round" stroke-opacity="1.0" stroke-width="2.0" />
            <path d=" M 118.243, 608.939 119.240, 607.948 120.454, 602.508 111.699, 597.675 109.918, 596.692 109.741, 596.722 104.810, 597.540 98.581, 603.735 97.475, 604.836 " fill="none" stroke="rgb(0, 0, 0)" stroke-linecap="round" stroke-linejoin="round" stroke-opacity="1.0" stroke-width="2.0" />
            <path d=" M 93.134, 600.728 98.581, 603.735 " fill="none" stroke="rgb(0, 0, 0)" stroke-linecap="round" stroke-linejoin="round" stroke-opacity="1.0" stroke-width="2.0" />
            <path d=" M 99.375, 586.716 99.154, 592.188 94.082, 599.383 93.623, 600.034 93.134, 600.728 97.475, 604.836 " fill="none" stroke="rgb(0, 0, 0)" stroke-linecap="round" stroke-linejoin="round" stroke-opacity="1.0" stroke-width="2.0" />
            <path d=" M 109.741, 596.722 109.911, 592.531 101.156, 587.699 99.375, 586.716 97.826, 587.305 94.409, 588.604 88.953, 596.344 88.494, 596.995 88.389, 597.144 " fill="none" stroke="rgb(0, 0, 0)" stroke-linecap="round" stroke-linejoin="round" stroke-opacity="1.0" stroke-width="2.0" />
            <path d=" M 83.285, 594.120 88.494, 596.995 " fill="none" stroke="rgb(0, 0, 0)" stroke-linecap="round" stroke-linejoin="round" stroke-opacity="1.0" stroke-width="2.0" />
            <path d=" M 86.979, 579.369 87.758, 584.663 83.482, 593.703 83.285, 594.120 88.389, 597.144 " fill="none" stroke="rgb(0, 0, 0)" stroke-linecap="round" stroke-linejoin="round" stroke-opacity="1.0" stroke-width="2.0" />
            <path d=" M 97.826, 587.305 97.514, 585.185 88.760, 580.353 86.979, 579.369 83.919, 581.255 82.344, 582.226 78.068, 591.266 77.871, 591.683 77.650, 591.612 72.200, 589.858 " fill="none" stroke="rgb(0, 0, 0)" stroke-linecap="round" stroke-linejoin="round" stroke-opacity="1.0" stroke-width="2.0" />
            <path d=" M 73.204, 574.936 74.954, 579.848 72.301, 589.490 72.200, 589.858 " fill="none" stroke="rgb(0, 0, 0)" stroke-linecap="round" stroke-linejoin="round" stroke-opacity="1.0" stroke-width="2.0" />
            <path d=" M 83.919, 581.255 83.740, 580.752 74.985, 575.919 73.204, 574.936 69.080, 578.651 68.906, 579.285 68.741, 579.884 66.325, 588.661 65.230, 588.560 60.305, 588.106 " fill="none" stroke="rgb(0, 0, 0)" stroke-linecap="round" stroke-linejoin="round" stroke-opacity="1.0" stroke-width="2.0" />
            <path d=" M 58.581, 573.586 61.235, 577.927 60.325, 587.886 60.305, 588.106 " fill="none" stroke="rgb(0, 0, 0)" stroke-linecap="round" stroke-linejoin="round" stroke-opacity="1.0" stroke-width="2.0" />
            <path d=" M 68.906, 579.285 60.151, 574.452 58.581, 573.586 55.126, 578.017 54.782, 581.785 54.196, 588.195 51.771, 588.486 48.057, 588.930 " fill="none" stroke="rgb(0, 0, 0)" stroke-linecap="round" stroke-linejoin="round" stroke-opacity="1.0" stroke-width="2.0" />
            <path d=" M 43.672, 575.371 47.127, 578.975 48.057, 588.930 " fill="none" stroke="rgb(0, 0, 0)" stroke-linecap="round" stroke-linejoin="round" stroke-opacity="1.0" stroke-width="2.0" />
            <path d=" M 54.782, 581.785 54.208, 581.187 45.453, 576.354 43.672, 575.371 41.018, 580.348 41.679, 587.423 41.948, 590.303 37.915, 591.641 35.928, 592.301 " fill="none" stroke="rgb(0, 0, 0)" stroke-linecap="round" stroke-linejoin="round" stroke-opacity="1.0" stroke-width="2.0" />
            <path d=" M 29.049, 580.223 33.173, 582.950 35.928, 592.301 " fill="none" stroke="rgb(0, 0, 0)" stroke-linecap="round" stroke-linejoin="round" stroke-opacity="1.0" stroke-width="2.0" />
            <path d=" M 41.679, 587.423 39.585, 586.038 30.830, 581.206 29.049, 580.223 27.299, 585.553 30.053, 594.904 29.697, 595.104 29.557, 595.182 25.267, 597.590 24.382, 598.087 " fill="none" stroke="rgb(0, 0, 0)" stroke-linecap="round" stroke-linejoin="round" stroke-opacity="1.0" stroke-width="2.0" />
            <path d=" M 13.864, 606.067 15.837, 604.425 16.593, 603.797 18.968, 601.820 14.495, 593.434 15.275, 587.954 19.909, 589.701 24.382, 598.087 " fill="none" stroke="rgb(0, 0, 0)" stroke-linecap="round" stroke-linejoin="round" stroke-opacity="1.0" stroke-width="2.0" />
            <path d=" M 4.778, 615.934 5.636, 614.917 9.119, 610.786 3.099, 603.688 2.878, 598.269 7.845, 598.968 13.864, 606.067 " fill="none" stroke="rgb(0, 0, 0)" stroke-linecap="round" stroke-linejoin="round" stroke-opacity="1.0" stroke-width="2.0" />
            <path d=" M -2.557, 610.394 4.778, 615.934 " fill="none" stroke="rgb(0, 0, 0)" stroke-linecap="round" stroke-linejoin="round" stroke-opacity="1.0" stroke-width="2.0" />
            <path d=" M -6.451, 615.919 0.884, 621.458 -2.526, 627.308 " fill="none" stroke="rgb(0, 0, 0)" stroke-linecap="round" stroke-linejoin="round" stroke-opacity="1.0" stroke-width="2.0" />
            <path d=" M -2.526, 695.873 0.088, 699.731 0.884, 700.906 -5.366, 707.122 " fill="none" stroke="rgb(0, 0, 0)" stroke-linecap="round" stroke-linejoin="round" stroke-opacity="1.0" stroke-width="2.0" />
            <path d=" M 14.962, 728.845 13.414, 729.434 4.659, 724.601 2.878, 723.618 3.047, 719.428 3.085, 718.499 3.099, 718.146 3.193, 718.013 8.955, 709.839 9.119, 709.606 8.812, 709.316 4.778, 705.498 -2.312, 712.550 -2.557, 712.794 " fill="none" stroke="rgb(0, 0, 0)" stroke-linecap="round" stroke-linejoin="round" stroke-opacity="1.0" stroke-width="2.0" />
            <path d=" M -7.665, 713.642 1.090, 718.474 2.871, 719.457 3.047, 719.428 " fill="none" stroke="rgb(0, 0, 0)" stroke-linecap="round" stroke-linejoin="round" stroke-opacity="1.0" stroke-width="2.0" />
            <path d=" M 28.870, 734.894 25.810, 736.780 17.056, 731.948 15.275, 730.965 14.962, 728.845 14.495, 725.671 18.707, 716.767 18.968, 716.214 13.864, 713.190 8.103, 721.363 7.845, 721.730 2.878, 723.618 " fill="none" stroke="rgb(0, 0, 0)" stroke-linecap="round" stroke-linejoin="round" stroke-opacity="1.0" stroke-width="2.0" />
            <path d=" M 24.382, 718.651 24.253, 718.924 23.836, 719.806 19.909, 728.108 15.275, 730.965 " fill="none" stroke="rgb(0, 0, 0)" stroke-linecap="round" stroke-linejoin="round" stroke-opacity="1.0" stroke-width="2.0" />
            <path d=" M 30.053, 720.476 29.742, 721.609 27.299, 730.486 28.870, 734.894 29.049, 735.398 37.804, 740.230 39.585, 741.213 43.709, 737.498 43.883, 736.865 " fill="none" stroke="rgb(0, 0, 0)" stroke-linecap="round" stroke-linejoin="round" stroke-opacity="1.0" stroke-width="2.0" />
            <path d=" M 30.053, 720.476 24.382, 718.651 29.742, 721.609 " fill="none" stroke="rgb(0, 0, 0)" stroke-linecap="round" stroke-linejoin="round" stroke-opacity="1.0" stroke-width="2.0" />
            <path d=" M 35.928, 721.673 35.439, 723.449 35.139, 724.538 33.173, 731.682 29.049, 735.398 " fill="none" stroke="rgb(0, 0, 0)" stroke-linecap="round" stroke-linejoin="round" stroke-opacity="1.0" stroke-width="2.0" />
            <path d=" M 41.948, 722.228 41.707, 724.863 41.018, 732.407 43.672, 736.748 43.883, 736.865 52.638, 741.697 54.208, 742.564 57.663, 738.132 58.007, 734.364 " fill="none" stroke="rgb(0, 0, 0)" stroke-linecap="round" stroke-linejoin="round" stroke-opacity="1.0" stroke-width="2.0" />
            <path d=" M 41.948, 722.228 35.928, 721.673 41.707, 724.863 " fill="none" stroke="rgb(0, 0, 0)" stroke-linecap="round" stroke-linejoin="round" stroke-opacity="1.0" stroke-width="2.0" />
            <path d=" M 48.057, 722.138 47.756, 725.434 47.559, 727.589 47.127, 732.317 44.048, 736.265 43.672, 736.748 43.672, 736.748 " fill="none" stroke="rgb(0, 0, 0)" stroke-linecap="round" stroke-linejoin="round" stroke-opacity="1.0" stroke-width="2.0" />
            <path d=" M 54.196, 721.404 54.602, 725.751 55.126, 731.359 58.007, 734.364 58.581, 734.963 67.336, 739.795 69.117, 740.779 71.771, 735.802 71.110, 728.726 " fill="none" stroke="rgb(0, 0, 0)" stroke-linecap="round" stroke-linejoin="round" stroke-opacity="1.0" stroke-width="2.0" />
            <path d=" M 54.196, 721.404 48.057, 722.138 54.602, 725.751 " fill="none" stroke="rgb(0, 0, 0)" stroke-linecap="round" stroke-linejoin="round" stroke-opacity="1.0" stroke-width="2.0" />
            <path d=" M 60.305, 720.031 60.772, 725.034 61.018, 727.664 61.235, 729.986 58.581, 734.963 " fill="none" stroke="rgb(0, 0, 0)" stroke-linecap="round" stroke-linejoin="round" stroke-opacity="1.0" stroke-width="2.0" />
            <path d=" M 66.325, 718.033 68.197, 724.387 69.080, 727.384 71.110, 728.726 73.204, 730.111 81.959, 734.944 83.740, 735.927 85.490, 730.596 82.736, 721.246 83.092, 721.046 " fill="none" stroke="rgb(0, 0, 0)" stroke-linecap="round" stroke-linejoin="round" stroke-opacity="1.0" stroke-width="2.0" />
            <path d=" M 66.325, 718.033 60.305, 720.031 68.197, 724.387 " fill="none" stroke="rgb(0, 0, 0)" stroke-linecap="round" stroke-linejoin="round" stroke-opacity="1.0" stroke-width="2.0" />
            <path d=" M 82.736, 721.246 73.981, 716.413 72.200, 715.430 " fill="none" stroke="rgb(0, 0, 0)" stroke-linecap="round" stroke-linejoin="round" stroke-opacity="1.0" stroke-width="2.0" />
            <path d=" M 82.344, 720.633 77.871, 712.247 72.200, 715.430 74.256, 722.411 74.874, 724.508 74.954, 724.781 73.204, 730.111 " fill="none" stroke="rgb(0, 0, 0)" stroke-linecap="round" stroke-linejoin="round" stroke-opacity="1.0" stroke-width="2.0" />
            <path d=" M 83.092, 721.046 91.847, 725.878 92.880, 726.448 97.514, 728.195 98.294, 722.715 93.821, 714.329 96.196, 712.353 " fill="none" stroke="rgb(0, 0, 0)" stroke-linecap="round" stroke-linejoin="round" stroke-opacity="1.0" stroke-width="2.0" />
            <path d=" M 93.821, 714.329 85.066, 709.497 83.285, 708.514 " fill="none" stroke="rgb(0, 0, 0)" stroke-linecap="round" stroke-linejoin="round" stroke-opacity="1.0" stroke-width="2.0" />
            <path d=" M 94.409, 711.366 88.389, 704.267 83.285, 708.514 87.758, 716.900 87.652, 717.646 87.522, 718.559 86.979, 722.380 " fill="none" stroke="rgb(0, 0, 0)" stroke-linecap="round" stroke-linejoin="round" stroke-opacity="1.0" stroke-width="2.0" />
            <path d=" M 82.344, 720.633 83.232, 720.967 86.979, 722.380 95.733, 727.212 97.514, 728.195 " fill="none" stroke="rgb(0, 0, 0)" stroke-linecap="round" stroke-linejoin="round" stroke-opacity="1.0" stroke-width="2.0" />
            <path d=" M 96.196, 712.353 104.944, 717.182 109.911, 717.881 109.690, 712.462 103.670, 705.363 107.153, 701.233 " fill="none" stroke="rgb(0, 0, 0)" stroke-linecap="round" stroke-linejoin="round" stroke-opacity="1.0" stroke-width="2.0" />
            <path d=" M 103.670, 705.363 94.915, 700.531 93.134, 699.548 " fill="none" stroke="rgb(0, 0, 0)" stroke-linecap="round" stroke-linejoin="round" stroke-opacity="1.0" stroke-width="2.0" />
            <path d=" M 104.810, 699.940 97.475, 694.400 93.134, 699.548 99.154, 706.646 99.375, 712.065 " fill="none" stroke="rgb(0, 0, 0)" stroke-linecap="round" stroke-linejoin="round" stroke-opacity="1.0" stroke-width="2.0" />
            <path d=" M 94.409, 711.366 96.952, 711.724 99.375, 712.065 108.130, 716.898 109.911, 717.881 " fill="none" stroke="rgb(0, 0, 0)" stroke-linecap="round" stroke-linejoin="round" stroke-opacity="1.0" stroke-width="2.0" />
            <path d=" M 107.153, 701.233 115.346, 705.755 120.454, 705.380 119.240, 700.230 111.905, 694.691 115.315, 688.842 123.684, 692.608 128.737, 691.172 126.577, 686.490 118.472, 682.016 " fill="none" stroke="rgb(0, 0, 0)" stroke-linecap="round" stroke-linejoin="round" stroke-opacity="1.0" stroke-width="2.0" />
            <path d=" M 111.905, 694.691 103.150, 689.859 101.369, 688.876 " fill="none" stroke="rgb(0, 0, 0)" stroke-linecap="round" stroke-linejoin="round" stroke-opacity="1.0" stroke-width="2.0" />
            <path d=" M 104.779, 683.026 101.369, 688.876 108.704, 694.415 109.918, 699.564 " fill="none" stroke="rgb(0, 0, 0)" stroke-linecap="round" stroke-linejoin="round" stroke-opacity="1.0" stroke-width="2.0" />
            <path d=" M 118.201, 685.357 113.148, 686.793 104.779, 683.026 113.534, 687.859 115.315, 688.842 " fill="none" stroke="rgb(0, 0, 0)" stroke-linecap="round" stroke-linejoin="round" stroke-opacity="1.0" stroke-width="2.0" />
            <path d=" M 104.810, 699.940 107.192, 699.764 109.918, 699.564 118.673, 704.397 120.454, 705.380 " fill="none" stroke="rgb(0, 0, 0)" stroke-linecap="round" stroke-linejoin="round" stroke-opacity="1.0" stroke-width="2.0" />
            <path d=" M 116.041, 680.675 107.673, 676.908 " fill="none" stroke="rgb(0, 0, 0)" stroke-linecap="round" stroke-linejoin="round" stroke-opacity="1.0" stroke-width="2.0" />
            <path d=" M 123.906, 669.989 119.102, 672.430 110.022, 670.581 " fill="none" stroke="rgb(0, 0, 0)" stroke-linecap="round" stroke-linejoin="round" stroke-opacity="1.0" stroke-width="2.0" />
            <path d=" M 107.673, 676.908 110.022, 670.581 118.777, 675.413 120.558, 676.397 " fill="none" stroke="rgb(0, 0, 0)" stroke-linecap="round" stroke-linejoin="round" stroke-opacity="1.0" stroke-width="2.0" />
            <path d=" M 118.472, 682.016 120.558, 676.397 129.638, 678.246 134.442, 675.805 131.420, 671.770 122.864, 667.048 " fill="none" stroke="rgb(0, 0, 0)" stroke-linecap="round" stroke-linejoin="round" stroke-opacity="1.0" stroke-width="2.0" />
            <path d=" M 116.041, 680.675 116.569, 681.819 118.201, 685.357 126.956, 690.189 128.737, 691.172 " fill="none" stroke="rgb(0, 0, 0)" stroke-linecap="round" stroke-linejoin="round" stroke-opacity="1.0" stroke-width="2.0" />
            <path d=" M 120.884, 665.955 111.804, 664.105 " fill="none" stroke="rgb(0, 0, 0)" stroke-linecap="round" stroke-linejoin="round" stroke-opacity="1.0" stroke-width="2.0" />
            <path d=" M 126.815, 654.052 124.139, 656.105 123.632, 656.494 122.445, 657.405 113.002, 657.544 " fill="none" stroke="rgb(0, 0, 0)" stroke-linecap="round" stroke-linejoin="round" stroke-opacity="1.0" stroke-width="2.0" />
            <path d=" M 111.804, 664.105 113.002, 657.544 121.757, 662.376 123.538, 663.359 " fill="none" stroke="rgb(0, 0, 0)" stroke-linecap="round" stroke-linejoin="round" stroke-opacity="1.0" stroke-width="2.0" />
            <path d=" M 120.884, 665.955 122.637, 668.294 123.906, 669.989 132.661, 674.822 134.442, 675.805 " fill="none" stroke="rgb(0, 0, 0)" stroke-linecap="round" stroke-linejoin="round" stroke-opacity="1.0" stroke-width="2.0" />
            <path d=" M 137.351, 659.868 128.596, 655.035 126.815, 654.052 124.138, 651.756 123.047, 650.820 " fill="none" stroke="rgb(0, 0, 0)" stroke-linecap="round" stroke-linejoin="round" stroke-opacity="1.0" stroke-width="2.0" />
            <path d=" M 5.636, 614.917 -2.557, 610.394 " fill="none" stroke="rgb(0, 0, 0)" stroke-linecap="round" stroke-linejoin="round" stroke-opacity="1.0" stroke-width="2.0" />
            <path d=" M 16.593, 603.797 7.845, 598.968 " fill="none" stroke="rgb(0, 0, 0)" stroke-linecap="round" stroke-linejoin="round" stroke-opacity="1.0" stroke-width="2.0" />
            <path d=" M 29.697, 595.104 20.942, 590.271 19.909, 589.701 " fill="none" stroke="rgb(0, 0, 0)" stroke-linecap="round" stroke-linejoin="round" stroke-opacity="1.0" stroke-width="2.0" />
        </g>
    </g>
</svg>
