<?xml version='1.0' encoding='ascii'?>
<svg xmlns="http://www.w3.org/2000/svg" xmlns:inkscape="http://www.inkscape.org/namespaces/inkscape" height="1123" version="1.1" width="794">
    <g id="View Layer_LineSet" inkscape:groupmode="lineset" inkscape:label="View Layer_LineSet">
        <g id="fills" inkscape:groupmode="layer" inkscape:label="fills" xmlns:inkscape="http://www.inkscape.org/namespaces/inkscape">
            <path d=" M 197.104, 843.422 186.568, 837.606 186.309, 837.481 181.586, 840.204 176.421, 849.390 175.772, 849.151 177.991, 840.831 176.437, 835.830 165.901, 830.014 163.410, 829.435 159.114, 828.682 155.158, 832.639 152.467, 842.733 150.317, 842.661 150.317, 837.938 147.451, 833.766 136.916, 827.950 133.373, 828.281 129.831, 828.798 126.965, 833.657 126.965, 843.842 122.519, 845.056 122.124, 843.671 118.169, 840.661 107.633, 834.846 103.337, 836.627 100.846, 837.803 99.291, 843.177 101.983, 852.626 94.726, 857.028 85.160, 851.748 80.437, 850.156 80.178, 850.344 75.888, 853.754 74.499, 854.962 74.379, 860.426 79.544, 868.375 70.998, 877.291 62.638, 872.677 57.556, 872.636 56.706, 873.690 53.389, 878.186 52.917, 878.887 54.245, 884.007 61.465, 889.812 54.536, 902.135 45.846, 898.945 40.808, 900.450 39.836, 902.625 37.845, 907.651 40.522, 912.010 48.839, 916.601 45.602, 928.742 36.146, 928.425 31.549, 931.354 31.021, 934.657 30.532, 938.949 34.322, 942.167 43.778, 947.386 43.778, 956.146 34.322, 958.728 30.532, 962.853 31.021, 967.028 31.549, 970.204 42.085, 976.020 46.682, 977.849 47.899, 977.516 49.212, 982.128 40.522, 987.400 37.845, 992.400 39.836, 996.950 40.808, 998.891 51.344, 1004.707 56.382, 1005.006 60.225, 1002.675 61.465, 1004.583 54.245, 1012.117 52.917, 1017.555 53.389, 1018.143 56.706, 1021.845 57.556, 1022.695 68.092, 1028.511 73.174, 1027.253 78.956, 1021.219 79.544, 1021.691 74.379, 1030.877 74.499, 1036.312 75.888, 1037.188 80.178, 1039.571 90.714, 1045.386 90.973, 1045.511 95.696, 1042.788 100.861, 1033.603 101.510, 1033.841 99.291, 1042.161 100.846, 1047.162 111.382, 1052.978 113.873, 1053.557 118.169, 1054.310 122.124, 1050.353 124.816, 1040.259 126.965, 1040.332 126.965, 1045.054 129.831, 1049.227 140.367, 1055.042 143.909, 1054.711 147.452, 1054.194 150.317, 1049.335 150.317, 1039.151 154.764, 1037.937 155.158, 1039.321 159.114, 1042.331 169.649, 1048.147 173.945, 1046.365 176.437, 1045.189 177.991, 1039.816 175.299, 1030.366 182.557, 1025.964 192.122, 1031.244 196.845, 1032.836 197.104, 1032.648 201.395, 1029.238 202.783, 1028.030 202.904, 1022.567 197.739, 1014.617 206.284, 1005.701 214.644, 1010.316 219.727, 1010.356 220.577, 1009.302 223.894, 1004.806 224.365, 1004.105 223.037, 998.985 215.817, 993.180 222.746, 980.857 231.436, 984.047 236.475, 982.542 237.446, 980.368 239.437, 975.342 236.760, 970.982 228.443, 966.391 231.681, 954.250 241.137, 954.568 245.734, 951.638 246.261, 948.335 246.751, 944.043 242.961, 940.826 233.505, 935.606 233.505, 928.985 233.505, 926.846 242.961, 924.264 246.751, 920.139 246.261, 915.964 245.734, 912.788 235.198, 906.972 230.601, 905.144 229.384, 905.476 228.070, 900.864 236.760, 895.593 239.437, 890.592 237.446, 886.043 236.475, 884.101 225.939, 878.285 220.900, 877.987 217.057, 880.318 215.817, 878.409 223.037, 870.875 224.365, 865.437 223.894, 864.850 220.577, 861.147 219.726, 860.297 209.191, 854.482 204.108, 855.739 198.326, 861.773 197.739, 861.301 202.904, 852.115 202.783, 846.681 201.395, 845.805 197.104, 843.422  z M 143.909, 921.559 144.961, 921.461 146.009, 921.418 147.053, 921.430 148.090, 921.498 149.116, 921.621 149.568, 921.700 149.938, 922.113 150.585, 922.919 151.191, 923.763 151.753, 924.643 152.272, 925.557 152.745, 926.502 153.171, 927.476 153.549, 928.477 153.879, 929.502 154.160, 930.549 154.390, 931.615 154.570, 932.699 154.699, 933.796 154.776, 934.905 154.802, 936.023 154.776, 937.147 154.699, 938.274 154.570, 939.402 154.390, 940.529 154.160, 941.650 153.879, 942.765 153.549, 943.869 153.171, 944.960 152.745, 946.036 152.272, 947.094 151.753, 948.132 151.191, 949.147 150.585, 950.136 149.938, 951.097 149.251, 952.029 148.526, 952.928 147.764, 953.792 146.968, 954.620 146.138, 955.409 145.278, 956.157 144.390, 956.864 143.475, 957.526 142.535, 958.142 141.574, 958.712 140.592, 959.233 139.594, 959.704 138.580, 960.125 137.554, 960.493 136.518, 960.809 135.474, 961.071 134.425, 961.279 133.373, 961.433 132.322, 961.531 131.273, 961.574 130.229, 961.562 129.193, 961.494 128.166, 961.372 127.714, 961.292 127.344, 960.879 126.697, 960.073 126.092, 959.229 125.529, 958.349 125.011, 957.435 124.538, 956.490 124.111, 955.516 123.733, 954.516 123.403, 953.490 123.122, 952.443 122.892, 951.377 122.712, 950.294 122.583, 949.196 122.506, 948.087 122.480, 946.969 122.506, 945.845 122.583, 944.718 122.712, 943.590 122.892, 942.463 123.122, 941.342 123.403, 940.228 123.733, 939.123 124.111, 938.032 124.538, 936.956 125.011, 935.898 125.529, 934.860 126.092, 933.845 126.697, 932.856 127.344, 931.895 128.031, 930.963 128.757, 930.065 129.518, 929.200 130.315, 928.372 131.144, 927.583 132.004, 926.835 132.893, 926.129 133.808, 925.466 134.747, 924.850 135.709, 924.280 136.690, 923.759 137.689, 923.288 138.702, 922.867 139.729, 922.499 140.765, 922.183 141.809, 921.921 142.858, 921.713 143.909, 921.559  z" fill="rgb(204, 0, 0)" fill-opacity="1.0" fill_rule="evenodd" stroke="none" />
        </g>
        <g id="strokes" inkscape:groupmode="layer" inkscape:label="strokes">
            <path d=" M 198.326, 861.773 197.739, 861.301 202.640, 852.584 202.904, 852.115 202.783, 846.681 201.395, 845.805 197.104, 843.422 188.349, 838.589 186.568, 837.606 186.309, 837.481 181.586, 840.204 176.685, 848.920 176.421, 849.390 175.772, 849.151 166.385, 845.705 164.764, 845.110 " fill="none" stroke="rgb(0, 0, 0)" stroke-linecap="round" stroke-linejoin="round" stroke-opacity="1.0" stroke-width="2.0" />
            <path d=" M 186.568, 837.606 190.859, 839.989 192.247, 840.865 " fill="none" stroke="rgb(0, 0, 0)" stroke-linecap="round" stroke-linejoin="round" stroke-opacity="1.0" stroke-width="2.0" />
            <path d=" M 209.191, 854.482 210.041, 855.332 213.358, 859.034 213.829, 859.622 " fill="none" stroke="rgb(0, 0, 0)" stroke-linecap="round" stroke-linejoin="round" stroke-opacity="1.0" stroke-width="2.0" />
            <path d=" M 217.057, 880.318 215.817, 878.409 222.736, 871.189 223.037, 870.875 224.365, 865.437 223.894, 864.850 220.577, 861.147 219.726, 860.297 210.972, 855.465 209.191, 854.482 204.108, 855.739 198.326, 861.773 196.889, 863.273 " fill="none" stroke="rgb(0, 0, 0)" stroke-linecap="round" stroke-linejoin="round" stroke-opacity="1.0" stroke-width="2.0" />
            <path d=" M 213.829, 998.290 213.358, 998.990 210.041, 1003.487 209.191, 1004.541 " fill="none" stroke="rgb(0, 0, 0)" stroke-linecap="round" stroke-linejoin="round" stroke-opacity="1.0" stroke-width="2.0" />
            <path d=" M 206.284, 1005.701 214.644, 1010.316 219.727, 1010.356 220.577, 1009.302 223.894, 1004.806 224.365, 1004.105 223.037, 998.985 215.817, 993.180 220.718, 984.464 222.746, 980.857 231.436, 984.047 236.475, 982.542 237.446, 980.368 239.437, 975.342 236.760, 970.982 228.443, 966.391 " fill="none" stroke="rgb(0, 0, 0)" stroke-linecap="round" stroke-linejoin="round" stroke-opacity="1.0" stroke-width="2.0" />
            <path d=" M 192.247, 1022.214 190.859, 1023.423 186.568, 1026.833 186.309, 1027.020 " fill="none" stroke="rgb(0, 0, 0)" stroke-linecap="round" stroke-linejoin="round" stroke-opacity="1.0" stroke-width="2.0" />
            <path d=" M 182.557, 1025.964 191.312, 1030.796 192.122, 1031.244 196.845, 1032.836 197.104, 1032.648 201.395, 1029.238 202.783, 1028.030 202.904, 1022.567 197.739, 1014.617 204.658, 1007.397 206.284, 1005.701 " fill="none" stroke="rgb(0, 0, 0)" stroke-linecap="round" stroke-linejoin="round" stroke-opacity="1.0" stroke-width="2.0" />
            <path d=" M 69.858, 1013.904 77.651, 1020.170 78.956, 1021.219 79.544, 1021.691 74.643, 1030.408 74.379, 1030.877 74.499, 1036.312 75.888, 1037.188 80.178, 1039.571 88.933, 1044.403 90.714, 1045.386 90.973, 1045.511 95.696, 1042.788 100.597, 1034.072 100.861, 1033.603 101.510, 1033.841 " fill="none" stroke="rgb(0, 0, 0)" stroke-linecap="round" stroke-linejoin="round" stroke-opacity="1.0" stroke-width="2.0" />
            <path d=" M 54.536, 993.919 59.985, 1002.304 60.225, 1002.675 61.465, 1004.583 54.546, 1011.803 54.245, 1012.117 52.917, 1017.555 53.389, 1018.143 56.706, 1021.845 57.556, 1022.695 66.311, 1027.527 68.092, 1028.511 73.174, 1027.253 78.956, 1021.219 " fill="none" stroke="rgb(0, 0, 0)" stroke-linecap="round" stroke-linejoin="round" stroke-opacity="1.0" stroke-width="2.0" />
            <path d=" M 70.998, 877.291 62.638, 872.677 57.556, 872.636 56.706, 873.690 53.389, 878.186 52.917, 878.887 54.245, 884.007 61.465, 889.812 56.564, 898.529 54.536, 902.135 45.846, 898.945 40.808, 900.450 39.836, 902.625 37.845, 907.651 40.522, 912.010 48.839, 916.601 " fill="none" stroke="rgb(0, 0, 0)" stroke-linecap="round" stroke-linejoin="round" stroke-opacity="1.0" stroke-width="2.0" />
            <path d=" M 94.726, 857.028 85.971, 852.196 85.160, 851.748 80.437, 850.156 80.178, 850.344 75.888, 853.754 74.499, 854.962 74.379, 860.426 79.544, 868.375 72.624, 875.595 70.998, 877.291 69.873, 878.466 69.858, 878.482 " fill="none" stroke="rgb(0, 0, 0)" stroke-linecap="round" stroke-linejoin="round" stroke-opacity="1.0" stroke-width="2.0" />
            <path d=" M 127.714, 961.292 127.344, 960.879 126.697, 960.073 126.092, 959.229 125.529, 958.349 125.011, 957.435 124.538, 956.490 124.111, 955.516 123.733, 954.516 123.403, 953.490 123.122, 952.443 122.892, 951.377 122.712, 950.294 122.583, 949.196 122.506, 948.087 122.480, 946.969 122.506, 945.845 122.583, 944.718 122.712, 943.590 122.892, 942.463 123.122, 941.342 123.403, 940.228 123.733, 939.123 124.111, 938.032 124.538, 936.956 125.011, 935.898 125.529, 934.860 126.092, 933.845 126.697, 932.856 127.344, 931.895 128.031, 930.963 128.757, 930.065 129.518, 929.200 130.315, 928.372 131.144, 927.583 132.004, 926.835 132.893, 926.129 133.808, 925.466 134.747, 924.850 135.709, 924.280 136.690, 923.759 137.689, 923.288 138.702, 922.867 139.729, 922.499 140.765, 922.183 141.809, 921.921 142.858, 921.713 143.909, 921.559 144.961, 921.461 146.009, 921.418 147.053, 921.430 148.090, 921.498 149.116, 921.621 149.568, 921.700 " fill="none" stroke="rgb(0, 0, 0)" stroke-linecap="round" stroke-linejoin="round" stroke-opacity="1.0" stroke-width="2.0" />
            <path d=" M 144.390, 917.675 143.475, 917.232 142.535, 916.840 141.574, 916.501 140.592, 916.215 139.594, 915.983 138.580, 915.805 137.554, 915.682 136.518, 915.615 135.474, 915.602 134.425, 915.646 133.373, 915.744 132.322, 915.897 131.273, 916.105 130.229, 916.368 129.193, 916.683 128.166, 917.052 127.153, 917.472 126.154, 917.944 125.173, 918.465 124.211, 919.034 123.272, 919.651 122.357, 920.313 121.468, 921.019 120.608, 921.768 119.779, 922.557 118.983, 923.385 118.221, 924.249 117.496, 925.148 116.809, 926.079 116.161, 927.041 115.556, 928.030 114.993, 929.044 114.475, 930.082 114.002, 931.140 113.576, 932.216 113.197, 933.308 112.867, 934.412 112.587, 935.526 112.356, 936.648 112.176, 937.774 112.048, 938.902 111.970, 940.030 111.944, 941.154 111.970, 942.272 112.048, 943.381 112.176, 944.478 112.356, 945.561 112.587, 946.628 112.867, 947.675 113.197, 948.700 113.576, 949.701 114.002, 950.675 114.475, 951.620 114.993, 952.533 115.556, 953.413 116.161, 954.257 116.809, 955.064 117.496, 955.831 118.221, 956.556 118.983, 957.238 119.779, 957.875 120.608, 958.465 121.468, 959.008 122.357, 959.502 123.272, 959.945 124.211, 960.336 125.173, 960.676 126.154, 960.962 127.153, 961.194 127.714, 961.292 128.166, 961.372 129.193, 961.494 130.229, 961.562 131.273, 961.574 132.322, 961.531 133.373, 961.433 134.425, 961.279 135.474, 961.071 136.518, 960.809 137.554, 960.493 138.580, 960.125 139.594, 959.704 140.592, 959.233 141.574, 958.712 142.535, 958.142 143.475, 957.526 144.390, 956.864 145.278, 956.157 146.138, 955.409 146.968, 954.620 147.764, 953.792 148.526, 952.928 149.251, 952.029 149.938, 951.097 150.585, 950.136 151.191, 949.147 151.753, 948.132 152.272, 947.094 152.745, 946.036 153.171, 944.960 153.549, 943.869 153.879, 942.765 154.160, 941.650 154.390, 940.529 154.570, 939.402 154.699, 938.274 154.776, 937.147 154.802, 936.023 154.776, 934.905 154.699, 933.796 154.570, 932.699 154.390, 931.615 154.160, 930.549 153.879, 929.502 153.549, 928.477 153.171, 927.476 152.745, 926.502 152.272, 925.557 151.753, 924.643 151.191, 923.763 150.585, 922.919 149.938, 922.113 149.568, 921.700 149.251, 921.346 148.526, 920.621 147.764, 919.939 146.968, 919.302 146.138, 918.711 145.278, 918.169 144.390, 917.675 " fill="none" stroke="rgb(0, 0, 0)" stroke-linecap="round" stroke-linejoin="round" stroke-opacity="1.0" stroke-width="2.0" />
            <path d=" M 232.425, 935.010 222.969, 934.693 " fill="none" stroke="rgb(0, 0, 0)" stroke-linecap="round" stroke-linejoin="round" stroke-opacity="1.0" stroke-width="2.0" />
            <path d=" M 228.443, 966.391 231.020, 956.729 231.681, 954.250 241.137, 954.568 245.734, 951.638 246.261, 948.335 246.751, 944.043 242.961, 940.826 234.206, 935.993 233.505, 935.606 " fill="none" stroke="rgb(0, 0, 0)" stroke-linecap="round" stroke-linejoin="round" stroke-opacity="1.0" stroke-width="2.0" />
            <path d=" M 236.215, 914.324 232.425, 918.449 222.969, 921.030 " fill="none" stroke="rgb(0, 0, 0)" stroke-linecap="round" stroke-linejoin="round" stroke-opacity="1.0" stroke-width="2.0" />
            <path d=" M 222.969, 934.693 222.969, 924.693 222.969, 921.030 231.723, 925.863 233.505, 926.846 " fill="none" stroke="rgb(0, 0, 0)" stroke-linecap="round" stroke-linejoin="round" stroke-opacity="1.0" stroke-width="2.0" />
            <path d=" M 233.505, 935.606 233.505, 928.985 233.505, 926.846 242.961, 924.264 246.751, 920.139 246.261, 915.964 245.734, 912.788 236.979, 907.955 235.198, 906.972 230.601, 905.144 229.384, 905.476 221.145, 907.725 " fill="none" stroke="rgb(0, 0, 0)" stroke-linecap="round" stroke-linejoin="round" stroke-opacity="1.0" stroke-width="2.0" />
            <path d=" M 232.425, 935.010 233.505, 935.927 234.879, 937.093 236.215, 938.228 " fill="none" stroke="rgb(0, 0, 0)" stroke-linecap="round" stroke-linejoin="round" stroke-opacity="1.0" stroke-width="2.0" />
            <path d=" M 235.198, 945.822 235.725, 942.520 236.215, 938.228 244.970, 943.060 246.751, 944.043 " fill="none" stroke="rgb(0, 0, 0)" stroke-linecap="round" stroke-linejoin="round" stroke-opacity="1.0" stroke-width="2.0" />
            <path d=" M 246.751, 920.139 237.996, 915.307 236.215, 914.324 235.725, 910.149 235.198, 906.972 " fill="none" stroke="rgb(0, 0, 0)" stroke-linecap="round" stroke-linejoin="round" stroke-opacity="1.0" stroke-width="2.0" />
            <path d=" M 228.901, 884.777 226.224, 889.777 217.674, 894.963 217.534, 895.048 " fill="none" stroke="rgb(0, 0, 0)" stroke-linecap="round" stroke-linejoin="round" stroke-opacity="1.0" stroke-width="2.0" />
            <path d=" M 221.145, 907.725 218.405, 898.108 217.534, 895.048 226.289, 899.881 228.070, 900.864 " fill="none" stroke="rgb(0, 0, 0)" stroke-linecap="round" stroke-linejoin="round" stroke-opacity="1.0" stroke-width="2.0" />
            <path d=" M 229.384, 905.476 228.070, 900.864 236.620, 895.678 236.760, 895.593 239.437, 890.592 237.446, 886.043 236.475, 884.101 227.720, 879.268 225.939, 878.285 220.900, 877.987 217.057, 880.318 212.210, 883.258 " fill="none" stroke="rgb(0, 0, 0)" stroke-linecap="round" stroke-linejoin="round" stroke-opacity="1.0" stroke-width="2.0" />
            <path d=" M 239.437, 890.592 230.682, 885.760 228.901, 884.777 226.911, 880.227 225.939, 878.285 " fill="none" stroke="rgb(0, 0, 0)" stroke-linecap="round" stroke-linejoin="round" stroke-opacity="1.0" stroke-width="2.0" />
            <path d=" M 224.365, 865.437 215.610, 860.605 213.829, 859.622 212.501, 865.060 205.582, 872.280 205.281, 872.594 " fill="none" stroke="rgb(0, 0, 0)" stroke-linecap="round" stroke-linejoin="round" stroke-opacity="1.0" stroke-width="2.0" />
            <path d=" M 212.210, 883.258 206.762, 874.872 205.281, 872.594 214.036, 877.426 215.817, 878.409 " fill="none" stroke="rgb(0, 0, 0)" stroke-linecap="round" stroke-linejoin="round" stroke-opacity="1.0" stroke-width="2.0" />
            <path d=" M 202.783, 846.681 194.028, 841.848 192.247, 840.865 192.368, 846.299 187.467, 855.016 187.203, 855.485 " fill="none" stroke="rgb(0, 0, 0)" stroke-linecap="round" stroke-linejoin="round" stroke-opacity="1.0" stroke-width="2.0" />
            <path d=" M 196.889, 863.273 189.095, 857.007 187.203, 855.485 195.958, 860.318 197.739, 861.301 " fill="none" stroke="rgb(0, 0, 0)" stroke-linecap="round" stroke-linejoin="round" stroke-opacity="1.0" stroke-width="2.0" />
            <path d=" M 165.901, 830.014 167.455, 835.016 164.879, 844.678 164.764, 845.110 " fill="none" stroke="rgb(0, 0, 0)" stroke-linecap="round" stroke-linejoin="round" stroke-opacity="1.0" stroke-width="2.0" />
            <path d=" M 175.772, 849.151 177.991, 840.831 176.437, 835.830 167.682, 830.997 165.901, 830.014 163.410, 829.435 159.114, 828.682 155.158, 832.639 152.582, 842.301 152.467, 842.733 150.317, 842.661 140.323, 842.325 139.781, 842.307 " fill="none" stroke="rgb(0, 0, 0)" stroke-linecap="round" stroke-linejoin="round" stroke-opacity="1.0" stroke-width="2.0" />
            <path d=" M 136.916, 827.950 139.781, 832.123 139.781, 842.123 139.781, 842.307 " fill="none" stroke="rgb(0, 0, 0)" stroke-linecap="round" stroke-linejoin="round" stroke-opacity="1.0" stroke-width="2.0" />
            <path d=" M 150.317, 842.661 150.317, 837.938 147.451, 833.766 138.697, 828.933 136.916, 827.950 133.373, 828.281 129.831, 828.798 126.965, 833.657 126.965, 843.657 126.965, 843.842 122.519, 845.056 114.280, 847.305 " fill="none" stroke="rgb(0, 0, 0)" stroke-linecap="round" stroke-linejoin="round" stroke-opacity="1.0" stroke-width="2.0" />
            <path d=" M 107.633, 834.846 111.588, 837.855 114.280, 847.305 " fill="none" stroke="rgb(0, 0, 0)" stroke-linecap="round" stroke-linejoin="round" stroke-opacity="1.0" stroke-width="2.0" />
            <path d=" M 122.519, 845.056 122.124, 843.671 118.169, 840.661 109.414, 835.829 107.633, 834.846 103.337, 836.627 100.846, 837.803 99.291, 843.177 101.983, 852.626 94.726, 857.028 94.505, 857.162 90.325, 859.698 " fill="none" stroke="rgb(0, 0, 0)" stroke-linecap="round" stroke-linejoin="round" stroke-opacity="1.0" stroke-width="2.0" />
            <path d=" M 85.160, 851.748 90.325, 859.698 " fill="none" stroke="rgb(0, 0, 0)" stroke-linecap="round" stroke-linejoin="round" stroke-opacity="1.0" stroke-width="2.0" />
            <path d=" M 62.638, 872.677 69.858, 878.482 " fill="none" stroke="rgb(0, 0, 0)" stroke-linecap="round" stroke-linejoin="round" stroke-opacity="1.0" stroke-width="2.0" />
            <path d=" M 43.778, 947.386 35.023, 942.554 34.322, 942.167 30.532, 938.949 31.021, 934.657 31.549, 931.354 36.146, 928.425 45.602, 928.742 48.178, 919.079 48.839, 916.601 49.212, 915.200 40.522, 912.010 " fill="none" stroke="rgb(0, 0, 0)" stroke-linecap="round" stroke-linejoin="round" stroke-opacity="1.0" stroke-width="2.0" />
            <path d=" M 47.899, 977.516 46.682, 977.849 42.085, 976.020 33.330, 971.187 31.549, 970.204 31.021, 967.028 30.532, 962.853 34.322, 958.728 43.778, 956.146 43.778, 947.386 43.778, 947.065 43.778, 942.484 34.322, 942.167 " fill="none" stroke="rgb(0, 0, 0)" stroke-linecap="round" stroke-linejoin="round" stroke-opacity="1.0" stroke-width="2.0" />
            <path d=" M 60.225, 1002.675 56.382, 1005.006 51.344, 1004.707 42.589, 999.874 40.808, 998.891 39.836, 996.950 37.845, 992.400 40.522, 987.400 49.073, 982.213 49.212, 982.128 47.899, 977.516 45.602, 969.452 36.146, 972.033 31.549, 970.204 " fill="none" stroke="rgb(0, 0, 0)" stroke-linecap="round" stroke-linejoin="round" stroke-opacity="1.0" stroke-width="2.0" />
            <path d=" M 54.536, 993.919 45.986, 999.105 45.846, 999.190 40.808, 998.891 " fill="none" stroke="rgb(0, 0, 0)" stroke-linecap="round" stroke-linejoin="round" stroke-opacity="1.0" stroke-width="2.0" />
            <path d=" M 69.858, 1013.904 62.939, 1021.124 62.638, 1021.437 57.556, 1022.695 " fill="none" stroke="rgb(0, 0, 0)" stroke-linecap="round" stroke-linejoin="round" stroke-opacity="1.0" stroke-width="2.0" />
            <path d=" M 100.861, 1033.603 92.106, 1028.770 90.325, 1027.787 " fill="none" stroke="rgb(0, 0, 0)" stroke-linecap="round" stroke-linejoin="round" stroke-opacity="1.0" stroke-width="2.0" />
            <path d=" M 126.965, 1040.332 124.816, 1040.259 122.239, 1049.922 122.124, 1050.353 118.169, 1054.310 113.873, 1053.557 111.382, 1052.978 102.627, 1048.146 100.846, 1047.162 99.291, 1042.161 101.510, 1033.841 101.983, 1032.067 92.596, 1028.620 90.325, 1027.787 85.424, 1036.504 85.160, 1036.973 80.437, 1039.696 " fill="none" stroke="rgb(0, 0, 0)" stroke-linecap="round" stroke-linejoin="round" stroke-opacity="1.0" stroke-width="2.0" />
            <path d=" M 80.178, 1039.571 80.437, 1039.696 89.192, 1044.528 90.973, 1045.511 " fill="none" stroke="rgb(0, 0, 0)" stroke-linecap="round" stroke-linejoin="round" stroke-opacity="1.0" stroke-width="2.0" />
            <path d=" M 107.633, 1048.495 103.337, 1047.742 100.846, 1047.162 " fill="none" stroke="rgb(0, 0, 0)" stroke-linecap="round" stroke-linejoin="round" stroke-opacity="1.0" stroke-width="2.0" />
            <path d=" M 124.816, 1040.259 116.061, 1035.427 114.280, 1034.444 " fill="none" stroke="rgb(0, 0, 0)" stroke-linecap="round" stroke-linejoin="round" stroke-opacity="1.0" stroke-width="2.0" />
            <path d=" M 154.764, 1037.937 150.317, 1039.151 150.317, 1049.151 150.317, 1049.335 147.452, 1054.194 143.909, 1054.711 140.367, 1055.042 131.612, 1050.210 129.831, 1049.227 126.965, 1045.054 126.965, 1040.332 126.965, 1034.869 124.583, 1034.789 114.588, 1034.454 114.280, 1034.444 111.703, 1044.106 111.588, 1044.538 107.633, 1048.495 116.388, 1053.327 118.169, 1054.310 " fill="none" stroke="rgb(0, 0, 0)" stroke-linecap="round" stroke-linejoin="round" stroke-opacity="1.0" stroke-width="2.0" />
            <path d=" M 136.916, 1048.378 133.373, 1048.895 129.831, 1049.227 " fill="none" stroke="rgb(0, 0, 0)" stroke-linecap="round" stroke-linejoin="round" stroke-opacity="1.0" stroke-width="2.0" />
            <path d=" M 150.317, 1039.151 141.562, 1034.318 139.781, 1033.335 " fill="none" stroke="rgb(0, 0, 0)" stroke-linecap="round" stroke-linejoin="round" stroke-opacity="1.0" stroke-width="2.0" />
            <path d=" M 182.557, 1025.964 175.299, 1030.366 177.991, 1039.816 176.437, 1045.189 173.945, 1046.365 169.649, 1048.147 160.895, 1043.314 159.114, 1042.331 155.158, 1039.321 154.764, 1037.937 152.467, 1029.872 142.820, 1032.506 139.781, 1033.335 139.781, 1043.335 139.781, 1043.519 136.916, 1048.378 145.670, 1053.211 147.452, 1054.194 " fill="none" stroke="rgb(0, 0, 0)" stroke-linecap="round" stroke-linejoin="round" stroke-opacity="1.0" stroke-width="2.0" />
            <path d=" M 165.901, 1039.374 163.410, 1040.549 159.114, 1042.331 " fill="none" stroke="rgb(0, 0, 0)" stroke-linecap="round" stroke-linejoin="round" stroke-opacity="1.0" stroke-width="2.0" />
            <path d=" M 175.299, 1030.366 166.545, 1025.534 164.764, 1024.550 " fill="none" stroke="rgb(0, 0, 0)" stroke-linecap="round" stroke-linejoin="round" stroke-opacity="1.0" stroke-width="2.0" />
            <path d=" M 181.586, 1025.428 176.421, 1017.479 167.871, 1022.665 164.764, 1024.550 167.455, 1034.000 165.901, 1039.374 174.656, 1044.206 176.437, 1045.189 " fill="none" stroke="rgb(0, 0, 0)" stroke-linecap="round" stroke-linejoin="round" stroke-opacity="1.0" stroke-width="2.0" />
            <path d=" M 196.845, 1032.836 188.090, 1028.004 186.309, 1027.020 182.778, 1025.830 181.586, 1025.428 " fill="none" stroke="rgb(0, 0, 0)" stroke-linecap="round" stroke-linejoin="round" stroke-opacity="1.0" stroke-width="2.0" />
            <path d=" M 197.739, 1014.617 188.984, 1009.785 187.203, 1008.802 " fill="none" stroke="rgb(0, 0, 0)" stroke-linecap="round" stroke-linejoin="round" stroke-opacity="1.0" stroke-width="2.0" />
            <path d=" M 204.108, 1004.500 196.889, 998.695 189.969, 1005.915 187.203, 1008.802 192.368, 1016.751 192.247, 1022.214 201.002, 1027.047 202.783, 1028.030 " fill="none" stroke="rgb(0, 0, 0)" stroke-linecap="round" stroke-linejoin="round" stroke-opacity="1.0" stroke-width="2.0" />
            <path d=" M 219.727, 1010.356 210.972, 1005.524 209.191, 1004.541 207.409, 1004.526 204.108, 1004.500 " fill="none" stroke="rgb(0, 0, 0)" stroke-linecap="round" stroke-linejoin="round" stroke-opacity="1.0" stroke-width="2.0" />
            <path d=" M 215.817, 993.180 207.062, 988.348 205.281, 987.365 " fill="none" stroke="rgb(0, 0, 0)" stroke-linecap="round" stroke-linejoin="round" stroke-opacity="1.0" stroke-width="2.0" />
            <path d=" M 212.210, 975.041 207.309, 983.758 205.281, 987.365 212.501, 993.170 213.829, 998.290 222.584, 1003.122 224.365, 1004.105 " fill="none" stroke="rgb(0, 0, 0)" stroke-linecap="round" stroke-linejoin="round" stroke-opacity="1.0" stroke-width="2.0" />
            <path d=" M 225.939, 976.727 220.900, 978.232 212.210, 975.041 220.965, 979.874 222.746, 980.857 " fill="none" stroke="rgb(0, 0, 0)" stroke-linecap="round" stroke-linejoin="round" stroke-opacity="1.0" stroke-width="2.0" />
            <path d=" M 236.475, 982.542 227.720, 977.710 225.939, 976.727 226.911, 974.552 228.901, 969.526 " fill="none" stroke="rgb(0, 0, 0)" stroke-linecap="round" stroke-linejoin="round" stroke-opacity="1.0" stroke-width="2.0" />
            <path d=" M 226.224, 965.166 217.534, 961.976 " fill="none" stroke="rgb(0, 0, 0)" stroke-linecap="round" stroke-linejoin="round" stroke-opacity="1.0" stroke-width="2.0" />
            <path d=" M 221.145, 948.435 229.900, 953.267 231.681, 954.250 " fill="none" stroke="rgb(0, 0, 0)" stroke-linecap="round" stroke-linejoin="round" stroke-opacity="1.0" stroke-width="2.0" />
            <path d=" M 245.734, 951.638 236.979, 946.806 235.198, 945.822 230.601, 948.752 221.145, 948.435 218.568, 958.097 217.534, 961.976 " fill="none" stroke="rgb(0, 0, 0)" stroke-linecap="round" stroke-linejoin="round" stroke-opacity="1.0" stroke-width="2.0" />
            <path d=" M 226.224, 965.166 227.716, 967.597 228.901, 969.526 237.656, 974.358 239.437, 975.342 " fill="none" stroke="rgb(0, 0, 0)" stroke-linecap="round" stroke-linejoin="round" stroke-opacity="1.0" stroke-width="2.0" />
        </g>
    </g>
</svg>
