<?xml version='1.0' encoding='ascii'?>
<svg xmlns="http://www.w3.org/2000/svg" xmlns:inkscape="http://www.inkscape.org/namespaces/inkscape" height="1123" version="1.1" width="794">
    <g id="View Layer_LineSet" inkscape:groupmode="lineset" inkscape:label="View Layer_LineSet">
        <g id="fills" inkscape:groupmode="layer" inkscape:label="fills" xmlns:inkscape="http://www.inkscape.org/namespaces/inkscape">
            <path d=" M 885.964, 529.778 879.948, 527.656 877.866, 527.049 874.590, 530.211 870.481, 538.291 838.306, 536.095 837.749, 532.793 835.561, 529.261 825.026, 523.446 822.062, 523.878 815.499, 525.180 808.968, 526.821 802.484, 528.796 796.063, 531.102 789.721, 533.733 786.211, 535.389 785.373, 539.852 786.800, 548.310 751.096, 574.560 743.710, 570.483 739.734, 569.547 738.602, 570.724 733.836, 576.132 729.298, 581.757 725.000, 587.583 720.951, 593.599 717.162, 599.788 714.406, 604.757 716.401, 608.448 722.697, 613.326 708.166, 657.627 699.947, 658.611 696.020, 660.737 696.017, 660.755 695.212, 667.815 694.728, 674.869 694.566, 681.902 694.728, 688.896 695.212, 695.834 696.017, 702.700 696.020, 702.718 706.556, 708.533 710.483, 709.719 710.582, 709.707 722.697, 743.740 716.401, 750.126 714.406, 754.295 717.162, 758.605 720.951, 763.887 725.000, 768.932 729.298, 773.730 733.836, 778.268 738.602, 782.534 739.734, 783.440 750.270, 789.256 754.246, 787.368 760.542, 780.982 786.711, 793.956 785.373, 802.207 786.211, 806.470 796.747, 812.285 800.257, 813.101 806.599, 814.213 813.020, 814.981 819.504, 815.404 826.035, 815.481 832.598, 815.211 835.561, 814.934 837.749, 810.879 839.176, 802.079 875.265, 790.975 877.866, 792.863 888.402, 798.679 890.484, 797.573 896.500, 794.010 902.378, 790.152 908.104, 786.008 913.664, 781.590 919.044, 776.906 922.532, 773.587 921.920, 769.249 917.810, 762.154 945.120, 724.188 952.843, 726.260 957.046, 725.633 957.419, 724.886 960.378, 718.265 963.045, 711.532 965.413, 704.703 967.477, 697.795 969.232, 690.823 970.520, 684.558 967.374, 681.959 959.651, 677.696 959.651, 650.932 959.651, 634.595 967.374, 630.674 970.520, 627.322 969.232, 621.365 967.477, 614.814 965.413, 608.399 963.045, 602.138 960.378, 596.043 957.419, 590.131 957.046, 589.473 946.510, 583.657 942.307, 584.037 938.388, 586.027 917.810, 562.348 921.920, 554.268 922.532, 549.784 919.044, 547.300 913.664, 543.904 908.104, 540.817 897.568, 535.001 891.842, 532.229 885.964, 529.778  z M 839.176, 638.850 840.687, 638.709 842.193, 638.647 843.693, 638.665 845.181, 638.762 846.655, 638.938 848.112, 639.193 849.546, 639.527 849.971, 639.651 850.406, 640.040 851.448, 641.082 852.435, 642.183 853.364, 643.342 854.234, 644.554 855.042, 645.818 855.787, 647.130 856.466, 648.488 857.079, 649.887 857.622, 651.325 858.096, 652.797 858.499, 654.301 858.830, 655.833 859.089, 657.389 859.274, 658.965 859.385, 660.558 859.422, 662.164 859.385, 663.779 859.274, 665.398 859.089, 667.019 858.830, 668.637 858.499, 670.248 858.096, 671.848 857.622, 673.435 857.079, 675.002 856.466, 676.548 855.787, 678.068 855.042, 679.559 854.234, 681.016 853.364, 682.437 852.435, 683.818 851.448, 685.156 850.406, 686.447 849.312, 687.689 848.168, 688.878 846.977, 690.011 845.742, 691.086 844.465, 692.101 843.151, 693.052 841.801, 693.938 840.420, 694.756 839.010, 695.504 837.576, 696.181 836.120, 696.785 834.646, 697.315 833.157, 697.768 831.657, 698.145 830.151, 698.444 828.640, 698.664 827.130, 698.806 825.623, 698.867 824.124, 698.850 822.635, 698.753 821.161, 698.576 819.705, 698.321 818.270, 697.988 817.845, 697.864 817.411, 697.475 816.369, 696.433 815.382, 695.331 814.452, 694.173 813.582, 692.960 812.774, 691.696 812.029, 690.384 811.350, 689.027 810.738, 687.628 810.194, 686.190 809.720, 684.717 809.317, 683.213 808.986, 681.681 808.728, 680.125 808.543, 678.549 808.432, 676.956 808.395, 675.350 808.432, 673.736 808.543, 672.116 808.728, 670.495 808.986, 668.878 809.317, 667.266 809.720, 665.666 810.194, 664.080 810.738, 662.512 811.350, 660.966 812.029, 659.446 812.774, 657.956 813.582, 656.498 814.452, 655.077 815.382, 653.696 816.369, 652.358 817.410, 651.067 818.505, 649.826 819.649, 648.637 820.840, 647.503 822.075, 646.428 823.351, 645.413 824.666, 644.462 826.016, 643.576 827.397, 642.758 828.806, 642.010 830.241, 641.333 831.697, 640.729 833.171, 640.200 834.660, 639.746 836.159, 639.369 837.666, 639.070 839.176, 638.850  z" fill="rgb(204, 0, 0)" fill-opacity="1.0" fill_rule="evenodd" stroke="none" />
        </g>
        <g id="strokes" inkscape:groupmode="layer" inkscape:label="strokes">
            <path d=" M 796.063, 808.397 789.721, 807.285 786.211, 806.470 " fill="none" stroke="rgb(0, 0, 0)" stroke-linecap="round" stroke-linejoin="round" stroke-opacity="1.0" stroke-width="2.0" />
            <path d=" M 708.166, 702.919 710.582, 709.707 713.936, 719.128 717.289, 728.549 720.643, 737.970 722.697, 743.740 716.401, 750.126 714.406, 754.295 717.162, 758.605 720.951, 763.887 725.000, 768.932 729.298, 773.730 733.836, 778.268 738.602, 782.534 739.734, 783.440 748.489, 788.273 750.270, 789.256 754.246, 787.368 760.542, 780.982 769.502, 785.424 778.461, 789.866 786.711, 793.956 " fill="none" stroke="rgb(0, 0, 0)" stroke-linecap="round" stroke-linejoin="round" stroke-opacity="1.0" stroke-width="2.0" />
            <path d=" M 751.096, 574.560 743.710, 570.483 739.734, 569.547 738.602, 570.724 733.836, 576.132 729.298, 581.757 725.000, 587.583 720.951, 593.599 717.162, 599.788 714.406, 604.757 716.401, 608.448 722.697, 613.326 719.580, 622.828 716.464, 632.330 713.347, 641.832 710.230, 651.334 708.166, 657.627 699.947, 658.611 696.020, 660.737 696.017, 660.755 695.212, 667.815 694.728, 674.869 694.566, 681.902 694.728, 688.896 695.212, 695.834 696.017, 702.700 696.020, 702.718 704.775, 707.550 706.556, 708.533 710.483, 709.719 710.582, 709.707 " fill="none" stroke="rgb(0, 0, 0)" stroke-linecap="round" stroke-linejoin="round" stroke-opacity="1.0" stroke-width="2.0" />
            <path d=" M 796.063, 531.102 789.721, 533.733 786.211, 535.389 785.373, 539.852 786.800, 548.310 778.743, 554.233 770.686, 560.157 762.630, 566.080 754.573, 572.004 751.096, 574.560 750.118, 575.279 750.006, 575.361 " fill="none" stroke="rgb(0, 0, 0)" stroke-linecap="round" stroke-linejoin="round" stroke-opacity="1.0" stroke-width="2.0" />
            <path d=" M 743.710, 570.483 750.006, 575.361 " fill="none" stroke="rgb(0, 0, 0)" stroke-linecap="round" stroke-linejoin="round" stroke-opacity="1.0" stroke-width="2.0" />
            <path d=" M 708.166, 702.919 699.947, 703.903 696.020, 702.718 " fill="none" stroke="rgb(0, 0, 0)" stroke-linecap="round" stroke-linejoin="round" stroke-opacity="1.0" stroke-width="2.0" />
            <path d=" M 760.542, 780.982 751.787, 776.150 750.006, 775.167 " fill="none" stroke="rgb(0, 0, 0)" stroke-linecap="round" stroke-linejoin="round" stroke-opacity="1.0" stroke-width="2.0" />
            <path d=" M 796.747, 812.285 787.993, 807.453 786.211, 806.470 785.373, 802.207 786.711, 793.956 786.800, 793.408 777.841, 788.966 768.881, 784.524 759.922, 780.083 750.962, 775.641 750.006, 775.167 743.710, 781.553 739.734, 783.440 " fill="none" stroke="rgb(0, 0, 0)" stroke-linecap="round" stroke-linejoin="round" stroke-opacity="1.0" stroke-width="2.0" />
        </g>
    </g>
</svg>
