<?xml version='1.0' encoding='ascii'?>
<svg xmlns="http://www.w3.org/2000/svg" xmlns:inkscape="http://www.inkscape.org/namespaces/inkscape" height="1123" version="1.1" width="794">
    <g id="View Layer_LineSet" inkscape:groupmode="lineset" inkscape:label="View Layer_LineSet">
        <g id="fills" inkscape:groupmode="layer" inkscape:label="fills" xmlns:inkscape="http://www.inkscape.org/namespaces/inkscape">
            <path d=" M 667.230, 86.823 669.836, 92.031 669.885, 92.116 680.421, 97.932 685.462, 98.191 689.181, 95.755 689.977, 96.949 682.813, 104.215 681.568, 109.604 682.699, 111.013 685.579, 114.228 696.115, 120.044 701.178, 119.040 706.490, 113.653 706.666, 113.809 701.082, 122.474 701.004, 127.883 703.640, 129.760 706.023, 131.264 716.559, 137.080 721.388, 134.874 726.441, 127.034 723.281, 135.221 724.378, 140.382 734.914, 146.198 739.334, 147.757 740.645, 148.139 745.001, 144.840 748.706, 135.243 749.255, 135.352 748.215, 141.767 750.431, 146.391 760.967, 152.207 761.489, 152.269 767.086, 152.635 770.746, 148.401 772.370, 138.389 774.346, 138.275 774.538, 141.760 777.736, 145.569 788.272, 151.384 790.325, 151.084 794.511, 150.254 797.234, 145.365 796.690, 135.477 800.566, 134.284 800.832, 135.200 804.849, 138.010 815.385, 143.826 818.814, 142.404 821.378, 141.194 823.037, 135.894 820.355, 126.665 826.685, 122.996 836.215, 128.256 840.856, 129.925 845.247, 126.748 846.251, 125.950 846.764, 120.501 842.088, 112.427 849.851, 105.336 858.276, 109.986 863.273, 110.411 863.844, 109.819 867.805, 105.323 867.136, 100.014 860.718, 93.531 868.429, 82.811 876.361, 87.189 881.423, 86.352 882.730, 84.217 884.861, 80.373 883.054, 75.539 875.241, 70.996 880.708, 58.737 889.495, 61.095 894.373, 59.041 895.730, 55.128 896.509, 52.519 893.661, 48.394 885.356, 43.810 887.683, 33.065 896.971, 33.110 901.421, 29.934 902.065, 24.294 902.136, 23.253 898.385, 20.043 889.097, 14.916 889.097, 8.029 889.097, 7.013 898.385, 4.743 902.136, 0.635 902.065, -0.388 901.421, -5.875 890.885, -11.690 886.435, -13.800 885.868, -13.662 884.874, -18.014 893.661, -22.476 896.509, -27.283 895.730, -29.705 894.373, -33.293 883.837, -39.109 878.960, -39.995 876.261, -38.625 875.241, -40.667 883.054, -47.081 884.861, -52.348 882.730, -55.682 881.423, -57.503 870.887, -63.319 865.825, -62.944 861.211, -59.157 860.718, -59.725 867.136, -67.745 867.805, -73.214 863.844, -76.761 863.273, -77.217 852.737, -83.033 847.740, -81.411 842.350, -74.675 846.764, -83.353 846.251, -88.680 845.247, -89.237 834.712, -95.053 830.320, -97.179 825.679, -94.399 821.003, -85.205 820.910, -85.237 823.037, -93.065 821.378, -97.968 810.842, -103.783 808.278, -104.380 804.849, -104.980 800.832, -101.208 798.150, -91.336 796.966, -91.417 797.234, -96.357 794.511, -100.595 783.975, -106.411 779.789, -106.239 777.736, -106.046 774.538, -101.472 773.994, -91.454 771.104, -90.929 770.746, -93.051 767.086, -96.408 756.551, -102.224 750.954, -100.519 750.431, -100.331 748.215, -95.176 749.839, -85.552 744.897, -83.384 734.466, -89.142 730.109, -91.397 728.798, -90.701 724.378, -88.083 723.281, -82.659 726.985, -73.949 719.735, -68.618 710.852, -73.521 706.023, -74.571 703.640, -72.496 701.004, -69.987 701.082, -64.597 706.666, -57.269 698.758, -48.368 690.642, -52.848 685.579, -52.639 682.699, -48.734 681.568, -47.054 682.813, -41.963 689.977, -36.413 683.283, -24.762 674.926, -28.236 669.885, -26.769 669.836, -26.672 667.230, -20.840 667.101, -20.516 669.460, -15.977 677.500, -11.539 673.651, 0.197 664.551, -1.012 659.862, 1.615 659.430, 3.333 658.417, 8.262 661.742, 11.959 670.452, 16.767 669.427, 26.236 660.076, 27.355 655.967, 31.005 655.891, 34.349 655.967, 37.675 660.076, 40.341 670.171, 45.913 670.841, 51.949 661.742, 55.338 658.417, 59.831 659.430, 64.518 659.862, 66.132 670.398, 71.948 675.087, 73.452 676.712, 72.847 677.817, 75.951 669.460, 81.426 667.101, 86.529 667.230, 86.823  z M 784.530, -4.536 785.937, -4.667 787.340, -4.725 788.736, -4.708 790.123, -4.618 791.495, -4.454 792.852, -4.216 794.173, -3.909 794.265, -3.827 795.235, -2.857 796.154, -1.831 797.019, -0.752 797.830, 0.377 798.582, 1.554 799.276, 2.776 799.908, 4.040 800.479, 5.343 800.985, 6.682 801.426, 8.054 801.802, 9.454 802.110, 10.881 802.350, 12.330 802.523, 13.798 802.626, 15.282 802.661, 16.777 802.626, 18.281 802.523, 19.789 802.350, 21.298 802.110, 22.805 801.802, 24.305 801.426, 25.796 800.985, 27.273 800.479, 28.733 799.908, 30.173 799.276, 31.588 798.582, 32.976 797.830, 34.334 797.019, 35.657 796.154, 36.943 795.235, 38.189 794.265, 39.392 793.245, 40.548 792.180, 41.655 791.071, 42.711 789.921, 43.712 788.732, 44.657 787.508, 45.543 786.251, 46.368 784.964, 47.130 783.652, 47.827 782.316, 48.457 780.960, 49.020 779.587, 49.513 778.201, 49.935 776.804, 50.286 775.401, 50.564 773.994, 50.769 772.588, 50.901 771.184, 50.958 769.788, 50.942 768.402, 50.852 767.029, 50.687 765.673, 50.450 764.351, 50.142 764.260, 50.061 763.290, 49.091 762.371, 48.065 761.505, 46.986 760.695, 45.857 759.942, 44.680 759.248, 43.458 758.616, 42.193 758.046, 40.891 757.539, 39.552 757.098, 38.180 756.723, 36.779 756.414, 35.353 756.174, 33.904 756.002, 32.436 755.898, 30.952 755.863, 29.457 755.898, 27.953 756.002, 26.445 756.174, 24.935 756.414, 23.429 756.723, 21.928 757.098, 20.438 757.539, 18.961 758.046, 17.501 758.616, 16.061 759.248, 14.646 759.942, 13.257 760.695, 11.900 761.505, 10.577 762.370, 9.290 763.289, 8.045 764.260, 6.842 765.279, 5.686 766.344, 4.578 767.453, 3.523 768.604, 2.521 769.793, 1.577 771.017, 0.691 772.274, -0.134 773.560, -0.896 774.873, -1.593 776.209, -2.224 777.565, -2.786 778.938, -3.279 780.324, -3.701 781.720, -4.052 783.124, -4.330 784.530, -4.536  z" fill="rgb(204, 0, 0)" fill-opacity="1.0" fill_rule="evenodd" stroke="none" />
        </g>
        <g id="strokes" inkscape:groupmode="layer" inkscape:label="strokes">
            <path d=" M 673.651, 64.248 676.712, 72.847 677.817, 75.951 669.460, 81.426 667.101, 86.529 667.230, 86.823 669.836, 92.031 669.885, 92.116 678.640, 96.949 680.421, 97.932 685.462, 98.191 689.181, 95.755 " fill="none" stroke="rgb(0, 0, 0)" stroke-linecap="round" stroke-linejoin="round" stroke-opacity="1.0" stroke-width="2.0" />
            <path d=" M 794.265, 39.392 793.245, 40.548 792.180, 41.655 791.071, 42.711 789.921, 43.712 788.732, 44.657 787.508, 45.543 786.251, 46.368 784.964, 47.130 783.652, 47.827 782.316, 48.457 780.960, 49.020 779.587, 49.513 778.201, 49.935 776.804, 50.286 775.401, 50.564 773.994, 50.769 772.588, 50.901 771.184, 50.958 769.788, 50.942 768.402, 50.852 767.029, 50.687 765.673, 50.450 764.351, 50.142 764.337, 50.139 763.024, 49.756 761.738, 49.303 760.481, 48.779 759.257, 48.186 " fill="none" stroke="rgb(0, 0, 0)" stroke-linecap="round" stroke-linejoin="round" stroke-opacity="1.0" stroke-width="2.0" />
            <path d=" M 754.743, -0.130 753.724, 1.026 752.754, 2.229 751.835, 3.475 750.969, 4.761 750.159, 6.084 749.406, 7.442 748.713, 8.830 748.080, 10.245 747.510, 11.685 747.003, 13.145 746.562, 14.622 746.187, 16.113 745.878, 17.613 745.638, 19.120 745.466, 20.629 745.362, 22.138 745.328, 23.641 745.362, 25.137 745.466, 26.620 745.638, 28.088 745.878, 29.537 746.187, 30.964 746.562, 32.365 747.003, 33.736 747.510, 35.075 748.080, 36.378 748.713, 37.642 749.406, 38.864 750.159, 40.041 750.969, 41.171 751.835, 42.249 752.754, 43.275 753.724, 44.245 754.743, 45.158 755.808, 46.010 756.918, 46.800 758.068, 47.526 759.257, 48.186 " fill="none" stroke="rgb(0, 0, 0)" stroke-linecap="round" stroke-linejoin="round" stroke-opacity="1.0" stroke-width="2.0" />
            <path d=" M 764.351, 50.142 764.260, 50.061 763.290, 49.091 762.371, 48.065 761.505, 46.986 760.695, 45.857 759.942, 44.680 759.248, 43.458 758.616, 42.193 758.046, 40.891 757.539, 39.552 757.098, 38.180 756.723, 36.779 756.414, 35.353 756.174, 33.904 756.002, 32.436 755.898, 30.952 755.863, 29.457 755.898, 27.953 756.002, 26.445 756.174, 24.935 756.414, 23.429 756.723, 21.928 757.098, 20.438 757.539, 18.961 758.046, 17.501 758.616, 16.061 759.248, 14.646 759.942, 13.257 760.695, 11.900 761.505, 10.577 762.370, 9.290 763.289, 8.045 764.260, 6.842 765.279, 5.686 766.344, 4.578 767.453, 3.523 768.604, 2.521 769.793, 1.577 771.017, 0.691 772.274, -0.134 " fill="none" stroke="rgb(0, 0, 0)" stroke-linecap="round" stroke-linejoin="round" stroke-opacity="1.0" stroke-width="2.0" />
            <path d=" M 677.500, -11.539 674.383, -2.037 673.651, 0.197 664.551, -1.012 659.862, 1.615 659.430, 3.333 658.417, 8.262 661.742, 11.959 670.452, 16.767 " fill="none" stroke="rgb(0, 0, 0)" stroke-linecap="round" stroke-linejoin="round" stroke-opacity="1.0" stroke-width="2.0" />
            <path d=" M 670.171, 45.913 661.416, 41.080 660.076, 40.341 655.967, 37.675 655.891, 34.349 655.967, 31.005 660.076, 27.355 669.427, 26.236 670.452, 16.767 670.551, 15.854 670.841, 13.169 661.742, 11.959 " fill="none" stroke="rgb(0, 0, 0)" stroke-linecap="round" stroke-linejoin="round" stroke-opacity="1.0" stroke-width="2.0" />
            <path d=" M 676.712, 72.847 675.087, 73.452 670.398, 71.948 661.644, 67.115 659.862, 66.132 659.430, 64.518 658.417, 59.831 661.742, 55.338 670.841, 51.949 670.171, 45.913 670.166, 45.867 669.427, 39.221 660.076, 40.341 " fill="none" stroke="rgb(0, 0, 0)" stroke-linecap="round" stroke-linejoin="round" stroke-opacity="1.0" stroke-width="2.0" />
            <path d=" M 673.651, 64.248 664.551, 67.637 659.862, 66.132 " fill="none" stroke="rgb(0, 0, 0)" stroke-linecap="round" stroke-linejoin="round" stroke-opacity="1.0" stroke-width="2.0" />
            <path d=" M 706.490, 113.653 701.178, 119.040 696.115, 120.044 687.360, 115.211 685.579, 114.228 682.699, 111.013 681.568, 109.604 682.813, 104.215 689.834, 97.094 689.977, 96.949 689.181, 95.755 683.637, 87.432 683.283, 86.901 674.926, 92.376 669.885, 92.116 " fill="none" stroke="rgb(0, 0, 0)" stroke-linecap="round" stroke-linejoin="round" stroke-opacity="1.0" stroke-width="2.0" />
            <path d=" M 726.441, 127.034 721.388, 134.874 716.559, 137.080 707.804, 132.247 706.023, 131.264 703.640, 129.760 701.004, 127.883 701.082, 122.474 706.499, 114.069 706.666, 113.809 706.490, 113.653 699.005, 107.021 697.806, 105.959 690.785, 113.080 690.642, 113.225 685.579, 114.228 " fill="none" stroke="rgb(0, 0, 0)" stroke-linecap="round" stroke-linejoin="round" stroke-opacity="1.0" stroke-width="2.0" />
            <path d=" M 716.436, 120.393 711.019, 128.799 710.852, 129.059 706.023, 131.264 " fill="none" stroke="rgb(0, 0, 0)" stroke-linecap="round" stroke-linejoin="round" stroke-opacity="1.0" stroke-width="2.0" />
            <path d=" M 726.985, 125.623 726.797, 126.112 726.441, 127.034 723.281, 135.221 724.378, 140.382 733.133, 145.215 734.914, 146.198 739.334, 147.757 740.645, 148.139 745.001, 144.840 748.602, 135.511 748.706, 135.243 749.255, 135.352 " fill="none" stroke="rgb(0, 0, 0)" stroke-linecap="round" stroke-linejoin="round" stroke-opacity="1.0" stroke-width="2.0" />
            <path d=" M 726.985, 125.623 718.026, 121.181 716.436, 120.393 725.191, 125.226 726.797, 126.112 " fill="none" stroke="rgb(0, 0, 0)" stroke-linecap="round" stroke-linejoin="round" stroke-opacity="1.0" stroke-width="2.0" />
            <path d=" M 730.109, 142.324 728.798, 141.942 724.378, 140.382 " fill="none" stroke="rgb(0, 0, 0)" stroke-linecap="round" stroke-linejoin="round" stroke-opacity="1.0" stroke-width="2.0" />
            <path d=" M 748.706, 135.243 739.951, 130.410 738.170, 129.427 " fill="none" stroke="rgb(0, 0, 0)" stroke-linecap="round" stroke-linejoin="round" stroke-opacity="1.0" stroke-width="2.0" />
            <path d=" M 774.346, 138.275 772.370, 138.389 770.769, 148.260 770.746, 148.401 767.086, 152.635 761.489, 152.269 760.967, 152.207 752.212, 147.374 750.431, 146.391 748.215, 141.767 749.255, 135.352 749.839, 131.754 740.032, 129.799 738.170, 129.427 737.416, 131.381 737.414, 131.386 734.466, 139.025 730.109, 142.324 738.864, 147.156 740.645, 148.139 " fill="none" stroke="rgb(0, 0, 0)" stroke-linecap="round" stroke-linejoin="round" stroke-opacity="1.0" stroke-width="2.0" />
            <path d=" M 756.551, 146.819 750.954, 146.454 750.431, 146.391 " fill="none" stroke="rgb(0, 0, 0)" stroke-linecap="round" stroke-linejoin="round" stroke-opacity="1.0" stroke-width="2.0" />
            <path d=" M 772.370, 138.389 763.615, 133.556 761.834, 132.573 " fill="none" stroke="rgb(0, 0, 0)" stroke-linecap="round" stroke-linejoin="round" stroke-opacity="1.0" stroke-width="2.0" />
            <path d=" M 794.511, 150.254 790.325, 151.084 788.272, 151.384 779.517, 146.552 777.736, 145.569 774.538, 141.760 774.346, 138.275 773.994, 131.872 764.011, 132.448 763.737, 132.463 761.834, 132.573 760.233, 142.444 760.210, 142.586 756.551, 146.819 765.305, 151.651 767.086, 152.635 " fill="none" stroke="rgb(0, 0, 0)" stroke-linecap="round" stroke-linejoin="round" stroke-opacity="1.0" stroke-width="2.0" />
            <path d=" M 783.975, 144.439 779.789, 145.269 777.736, 145.569 " fill="none" stroke="rgb(0, 0, 0)" stroke-linecap="round" stroke-linejoin="round" stroke-opacity="1.0" stroke-width="2.0" />
            <path d=" M 796.690, 135.477 787.935, 130.644 786.154, 129.661 " fill="none" stroke="rgb(0, 0, 0)" stroke-linecap="round" stroke-linejoin="round" stroke-opacity="1.0" stroke-width="2.0" />
            <path d=" M 798.150, 125.970 788.592, 128.911 786.154, 129.661 786.698, 139.549 783.975, 144.439 792.730, 149.271 794.511, 150.254 " fill="none" stroke="rgb(0, 0, 0)" stroke-linecap="round" stroke-linejoin="round" stroke-opacity="1.0" stroke-width="2.0" />
        </g>
    </g>
</svg>
