<?xml version='1.0' encoding='ascii'?>
<svg xmlns="http://www.w3.org/2000/svg" xmlns:inkscape="http://www.inkscape.org/namespaces/inkscape" height="1123" version="1.1" width="794">
    <g id="View Layer_LineSet" inkscape:groupmode="lineset" inkscape:label="View Layer_LineSet">
        <g id="fills" inkscape:groupmode="layer" inkscape:label="fills" xmlns:inkscape="http://www.inkscape.org/namespaces/inkscape">
            <path d=" M 13.673, 848.016 14.496, 849.895 14.581, 850.067 25.117, 855.882 25.517, 855.883 24.174, 857.633 23.375, 861.904 24.105, 862.557 25.072, 863.331 35.608, 869.146 37.686, 868.198 38.018, 869.759 48.554, 875.575 50.403, 876.005 50.719, 876.060 53.716, 872.871 54.671, 869.623 55.051, 870.125 65.586, 875.941 66.456, 875.768 67.857, 875.416 69.514, 871.337 68.707, 863.252 70.283, 862.518 78.593, 867.105 82.079, 868.793 83.658, 867.651 84.049, 867.339 84.082, 863.070 80.224, 856.407 84.541, 851.747 91.177, 855.410 95.157, 855.344 95.609, 854.672 96.500, 853.217 94.902, 849.498 88.659, 845.410 91.237, 838.929 98.786, 839.735 102.583, 837.929 102.951, 836.137 103.053, 835.494 100.103, 832.968 92.555, 828.802 92.555, 825.405 100.103, 822.791 103.053, 819.559 102.951, 818.941 102.583, 817.237 92.047, 811.421 90.843, 811.137 94.902, 807.507 96.500, 803.405 95.609, 802.164 95.157, 801.599 84.621, 795.784 84.078, 795.905 84.049, 792.264 83.657, 792.046 73.122, 786.231 71.543, 785.467 68.058, 787.989 67.933, 788.233 67.857, 788.064 57.321, 782.249 55.920, 782.232 55.051, 782.268 52.675, 785.979 52.029, 792.605 50.719, 791.525 40.183, 785.709 39.867, 785.840 38.018, 786.712 37.152, 790.990 39.537, 798.528 36.103, 801.053 28.884, 797.068 25.072, 796.241 24.105, 797.246 23.375, 798.074 24.174, 802.153 29.338, 807.649 25.612, 813.561 18.563, 811.059 14.581, 812.017 14.496, 812.209 13.673, 814.285 13.654, 814.340 15.985, 817.540 22.790, 821.297 21.717, 826.809 14.000, 827.733 10.555, 830.306 10.527, 831.527 10.555, 832.741 21.090, 838.557 22.926, 839.489 23.034, 840.017 15.985, 844.207 13.654, 847.965 13.673, 848.016  z M 62.404, 802.854 63.763, 802.727 65.120, 802.671 66.469, 802.687 67.809, 802.775 69.136, 802.933 70.447, 803.163 71.531, 803.415 72.399, 804.282 73.287, 805.274 74.124, 806.317 74.907, 807.408 75.634, 808.546 76.305, 809.727 76.916, 810.949 77.467, 812.209 77.957, 813.503 78.383, 814.828 78.746, 816.182 79.044, 817.561 79.277, 818.962 79.443, 820.381 79.543, 821.815 79.576, 823.260 79.543, 824.714 79.443, 826.172 79.277, 827.630 79.044, 829.087 78.746, 830.537 78.383, 831.978 77.957, 833.406 77.467, 834.817 76.916, 836.208 76.305, 837.577 75.634, 838.918 74.907, 840.230 74.124, 841.509 73.287, 842.753 72.399, 843.957 71.461, 845.119 70.476, 846.237 69.446, 847.307 68.374, 848.327 67.262, 849.295 66.113, 850.208 64.930, 851.065 63.715, 851.862 62.472, 852.598 61.203, 853.272 59.911, 853.882 58.601, 854.425 57.274, 854.902 55.934, 855.310 54.584, 855.649 53.228, 855.918 51.868, 856.117 50.508, 856.244 49.152, 856.299 47.802, 856.284 46.462, 856.196 45.135, 856.037 43.825, 855.808 42.740, 855.556 41.873, 854.688 40.985, 853.697 40.148, 852.654 39.365, 851.562 38.637, 850.425 37.967, 849.243 37.356, 848.022 36.804, 846.762 36.315, 845.468 35.888, 844.142 35.526, 842.789 35.228, 841.410 34.995, 840.009 34.829, 838.590 34.729, 837.156 34.695, 835.711 34.729, 834.257 34.829, 832.799 34.995, 831.340 35.228, 829.884 35.526, 828.434 35.888, 826.993 36.315, 825.565 36.804, 824.154 37.356, 822.763 37.967, 821.394 38.637, 820.053 39.365, 818.741 40.148, 817.461 40.985, 816.218 41.873, 815.014 42.811, 813.852 43.796, 812.734 44.826, 811.664 45.898, 810.643 47.010, 809.675 48.159, 808.762 49.342, 807.906 50.557, 807.109 51.800, 806.372 53.069, 805.699 54.360, 805.089 55.671, 804.546 56.998, 804.069 58.338, 803.661 59.688, 803.322 61.044, 803.053 62.404, 802.854  z" fill="rgb(204, 0, 0)" fill-opacity="1.0" fill_rule="evenodd" stroke="none" />
        </g>
        <g id="strokes" inkscape:groupmode="layer" inkscape:label="strokes">
            <path d=" M 21.717, 833.566 22.087, 835.378 22.926, 839.488 22.926, 839.489 23.034, 840.017 15.985, 844.207 13.654, 847.965 13.673, 848.016 14.496, 849.895 14.581, 850.067 23.336, 854.899 25.117, 855.882 25.517, 855.883 " fill="none" stroke="rgb(0, 0, 0)" stroke-linecap="round" stroke-linejoin="round" stroke-opacity="1.0" stroke-width="2.0" />
            <path d=" M 36.103, 801.053 28.884, 797.068 25.072, 796.241 24.105, 797.246 23.375, 798.074 24.174, 802.153 29.338, 807.649 25.612, 813.561 18.563, 811.059 14.581, 812.017 14.496, 812.209 13.673, 814.285 13.654, 814.340 15.985, 817.540 22.790, 821.297 " fill="none" stroke="rgb(0, 0, 0)" stroke-linecap="round" stroke-linejoin="round" stroke-opacity="1.0" stroke-width="2.0" />
            <path d=" M 42.740, 855.556 41.873, 854.688 40.985, 853.697 40.148, 852.654 39.365, 851.562 38.637, 850.425 37.967, 849.243 37.356, 848.022 36.804, 846.762 36.315, 845.468 35.888, 844.142 35.526, 842.789 35.228, 841.410 34.995, 840.009 34.829, 838.590 34.729, 837.156 34.695, 835.711 34.729, 834.257 34.829, 832.799 34.995, 831.340 35.228, 829.884 35.526, 828.434 35.888, 826.993 36.315, 825.565 36.804, 824.154 37.356, 822.763 37.967, 821.394 38.637, 820.053 39.365, 818.741 40.148, 817.461 40.985, 816.218 41.873, 815.014 42.811, 813.852 43.796, 812.734 44.826, 811.664 45.898, 810.643 47.010, 809.675 48.159, 808.762 49.342, 807.906 50.557, 807.109 51.800, 806.372 53.069, 805.699 54.360, 805.089 55.671, 804.546 56.998, 804.069 58.338, 803.661 59.688, 803.322 61.044, 803.053 62.404, 802.854 63.763, 802.727 65.120, 802.671 66.469, 802.687 67.809, 802.775 69.136, 802.933 70.447, 803.163 71.531, 803.415 " fill="none" stroke="rgb(0, 0, 0)" stroke-linecap="round" stroke-linejoin="round" stroke-opacity="1.0" stroke-width="2.0" />
            <path d=" M 66.113, 799.536 64.930, 798.963 63.715, 798.456 62.472, 798.018 61.203, 797.648 59.911, 797.348 58.601, 797.118 57.274, 796.959 55.934, 796.872 54.621, 796.856 54.584, 796.856 53.227, 796.911 51.868, 797.039 50.508, 797.237 49.152, 797.506 48.912, 797.566 47.802, 797.845 46.462, 798.253 45.135, 798.730 43.825, 799.274 42.533, 799.883 41.264, 800.557 40.021, 801.293 38.806, 802.090 38.450, 802.348 37.623, 802.947 36.474, 803.860 36.444, 803.886 35.362, 804.828 34.290, 805.848 33.260, 806.919 32.275, 808.036 31.337, 809.198 30.449, 810.403 29.612, 811.646 28.829, 812.925 28.101, 814.237 27.431, 815.579 26.820, 816.947 26.269, 818.338 25.779, 819.750 25.352, 821.177 25.321, 821.304 25.013, 822.524 24.990, 822.618 24.692, 824.069 24.459, 825.525 24.293, 826.984 24.193, 828.442 24.159, 829.895 24.193, 831.340 24.293, 832.774 24.459, 834.193 24.621, 835.169 24.692, 835.594 24.990, 836.973 25.353, 838.327 25.779, 839.652 25.961, 840.135 26.269, 840.947 26.820, 842.206 27.431, 843.428 28.102, 844.609 28.829, 845.747 29.612, 846.839 30.449, 847.881 31.337, 848.873 31.713, 849.249 32.275, 849.811 33.260, 850.692 34.290, 851.516 35.273, 852.217 35.362, 852.280 36.474, 852.981 37.623, 853.619 38.806, 854.192 40.021, 854.699 41.264, 855.138 42.533, 855.507 42.740, 855.556 43.825, 855.808 45.135, 856.037 46.462, 856.196 47.802, 856.284 49.152, 856.299 50.508, 856.244 51.868, 856.117 53.228, 855.918 54.584, 855.649 55.934, 855.310 57.274, 854.902 58.601, 854.425 59.911, 853.882 61.203, 853.272 62.472, 852.598 63.715, 851.862 64.930, 851.065 66.113, 850.208 67.262, 849.295 68.374, 848.327 69.446, 847.307 70.476, 846.237 71.461, 845.119 72.399, 843.957 73.287, 842.753 74.124, 841.509 74.907, 840.230 75.634, 838.918 76.305, 837.577 76.916, 836.208 77.467, 834.817 77.957, 833.406 78.383, 831.978 78.746, 830.537 79.044, 829.087 79.277, 827.630 79.443, 826.172 79.543, 824.714 79.576, 823.260 79.543, 821.815 79.443, 820.381 79.277, 818.962 79.044, 817.561 78.746, 816.182 78.383, 814.828 77.957, 813.503 77.467, 812.209 76.916, 810.949 76.305, 809.727 75.634, 808.546 74.907, 807.408 74.124, 806.317 73.287, 805.274 72.399, 804.282 71.531, 803.415 71.461, 803.345 70.476, 802.463 69.446, 801.639 68.374, 800.876 67.262, 800.174 66.113, 799.536 " fill="none" stroke="rgb(0, 0, 0)" stroke-linecap="round" stroke-linejoin="round" stroke-opacity="1.0" stroke-width="2.0" />
            <path d=" M 89.567, 827.153 82.019, 826.346 " fill="none" stroke="rgb(0, 0, 0)" stroke-linecap="round" stroke-linejoin="round" stroke-opacity="1.0" stroke-width="2.0" />
            <path d=" M 84.541, 851.747 91.177, 855.410 95.157, 855.344 95.609, 854.672 96.500, 853.217 94.902, 849.498 88.659, 845.410 91.237, 838.929 98.786, 839.735 102.583, 837.929 102.951, 836.137 103.053, 835.494 100.103, 832.968 92.555, 828.802 " fill="none" stroke="rgb(0, 0, 0)" stroke-linecap="round" stroke-linejoin="round" stroke-opacity="1.0" stroke-width="2.0" />
            <path d=" M 92.518, 813.743 90.108, 816.384 89.567, 816.975 88.391, 817.383 82.019, 819.589 " fill="none" stroke="rgb(0, 0, 0)" stroke-linecap="round" stroke-linejoin="round" stroke-opacity="1.0" stroke-width="2.0" />
            <path d=" M 82.019, 826.346 82.019, 819.589 90.774, 824.422 92.555, 825.405 " fill="none" stroke="rgb(0, 0, 0)" stroke-linecap="round" stroke-linejoin="round" stroke-opacity="1.0" stroke-width="2.0" />
            <path d=" M 92.555, 828.802 92.555, 825.405 100.103, 822.791 103.053, 819.559 102.951, 818.941 102.583, 817.237 93.828, 812.405 92.047, 811.421 90.843, 811.137 88.250, 810.524 85.645, 811.426 84.430, 811.847 80.702, 813.138 " fill="none" stroke="rgb(0, 0, 0)" stroke-linecap="round" stroke-linejoin="round" stroke-opacity="1.0" stroke-width="2.0" />
            <path d=" M 89.567, 827.153 92.518, 829.678 " fill="none" stroke="rgb(0, 0, 0)" stroke-linecap="round" stroke-linejoin="round" stroke-opacity="1.0" stroke-width="2.0" />
            <path d=" M 92.047, 832.113 92.090, 831.905 92.415, 830.321 92.518, 829.678 92.555, 829.699 101.310, 834.532 103.053, 835.494 " fill="none" stroke="rgb(0, 0, 0)" stroke-linecap="round" stroke-linejoin="round" stroke-opacity="1.0" stroke-width="2.0" />
            <path d=" M 103.053, 819.559 94.299, 814.726 92.518, 813.743 92.415, 813.125 92.047, 811.421 " fill="none" stroke="rgb(0, 0, 0)" stroke-linecap="round" stroke-linejoin="round" stroke-opacity="1.0" stroke-width="2.0" />
            <path d=" M 78.124, 807.274 85.645, 811.426 " fill="none" stroke="rgb(0, 0, 0)" stroke-linecap="round" stroke-linejoin="round" stroke-opacity="1.0" stroke-width="2.0" />
            <path d=" M 85.964, 797.589 84.367, 801.691 80.964, 804.734 80.173, 805.441 78.124, 807.274 80.702, 813.138 " fill="none" stroke="rgb(0, 0, 0)" stroke-linecap="round" stroke-linejoin="round" stroke-opacity="1.0" stroke-width="2.0" />
            <path d=" M 90.843, 811.137 94.902, 807.507 96.500, 803.405 95.609, 802.164 95.157, 801.599 86.402, 796.767 84.621, 795.784 84.078, 795.905 80.641, 796.671 75.337, 801.414 74.398, 802.254 " fill="none" stroke="rgb(0, 0, 0)" stroke-linecap="round" stroke-linejoin="round" stroke-opacity="1.0" stroke-width="2.0" />
            <path d=" M 96.500, 803.405 87.745, 798.572 85.964, 797.589 85.074, 796.348 84.621, 795.784 " fill="none" stroke="rgb(0, 0, 0)" stroke-linecap="round" stroke-linejoin="round" stroke-opacity="1.0" stroke-width="2.0" />
            <path d=" M 73.514, 786.449 73.546, 790.710 69.688, 798.297 " fill="none" stroke="rgb(0, 0, 0)" stroke-linecap="round" stroke-linejoin="round" stroke-opacity="1.0" stroke-width="2.0" />
            <path d=" M 74.398, 802.254 69.688, 798.297 75.337, 801.414 " fill="none" stroke="rgb(0, 0, 0)" stroke-linecap="round" stroke-linejoin="round" stroke-opacity="1.0" stroke-width="2.0" />
            <path d=" M 84.049, 792.264 75.295, 787.432 73.514, 786.449 73.122, 786.231 71.543, 785.467 68.058, 787.989 67.933, 788.233 64.199, 795.575 62.871, 795.274 58.171, 794.209 " fill="none" stroke="rgb(0, 0, 0)" stroke-linecap="round" stroke-linejoin="round" stroke-opacity="1.0" stroke-width="2.0" />
            <path d=" M 84.078, 795.905 84.049, 792.264 83.657, 792.046 74.903, 787.214 73.122, 786.231 " fill="none" stroke="rgb(0, 0, 0)" stroke-linecap="round" stroke-linejoin="round" stroke-opacity="1.0" stroke-width="2.0" />
            <path d=" M 57.321, 782.249 58.978, 785.931 58.171, 794.209 " fill="none" stroke="rgb(0, 0, 0)" stroke-linecap="round" stroke-linejoin="round" stroke-opacity="1.0" stroke-width="2.0" />
            <path d=" M 67.933, 788.233 67.857, 788.064 59.102, 783.232 57.321, 782.249 55.920, 782.232 55.051, 782.268 52.675, 785.979 52.029, 792.605 51.868, 794.257 48.023, 795.148 45.565, 795.718 " fill="none" stroke="rgb(0, 0, 0)" stroke-linecap="round" stroke-linejoin="round" stroke-opacity="1.0" stroke-width="2.0" />
            <path d=" M 40.183, 785.709 43.180, 788.180 45.565, 795.718 " fill="none" stroke="rgb(0, 0, 0)" stroke-linecap="round" stroke-linejoin="round" stroke-opacity="1.0" stroke-width="2.0" />
            <path d=" M 52.029, 792.605 50.719, 791.525 41.964, 786.692 40.183, 785.709 39.867, 785.840 38.018, 786.712 37.152, 790.990 39.537, 798.528 36.103, 801.053 35.111, 801.782 34.048, 802.564 " fill="none" stroke="rgb(0, 0, 0)" stroke-linecap="round" stroke-linejoin="round" stroke-opacity="1.0" stroke-width="2.0" />
            <path d=" M 28.884, 797.068 34.048, 802.564 " fill="none" stroke="rgb(0, 0, 0)" stroke-linecap="round" stroke-linejoin="round" stroke-opacity="1.0" stroke-width="2.0" />
            <path d=" M 22.926, 839.489 21.090, 838.557 12.336, 833.724 10.555, 832.741 10.527, 831.527 10.555, 830.306 14.000, 827.733 21.717, 826.809 22.790, 821.297 23.034, 820.042 15.985, 817.540 " fill="none" stroke="rgb(0, 0, 0)" stroke-linecap="round" stroke-linejoin="round" stroke-opacity="1.0" stroke-width="2.0" />
            <path d=" M 21.717, 833.566 14.000, 834.490 10.555, 832.741 " fill="none" stroke="rgb(0, 0, 0)" stroke-linecap="round" stroke-linejoin="round" stroke-opacity="1.0" stroke-width="2.0" />
            <path d=" M 37.686, 868.198 35.608, 869.146 26.853, 864.314 25.072, 863.331 24.105, 862.557 23.375, 861.904 24.174, 857.633 25.517, 855.883 29.338, 850.901 28.023, 849.130 25.612, 845.881 18.563, 850.071 14.581, 850.067 " fill="none" stroke="rgb(0, 0, 0)" stroke-linecap="round" stroke-linejoin="round" stroke-opacity="1.0" stroke-width="2.0" />
            <path d=" M 34.048, 854.859 28.884, 861.590 25.072, 863.331 " fill="none" stroke="rgb(0, 0, 0)" stroke-linecap="round" stroke-linejoin="round" stroke-opacity="1.0" stroke-width="2.0" />
            <path d=" M 39.537, 857.580 39.459, 857.845 37.152, 865.689 37.686, 868.198 38.018, 869.759 46.773, 874.592 48.554, 875.575 50.403, 876.005 50.719, 876.060 53.716, 872.871 54.671, 869.623 " fill="none" stroke="rgb(0, 0, 0)" stroke-linecap="round" stroke-linejoin="round" stroke-opacity="1.0" stroke-width="2.0" />
            <path d=" M 39.537, 857.580 34.048, 854.859 39.459, 857.845 " fill="none" stroke="rgb(0, 0, 0)" stroke-linecap="round" stroke-linejoin="round" stroke-opacity="1.0" stroke-width="2.0" />
            <path d=" M 40.183, 870.244 39.867, 870.189 38.018, 869.759 " fill="none" stroke="rgb(0, 0, 0)" stroke-linecap="round" stroke-linejoin="round" stroke-opacity="1.0" stroke-width="2.0" />
            <path d=" M 45.565, 858.946 45.068, 860.633 44.996, 860.879 43.180, 867.056 40.183, 870.244 48.938, 875.077 50.719, 876.060 " fill="none" stroke="rgb(0, 0, 0)" stroke-linecap="round" stroke-linejoin="round" stroke-opacity="1.0" stroke-width="2.0" />
            <path d=" M 51.868, 858.898 52.081, 861.035 52.240, 862.631 52.675, 866.983 54.671, 869.623 55.051, 870.125 63.805, 874.958 65.586, 875.941 66.456, 875.768 67.857, 875.416 69.514, 871.337 68.707, 863.252 70.283, 862.518 " fill="none" stroke="rgb(0, 0, 0)" stroke-linecap="round" stroke-linejoin="round" stroke-opacity="1.0" stroke-width="2.0" />
            <path d=" M 51.868, 858.898 48.913, 858.921 47.255, 858.933 47.250, 858.933 45.565, 858.946 52.240, 862.631 " fill="none" stroke="rgb(0, 0, 0)" stroke-linecap="round" stroke-linejoin="round" stroke-opacity="1.0" stroke-width="2.0" />
            <path d=" M 57.321, 869.601 55.920, 869.953 55.051, 870.125 " fill="none" stroke="rgb(0, 0, 0)" stroke-linecap="round" stroke-linejoin="round" stroke-opacity="1.0" stroke-width="2.0" />
            <path d=" M 68.707, 863.252 59.952, 858.420 58.171, 857.437 " fill="none" stroke="rgb(0, 0, 0)" stroke-linecap="round" stroke-linejoin="round" stroke-opacity="1.0" stroke-width="2.0" />
            <path d=" M 68.058, 861.290 67.739, 860.739 64.199, 854.627 58.171, 857.437 58.693, 862.665 58.900, 864.740 58.978, 865.522 57.321, 869.601 66.076, 874.433 67.857, 875.416 " fill="none" stroke="rgb(0, 0, 0)" stroke-linecap="round" stroke-linejoin="round" stroke-opacity="1.0" stroke-width="2.0" />
            <path d=" M 82.079, 868.793 73.324, 863.960 71.543, 862.977 " fill="none" stroke="rgb(0, 0, 0)" stroke-linecap="round" stroke-linejoin="round" stroke-opacity="1.0" stroke-width="2.0" />
            <path d=" M 73.514, 861.524 73.122, 861.835 71.543, 862.977 70.442, 862.444 68.058, 861.290 " fill="none" stroke="rgb(0, 0, 0)" stroke-linecap="round" stroke-linejoin="round" stroke-opacity="1.0" stroke-width="2.0" />
            <path d=" M 70.283, 862.518 78.593, 867.105 82.079, 868.793 83.658, 867.651 84.049, 867.339 84.082, 863.070 80.224, 856.407 84.541, 851.747 " fill="none" stroke="rgb(0, 0, 0)" stroke-linecap="round" stroke-linejoin="round" stroke-opacity="1.0" stroke-width="2.0" />
            <path d=" M 80.224, 856.407 71.469, 851.575 69.688, 850.592 " fill="none" stroke="rgb(0, 0, 0)" stroke-linecap="round" stroke-linejoin="round" stroke-opacity="1.0" stroke-width="2.0" />
            <path d=" M 80.641, 849.595 74.398, 845.507 69.688, 850.592 73.546, 857.254 73.527, 859.776 73.518, 861.010 73.514, 861.524 82.268, 866.356 84.049, 867.339 " fill="none" stroke="rgb(0, 0, 0)" stroke-linecap="round" stroke-linejoin="round" stroke-opacity="1.0" stroke-width="2.0" />
            <path d=" M 84.621, 849.529 81.770, 849.576 80.641, 849.595 " fill="none" stroke="rgb(0, 0, 0)" stroke-linecap="round" stroke-linejoin="round" stroke-opacity="1.0" stroke-width="2.0" />
            <path d=" M 95.157, 855.344 86.402, 850.512 84.621, 849.529 85.074, 848.856 85.964, 847.402 " fill="none" stroke="rgb(0, 0, 0)" stroke-linecap="round" stroke-linejoin="round" stroke-opacity="1.0" stroke-width="2.0" />
            <path d=" M 88.659, 845.410 79.905, 840.577 78.124, 839.594 " fill="none" stroke="rgb(0, 0, 0)" stroke-linecap="round" stroke-linejoin="round" stroke-opacity="1.0" stroke-width="2.0" />
            <path d=" M 80.702, 833.113 78.124, 839.594 84.367, 843.682 85.964, 847.402 94.719, 852.234 96.500, 853.217 " fill="none" stroke="rgb(0, 0, 0)" stroke-linecap="round" stroke-linejoin="round" stroke-opacity="1.0" stroke-width="2.0" />
            <path d=" M 102.583, 837.929 93.828, 833.096 92.047, 832.113 88.250, 833.920 80.702, 833.113 89.456, 837.945 91.237, 838.929 " fill="none" stroke="rgb(0, 0, 0)" stroke-linecap="round" stroke-linejoin="round" stroke-opacity="1.0" stroke-width="2.0" />
        </g>
    </g>
</svg>
