<?xml version='1.0' encoding='ascii'?>
<svg xmlns="http://www.w3.org/2000/svg" xmlns:inkscape="http://www.inkscape.org/namespaces/inkscape" height="1123" version="1.1" width="794">
    <g id="View Layer_LineSet" inkscape:groupmode="lineset" inkscape:label="View Layer_LineSet">
        <g id="fills" inkscape:groupmode="layer" inkscape:label="fills" xmlns:inkscape="http://www.inkscape.org/namespaces/inkscape">
            <path d=" M 705.135, 232.979 699.180, 232.266 697.543, 232.159 693.554, 236.704 691.250, 247.739 685.017, 247.987 684.685, 243.292 681.311, 239.044 670.775, 233.228 668.822, 233.513 662.735, 234.721 660.505, 235.281 657.821, 240.736 658.594, 251.649 649.910, 254.802 649.385, 253.439 644.868, 250.590 634.332, 244.774 633.033, 245.387 627.339, 248.410 624.753, 249.942 623.607, 255.825 627.389, 265.646 616.545, 273.619 606.755, 268.216 601.490, 267.022 600.852, 267.577 596.041, 272.156 593.459, 274.840 593.953, 280.631 600.408, 288.487 589.530, 302.288 580.718, 297.423 575.167, 297.999 575.051, 298.172 571.536, 303.912 569.402, 307.761 571.494, 312.950 580.047, 318.143 572.943, 334.720 563.051, 332.651 557.728, 334.946 555.935, 340.945 554.717, 345.782 558.224, 349.909 567.679, 355.128 565.677, 369.530 555.324, 370.769 550.707, 374.570 550.581, 380.065 550.707, 385.529 555.324, 388.225 565.860, 394.040 566.677, 393.942 568.117, 403.953 558.224, 408.391 554.717, 413.357 555.935, 417.903 557.728, 423.473 568.264, 429.288 573.587, 430.308 577.089, 428.737 580.047, 434.932 571.494, 442.173 569.402, 447.862 571.537, 451.200 575.051, 456.099 575.167, 456.244 585.703, 462.060 591.253, 461.306 597.126, 456.334 600.408, 459.712 593.953, 469.113 593.459, 475.023 596.041, 477.089 600.853, 480.516 601.490, 480.918 612.026, 486.734 617.291, 484.279 623.745, 474.878 627.212, 476.596 623.607, 486.818 624.753, 492.427 635.288, 498.243 637.875, 499.156 643.569, 500.815 644.868, 501.117 649.385, 497.186 653.167, 486.460 658.282, 487.092 657.821, 493.716 660.505, 498.528 671.041, 504.343 673.271, 504.370 679.357, 504.120 681.311, 503.937 684.685, 498.881 685.458, 487.783 692.917, 486.294 693.554, 489.192 697.543, 492.781 708.079, 498.596 709.716, 498.097 715.671, 495.959 718.117, 494.945 720.053, 489.212 717.749, 478.728 727.526, 473.467 727.631, 473.648 738.167, 479.464 743.112, 481.509 744.072, 480.879 749.382, 477.037 752.018, 474.942 752.347, 469.039 747.171, 460.101 758.389, 449.220 767.561, 454.283 773.029, 454.597 773.381, 454.198 777.589, 448.982 780.006, 445.706 778.698, 440.154 771.109, 433.556 780.333, 418.029 789.660, 421.701 795.163, 420.248 797.861, 414.211 799.595, 409.834 796.764, 405.124 787.795, 400.173 792.263, 384.195 802.500, 384.614 807.526, 381.531 808.454, 375.718 809.048, 370.511 804.941, 367.061 794.704, 361.411 794.704, 352.193 794.704, 349.187 804.941, 346.316 809.048, 341.883 808.454, 336.818 807.526, 331.228 796.990, 325.412 791.964, 323.533 789.839, 324.129 787.437, 316.117 796.764, 310.211 799.595, 304.823 797.861, 300.862 795.163, 295.471 784.627, 289.655 779.124, 289.520 774.322, 292.560 771.109, 287.923 778.698, 279.507 780.005, 273.642 777.589, 270.945 773.381, 266.737 773.029, 266.422 762.493, 260.607 757.025, 262.230 750.459, 269.511 747.171, 267.110 752.347, 256.932 752.018, 251.108 749.382, 249.644 738.846, 243.829 733.536, 241.258 732.577, 240.858 727.631, 244.087 722.455, 254.264 718.274, 253.015 720.053, 244.492 718.117, 239.223 707.581, 233.407 705.135, 232.979  z M 685.458, 348.356 686.500, 348.259 687.540, 348.216 688.574, 348.228 689.601, 348.295 690.618, 348.417 691.009, 348.485 691.337, 348.852 691.978, 349.651 692.579, 350.487 693.136, 351.359 693.650, 352.265 694.119, 353.201 694.541, 354.166 694.916, 355.158 695.243, 356.174 695.521, 357.212 695.749, 358.268 695.927, 359.342 696.055, 360.429 696.132, 361.528 696.157, 362.636 696.132, 363.750 696.055, 364.867 695.927, 365.985 695.749, 367.101 695.521, 368.213 695.243, 369.317 694.916, 370.411 694.541, 371.492 694.119, 372.559 693.650, 373.607 693.136, 374.636 692.579, 375.641 691.978, 376.622 691.337, 377.574 690.656, 378.497 689.938, 379.388 689.183, 380.244 688.394, 381.065 687.572, 381.847 686.720, 382.588 685.839, 383.288 684.932, 383.944 684.001, 384.556 683.049, 385.120 682.076, 385.636 681.087, 386.103 680.082, 386.520 679.065, 386.885 678.038, 387.198 677.004, 387.458 675.964, 387.664 674.922, 387.816 673.880, 387.913 672.841, 387.956 671.807, 387.944 670.780, 387.877 669.763, 387.755 669.372, 387.687 669.043, 387.320 668.402, 386.521 667.802, 385.685 667.244, 384.813 666.731, 383.907 666.262, 382.971 665.840, 382.006 665.464, 381.014 665.138, 379.998 664.860, 378.961 664.631, 377.904 664.453, 376.830 664.325, 375.743 664.249, 374.644 664.223, 373.536 664.249, 372.422 664.325, 371.305 664.453, 370.187 664.631, 369.071 664.860, 367.959 665.138, 366.855 665.464, 365.761 665.840, 364.680 666.262, 363.613 666.731, 362.565 667.244, 361.536 667.802, 360.531 668.402, 359.551 669.043, 358.598 669.724, 357.675 670.443, 356.784 671.198, 355.928 671.987, 355.107 672.809, 354.325 673.661, 353.584 674.541, 352.884 675.448, 352.228 676.379, 351.617 677.332, 351.052 678.304, 350.536 679.294, 350.069 680.299, 349.652 681.315, 349.287 682.342, 348.974 683.377, 348.714 684.416, 348.508 685.458, 348.356  z" fill="rgb(204, 0, 0)" fill-opacity="1.0" fill_rule="evenodd" stroke="none" />
        </g>
        <g id="strokes" inkscape:groupmode="layer" inkscape:label="strokes">
            <path d=" M 718.274, 253.015 720.053, 244.492 718.117, 239.223 709.362, 234.390 707.581, 233.407 705.135, 232.979 699.180, 232.266 697.543, 232.159 693.554, 236.704 691.510, 246.493 691.250, 247.739 685.017, 247.987 675.025, 248.385 674.922, 248.389 " fill="none" stroke="rgb(0, 0, 0)" stroke-linecap="round" stroke-linejoin="round" stroke-opacity="1.0" stroke-width="2.0" />
            <path d=" M 750.459, 269.511 747.171, 267.110 751.704, 258.196 752.347, 256.932 752.018, 251.108 749.382, 249.644 740.627, 244.812 738.846, 243.829 733.536, 241.258 732.577, 240.858 727.631, 244.087 723.098, 253.000 722.455, 254.264 718.274, 253.015 708.692, 250.154 707.213, 249.712 " fill="none" stroke="rgb(0, 0, 0)" stroke-linecap="round" stroke-linejoin="round" stroke-opacity="1.0" stroke-width="2.0" />
            <path d=" M 762.493, 260.607 762.845, 260.921 767.053, 265.129 769.470, 267.827 " fill="none" stroke="rgb(0, 0, 0)" stroke-linecap="round" stroke-linejoin="round" stroke-opacity="1.0" stroke-width="2.0" />
            <path d=" M 774.322, 292.560 771.109, 287.923 777.806, 280.496 778.698, 279.507 780.005, 273.642 777.589, 270.945 773.381, 266.737 773.029, 266.422 764.274, 261.590 762.493, 260.607 757.025, 262.230 750.459, 269.511 749.437, 270.645 " fill="none" stroke="rgb(0, 0, 0)" stroke-linecap="round" stroke-linejoin="round" stroke-opacity="1.0" stroke-width="2.0" />
            <path d=" M 769.470, 439.891 767.053, 443.166 762.845, 448.382 762.493, 448.781 " fill="none" stroke="rgb(0, 0, 0)" stroke-linecap="round" stroke-linejoin="round" stroke-opacity="1.0" stroke-width="2.0" />
            <path d=" M 758.389, 449.220 767.144, 454.053 767.561, 454.283 773.029, 454.597 773.381, 454.198 777.589, 448.982 780.006, 445.706 778.698, 440.154 771.109, 433.556 776.217, 424.959 780.333, 418.029 789.660, 421.701 795.163, 420.248 " fill="none" stroke="rgb(0, 0, 0)" stroke-linecap="round" stroke-linejoin="round" stroke-opacity="1.0" stroke-width="2.0" />
            <path d=" M 741.482, 469.126 738.846, 471.221 733.536, 475.064 732.577, 475.694 " fill="none" stroke="rgb(0, 0, 0)" stroke-linecap="round" stroke-linejoin="round" stroke-opacity="1.0" stroke-width="2.0" />
            <path d=" M 722.455, 464.711 727.467, 473.364 727.526, 473.467 727.631, 473.648 736.386, 478.481 738.167, 479.464 743.112, 481.509 744.072, 480.879 749.382, 477.037 752.018, 474.942 752.347, 469.039 747.336, 460.385 747.171, 460.101 754.349, 453.139 758.389, 449.220 " fill="none" stroke="rgb(0, 0, 0)" stroke-linecap="round" stroke-linejoin="round" stroke-opacity="1.0" stroke-width="2.0" />
            <path d=" M 707.581, 489.129 705.135, 490.143 699.180, 492.282 697.543, 492.781 " fill="none" stroke="rgb(0, 0, 0)" stroke-linecap="round" stroke-linejoin="round" stroke-opacity="1.0" stroke-width="2.0" />
            <path d=" M 691.250, 478.708 692.917, 486.294 693.554, 489.192 697.543, 492.781 706.298, 497.613 708.079, 498.596 709.716, 498.097 715.671, 495.959 718.117, 494.945 720.053, 489.212 717.907, 479.445 717.749, 478.728 726.555, 473.989 727.526, 473.467 " fill="none" stroke="rgb(0, 0, 0)" stroke-linecap="round" stroke-linejoin="round" stroke-opacity="1.0" stroke-width="2.0" />
            <path d=" M 670.775, 498.121 668.821, 498.304 662.735, 498.554 660.505, 498.528 " fill="none" stroke="rgb(0, 0, 0)" stroke-linecap="round" stroke-linejoin="round" stroke-opacity="1.0" stroke-width="2.0" />
            <path d=" M 658.594, 482.618 658.282, 487.092 657.821, 493.716 660.505, 498.528 669.260, 503.360 671.041, 504.343 673.271, 504.370 679.357, 504.120 681.311, 503.937 684.685, 498.881 685.380, 488.905 685.458, 487.783 692.917, 486.294 " fill="none" stroke="rgb(0, 0, 0)" stroke-linecap="round" stroke-linejoin="round" stroke-opacity="1.0" stroke-width="2.0" />
            <path d=" M 634.332, 495.302 633.033, 495.000 627.339, 493.340 624.753, 492.427 " fill="none" stroke="rgb(0, 0, 0)" stroke-linecap="round" stroke-linejoin="round" stroke-opacity="1.0" stroke-width="2.0" />
            <path d=" M 627.389, 476.092 627.212, 476.596 623.886, 486.027 623.607, 486.818 624.753, 492.427 633.507, 497.260 635.288, 498.243 637.875, 499.156 643.569, 500.815 644.868, 501.117 649.385, 497.186 652.710, 487.755 653.167, 486.460 658.282, 487.092 " fill="none" stroke="rgb(0, 0, 0)" stroke-linecap="round" stroke-linejoin="round" stroke-opacity="1.0" stroke-width="2.0" />
            <path d=" M 589.271, 448.249 596.240, 455.422 597.126, 456.334 600.408, 459.712 594.748, 467.956 593.953, 469.113 593.459, 475.023 596.041, 477.089 600.853, 480.516 601.490, 480.918 610.245, 485.750 612.026, 486.734 617.291, 484.279 622.951, 476.035 623.745, 474.878 627.212, 476.596 " fill="none" stroke="rgb(0, 0, 0)" stroke-linecap="round" stroke-linejoin="round" stroke-opacity="1.0" stroke-width="2.0" />
            <path d=" M 572.943, 420.055 577.089, 428.737 580.047, 434.932 572.415, 441.393 571.494, 442.173 569.402, 447.862 571.537, 451.200 575.051, 456.099 575.167, 456.244 583.922, 461.076 585.703, 462.060 591.253, 461.306 597.126, 456.334 " fill="none" stroke="rgb(0, 0, 0)" stroke-linecap="round" stroke-linejoin="round" stroke-opacity="1.0" stroke-width="2.0" />
            <path d=" M 589.530, 302.288 580.718, 297.423 575.167, 297.999 575.051, 298.172 571.536, 303.912 569.402, 307.761 571.494, 312.950 580.047, 318.143 576.108, 327.334 572.943, 334.720 563.155, 332.673 563.051, 332.651 557.728, 334.946 555.935, 340.945 554.717, 345.782 558.224, 349.909 566.979, 354.741 567.679, 355.128 " fill="none" stroke="rgb(0, 0, 0)" stroke-linecap="round" stroke-linejoin="round" stroke-opacity="1.0" stroke-width="2.0" />
            <path d=" M 616.545, 273.619 607.790, 268.787 606.755, 268.216 601.490, 267.022 600.852, 267.577 596.041, 272.156 593.459, 274.840 593.953, 280.631 600.302, 288.358 600.408, 288.487 594.218, 296.341 589.530, 302.288 589.271, 302.616 " fill="none" stroke="rgb(0, 0, 0)" stroke-linecap="round" stroke-linejoin="round" stroke-opacity="1.0" stroke-width="2.0" />
            <path d=" M 649.910, 254.802 649.385, 253.439 644.868, 250.590 636.113, 245.757 634.332, 244.774 633.033, 245.387 627.339, 248.410 624.753, 249.942 623.607, 255.825 627.201, 265.157 627.389, 265.646 619.333, 271.569 616.545, 273.619 616.292, 273.805 613.209, 276.071 " fill="none" stroke="rgb(0, 0, 0)" stroke-linecap="round" stroke-linejoin="round" stroke-opacity="1.0" stroke-width="2.0" />
            <path d=" M 685.017, 247.987 684.685, 243.292 681.311, 239.044 672.556, 234.211 670.775, 233.228 668.822, 233.513 662.735, 234.721 660.505, 235.281 657.821, 240.736 658.528, 250.711 658.594, 251.649 649.910, 254.802 642.631, 257.444 " fill="none" stroke="rgb(0, 0, 0)" stroke-linecap="round" stroke-linejoin="round" stroke-opacity="1.0" stroke-width="2.0" />
            <path d=" M 669.372, 387.687 669.043, 387.320 668.402, 386.521 667.802, 385.685 667.244, 384.813 666.731, 383.907 666.262, 382.971 665.840, 382.006 665.464, 381.014 665.138, 379.998 664.860, 378.961 664.631, 377.904 664.453, 376.830 664.325, 375.743 664.249, 374.644 664.223, 373.536 664.249, 372.422 664.325, 371.305 664.453, 370.187 664.631, 369.071 664.860, 367.959 665.138, 366.855 665.464, 365.761 665.840, 364.680 666.262, 363.613 666.731, 362.565 667.244, 361.536 667.802, 360.531 668.402, 359.551 669.043, 358.598 669.724, 357.675 670.443, 356.784 671.198, 355.928 671.987, 355.107 672.809, 354.325 673.661, 353.584 674.541, 352.884 675.448, 352.228 676.379, 351.617 677.332, 351.052 678.304, 350.536 679.294, 350.069 680.299, 349.652 681.315, 349.287 682.342, 348.974 683.377, 348.714 684.416, 348.508 685.458, 348.356 686.500, 348.259 687.540, 348.216 688.574, 348.228 689.601, 348.295 690.618, 348.417 691.009, 348.485 " fill="none" stroke="rgb(0, 0, 0)" stroke-linecap="round" stroke-linejoin="round" stroke-opacity="1.0" stroke-width="2.0" />
            <path d=" M 685.839, 344.454 684.932, 344.015 684.001, 343.627 683.049, 343.291 682.076, 343.007 681.086, 342.777 680.082, 342.601 679.065, 342.479 678.038, 342.412 677.004, 342.400 675.964, 342.443 674.922, 342.540 673.880, 342.693 672.841, 342.899 671.807, 343.159 670.780, 343.471 669.763, 343.837 668.758, 344.253 667.768, 344.720 666.796, 345.237 665.843, 345.801 664.912, 346.412 664.005, 347.068 663.125, 347.768 662.273, 348.510 661.451, 349.292 660.662, 350.112 659.907, 350.969 659.188, 351.859 658.507, 352.782 657.866, 353.735 657.266, 354.715 656.708, 355.721 656.195, 356.749 655.726, 357.798 655.304, 358.864 654.929, 359.946 654.602, 361.040 654.324, 362.144 654.095, 363.255 653.917, 364.371 653.790, 365.490 653.713, 366.607 653.687, 367.721 653.713, 368.828 653.790, 369.927 653.917, 371.015 654.095, 372.088 654.324, 373.145 654.602, 374.183 654.929, 375.198 655.304, 376.190 655.726, 377.155 656.195, 378.092 656.708, 378.997 657.266, 379.869 657.866, 380.706 658.508, 381.505 659.188, 382.265 659.907, 382.983 660.662, 383.659 661.451, 384.290 662.273, 384.876 663.125, 385.413 664.005, 385.902 664.912, 386.341 665.843, 386.730 666.796, 387.066 667.768, 387.349 668.758, 387.579 669.372, 387.687 669.763, 387.755 670.780, 387.877 671.807, 387.944 672.841, 387.956 673.880, 387.913 674.922, 387.816 675.964, 387.664 677.004, 387.458 678.038, 387.198 679.065, 386.885 680.082, 386.520 681.087, 386.103 682.076, 385.636 683.049, 385.120 684.001, 384.556 684.932, 383.944 685.839, 383.288 686.720, 382.588 687.572, 381.847 688.394, 381.065 689.183, 380.244 689.938, 379.388 690.656, 378.497 691.337, 377.574 691.978, 376.622 692.579, 375.641 693.136, 374.636 693.650, 373.607 694.119, 372.559 694.541, 371.492 694.916, 370.411 695.243, 369.317 695.521, 368.213 695.749, 367.101 695.927, 365.985 696.055, 364.867 696.132, 363.750 696.157, 362.636 696.132, 361.528 696.055, 360.429 695.927, 359.342 695.749, 358.268 695.521, 357.212 695.243, 356.174 694.916, 355.158 694.541, 354.166 694.119, 353.201 693.650, 352.265 693.136, 351.359 692.579, 350.487 691.978, 349.651 691.337, 348.852 691.009, 348.485 690.656, 348.092 689.938, 347.373 689.183, 346.697 688.394, 346.066 687.572, 345.481 686.720, 344.943 685.839, 344.454 " fill="none" stroke="rgb(0, 0, 0)" stroke-linecap="round" stroke-linejoin="round" stroke-opacity="1.0" stroke-width="2.0" />
            <path d=" M 794.405, 361.246 784.413, 360.837 784.168, 360.826 " fill="none" stroke="rgb(0, 0, 0)" stroke-linecap="round" stroke-linejoin="round" stroke-opacity="1.0" stroke-width="2.0" />
            <path d=" M 794.405, 340.501 784.776, 343.201 784.168, 343.371 " fill="none" stroke="rgb(0, 0, 0)" stroke-linecap="round" stroke-linejoin="round" stroke-opacity="1.0" stroke-width="2.0" />
            <path d=" M 784.168, 360.826 784.168, 350.826 784.168, 343.371 792.923, 348.204 794.704, 349.187 " fill="none" stroke="rgb(0, 0, 0)" stroke-linecap="round" stroke-linejoin="round" stroke-opacity="1.0" stroke-width="2.0" />
            <path d=" M 796.990, 325.412 791.964, 323.533 789.839, 324.129 781.728, 326.403 " fill="none" stroke="rgb(0, 0, 0)" stroke-linecap="round" stroke-linejoin="round" stroke-opacity="1.0" stroke-width="2.0" />
            <path d=" M 789.059, 299.008 786.229, 304.396 777.780, 309.745 776.901, 310.301 " fill="none" stroke="rgb(0, 0, 0)" stroke-linecap="round" stroke-linejoin="round" stroke-opacity="1.0" stroke-width="2.0" />
            <path d=" M 781.728, 326.403 778.857, 316.824 776.901, 310.301 785.656, 315.134 787.437, 316.117 " fill="none" stroke="rgb(0, 0, 0)" stroke-linecap="round" stroke-linejoin="round" stroke-opacity="1.0" stroke-width="2.0" />
            <path d=" M 789.839, 324.129 787.437, 316.117 795.886, 310.767 796.764, 310.211 " fill="none" stroke="rgb(0, 0, 0)" stroke-linecap="round" stroke-linejoin="round" stroke-opacity="1.0" stroke-width="2.0" />
            <path d=" M 799.595, 304.823 790.840, 299.991 789.059, 299.008 787.325, 295.046 784.627, 289.655 " fill="none" stroke="rgb(0, 0, 0)" stroke-linecap="round" stroke-linejoin="round" stroke-opacity="1.0" stroke-width="2.0" />
            <path d=" M 795.163, 295.471 786.408, 290.638 784.627, 289.655 779.124, 289.520 774.322, 292.560 769.797, 295.425 " fill="none" stroke="rgb(0, 0, 0)" stroke-linecap="round" stroke-linejoin="round" stroke-opacity="1.0" stroke-width="2.0" />
            <path d=" M 780.005, 273.642 771.251, 268.810 769.470, 267.827 768.162, 273.692 761.465, 281.118 760.574, 282.107 " fill="none" stroke="rgb(0, 0, 0)" stroke-linecap="round" stroke-linejoin="round" stroke-opacity="1.0" stroke-width="2.0" />
            <path d=" M 769.797, 295.425 764.104, 287.204 760.574, 282.107 769.328, 286.939 771.109, 287.923 " fill="none" stroke="rgb(0, 0, 0)" stroke-linecap="round" stroke-linejoin="round" stroke-opacity="1.0" stroke-width="2.0" />
            <path d=" M 741.482, 245.293 741.811, 251.117 737.278, 260.030 736.635, 261.294 " fill="none" stroke="rgb(0, 0, 0)" stroke-linecap="round" stroke-linejoin="round" stroke-opacity="1.0" stroke-width="2.0" />
            <path d=" M 749.437, 270.645 741.361, 264.746 736.635, 261.294 745.390, 266.127 747.171, 267.110 " fill="none" stroke="rgb(0, 0, 0)" stroke-linecap="round" stroke-linejoin="round" stroke-opacity="1.0" stroke-width="2.0" />
            <path d=" M 752.018, 251.108 743.263, 246.276 741.482, 245.293 738.846, 243.829 " fill="none" stroke="rgb(0, 0, 0)" stroke-linecap="round" stroke-linejoin="round" stroke-opacity="1.0" stroke-width="2.0" />
            <path d=" M 707.581, 233.407 709.517, 238.677 707.474, 248.466 707.213, 249.712 " fill="none" stroke="rgb(0, 0, 0)" stroke-linecap="round" stroke-linejoin="round" stroke-opacity="1.0" stroke-width="2.0" />
            <path d=" M 670.775, 233.228 674.149, 237.477 674.856, 247.452 674.922, 248.389 " fill="none" stroke="rgb(0, 0, 0)" stroke-linecap="round" stroke-linejoin="round" stroke-opacity="1.0" stroke-width="2.0" />
            <path d=" M 634.332, 244.774 638.849, 247.623 642.443, 256.955 642.631, 257.444 " fill="none" stroke="rgb(0, 0, 0)" stroke-linecap="round" stroke-linejoin="round" stroke-opacity="1.0" stroke-width="2.0" />
            <path d=" M 606.755, 268.216 613.103, 275.942 613.209, 276.071 " fill="none" stroke="rgb(0, 0, 0)" stroke-linecap="round" stroke-linejoin="round" stroke-opacity="1.0" stroke-width="2.0" />
            <path d=" M 580.718, 297.423 589.271, 302.616 " fill="none" stroke="rgb(0, 0, 0)" stroke-linecap="round" stroke-linejoin="round" stroke-opacity="1.0" stroke-width="2.0" />
            <path d=" M 566.677, 393.942 565.860, 394.040 557.105, 389.208 555.324, 388.225 550.707, 385.529 550.581, 380.065 550.707, 374.570 555.324, 370.769 565.253, 369.581 565.677, 369.530 567.054, 359.625 567.679, 355.128 567.760, 354.547 568.117, 351.977 558.329, 349.931 558.224, 349.909 " fill="none" stroke="rgb(0, 0, 0)" stroke-linecap="round" stroke-linejoin="round" stroke-opacity="1.0" stroke-width="2.0" />
            <path d=" M 577.089, 428.737 573.587, 430.308 568.264, 429.288 559.509, 424.456 557.728, 423.473 555.935, 417.903 554.717, 413.357 558.224, 408.391 567.349, 404.298 568.117, 403.953 566.693, 394.055 566.677, 393.942 565.677, 386.985 555.747, 388.174 555.324, 388.225 " fill="none" stroke="rgb(0, 0, 0)" stroke-linecap="round" stroke-linejoin="round" stroke-opacity="1.0" stroke-width="2.0" />
            <path d=" M 572.943, 420.055 563.819, 424.148 563.051, 424.493 557.728, 423.473 " fill="none" stroke="rgb(0, 0, 0)" stroke-linecap="round" stroke-linejoin="round" stroke-opacity="1.0" stroke-width="2.0" />
            <path d=" M 589.271, 448.249 581.639, 454.711 580.718, 455.490 575.167, 456.244 " fill="none" stroke="rgb(0, 0, 0)" stroke-linecap="round" stroke-linejoin="round" stroke-opacity="1.0" stroke-width="2.0" />
            <path d=" M 623.745, 474.878 614.990, 470.045 613.209, 469.062 " fill="none" stroke="rgb(0, 0, 0)" stroke-linecap="round" stroke-linejoin="round" stroke-opacity="1.0" stroke-width="2.0" />
            <path d=" M 627.389, 476.092 618.430, 471.651 613.209, 469.062 607.549, 477.306 606.755, 478.464 601.490, 480.918 " fill="none" stroke="rgb(0, 0, 0)" stroke-linecap="round" stroke-linejoin="round" stroke-opacity="1.0" stroke-width="2.0" />
            <path d=" M 653.167, 486.460 644.412, 481.628 642.631, 480.645 " fill="none" stroke="rgb(0, 0, 0)" stroke-linecap="round" stroke-linejoin="round" stroke-opacity="1.0" stroke-width="2.0" />
            <path d=" M 658.594, 482.618 648.670, 481.391 642.631, 480.645 639.306, 490.075 638.849, 491.371 634.332, 495.302 643.087, 500.134 644.868, 501.117 " fill="none" stroke="rgb(0, 0, 0)" stroke-linecap="round" stroke-linejoin="round" stroke-opacity="1.0" stroke-width="2.0" />
            <path d=" M 685.458, 487.783 676.703, 482.950 674.922, 481.967 " fill="none" stroke="rgb(0, 0, 0)" stroke-linecap="round" stroke-linejoin="round" stroke-opacity="1.0" stroke-width="2.0" />
            <path d=" M 691.250, 478.708 681.444, 480.665 674.922, 481.967 674.227, 491.943 674.149, 493.065 670.775, 498.121 679.530, 502.954 681.311, 503.937 " fill="none" stroke="rgb(0, 0, 0)" stroke-linecap="round" stroke-linejoin="round" stroke-opacity="1.0" stroke-width="2.0" />
            <path d=" M 717.749, 478.728 708.994, 473.896 707.213, 472.912 " fill="none" stroke="rgb(0, 0, 0)" stroke-linecap="round" stroke-linejoin="round" stroke-opacity="1.0" stroke-width="2.0" />
            <path d=" M 722.455, 464.711 713.649, 469.449 707.213, 472.912 709.359, 482.680 709.517, 483.396 707.581, 489.129 716.336, 493.962 718.117, 494.945 " fill="none" stroke="rgb(0, 0, 0)" stroke-linecap="round" stroke-linejoin="round" stroke-opacity="1.0" stroke-width="2.0" />
            <path d=" M 743.112, 481.509 734.358, 476.677 732.577, 475.694 727.631, 473.648 " fill="none" stroke="rgb(0, 0, 0)" stroke-linecap="round" stroke-linejoin="round" stroke-opacity="1.0" stroke-width="2.0" />
            <path d=" M 747.171, 460.101 738.416, 455.268 736.635, 454.285 " fill="none" stroke="rgb(0, 0, 0)" stroke-linecap="round" stroke-linejoin="round" stroke-opacity="1.0" stroke-width="2.0" />
            <path d=" M 757.025, 448.467 749.437, 441.869 742.258, 448.831 736.635, 454.285 741.647, 462.939 741.811, 463.223 741.482, 469.126 750.237, 473.959 752.018, 474.942 " fill="none" stroke="rgb(0, 0, 0)" stroke-linecap="round" stroke-linejoin="round" stroke-opacity="1.0" stroke-width="2.0" />
            <path d=" M 773.029, 454.597 764.274, 449.764 762.493, 448.781 759.046, 448.583 757.025, 448.467 " fill="none" stroke="rgb(0, 0, 0)" stroke-linecap="round" stroke-linejoin="round" stroke-opacity="1.0" stroke-width="2.0" />
            <path d=" M 771.109, 433.556 762.355, 428.723 760.574, 427.740 " fill="none" stroke="rgb(0, 0, 0)" stroke-linecap="round" stroke-linejoin="round" stroke-opacity="1.0" stroke-width="2.0" />
            <path d=" M 769.797, 412.214 764.690, 420.811 760.574, 427.740 768.162, 434.338 769.470, 439.891 778.224, 444.723 780.006, 445.706 " fill="none" stroke="rgb(0, 0, 0)" stroke-linecap="round" stroke-linejoin="round" stroke-opacity="1.0" stroke-width="2.0" />
            <path d=" M 784.627, 414.433 779.124, 415.886 769.797, 412.214 778.552, 417.046 780.333, 418.029 " fill="none" stroke="rgb(0, 0, 0)" stroke-linecap="round" stroke-linejoin="round" stroke-opacity="1.0" stroke-width="2.0" />
            <path d=" M 795.163, 420.248 786.408, 415.416 784.627, 414.433 787.325, 408.395 789.059, 404.019 " fill="none" stroke="rgb(0, 0, 0)" stroke-linecap="round" stroke-linejoin="round" stroke-opacity="1.0" stroke-width="2.0" />
            <path d=" M 786.229, 399.308 776.901, 395.637 " fill="none" stroke="rgb(0, 0, 0)" stroke-linecap="round" stroke-linejoin="round" stroke-opacity="1.0" stroke-width="2.0" />
            <path d=" M 796.764, 405.124 788.010, 400.292 787.795, 400.173 " fill="none" stroke="rgb(0, 0, 0)" stroke-linecap="round" stroke-linejoin="round" stroke-opacity="1.0" stroke-width="2.0" />
            <path d=" M 796.990, 375.715 791.964, 378.798 781.973, 378.389 781.728, 378.379 " fill="none" stroke="rgb(0, 0, 0)" stroke-linecap="round" stroke-linejoin="round" stroke-opacity="1.0" stroke-width="2.0" />
            <path d=" M 776.901, 395.637 779.595, 386.006 781.728, 378.379 790.482, 383.211 792.263, 384.195 " fill="none" stroke="rgb(0, 0, 0)" stroke-linecap="round" stroke-linejoin="round" stroke-opacity="1.0" stroke-width="2.0" />
            <path d=" M 787.795, 400.173 790.488, 390.542 792.263, 384.195 802.255, 384.604 802.500, 384.614 " fill="none" stroke="rgb(0, 0, 0)" stroke-linecap="round" stroke-linejoin="round" stroke-opacity="1.0" stroke-width="2.0" />
            <path d=" M 786.229, 399.308 787.463, 401.362 789.059, 404.019 797.814, 408.851 799.595, 409.834 " fill="none" stroke="rgb(0, 0, 0)" stroke-linecap="round" stroke-linejoin="round" stroke-opacity="1.0" stroke-width="2.0" />
        </g>
    </g>
</svg>
