<?xml version='1.0' encoding='ascii'?>
<svg xmlns="http://www.w3.org/2000/svg" xmlns:inkscape="http://www.inkscape.org/namespaces/inkscape" height="1123" version="1.1" width="794">
    <g id="View Layer_LineSet" inkscape:groupmode="lineset" inkscape:label="View Layer_LineSet">
        <g id="fills" inkscape:groupmode="layer" inkscape:label="fills" xmlns:inkscape="http://www.inkscape.org/namespaces/inkscape">
            <path d=" M 1119.667, 207.629 1113.125, 207.552 1113.056, 207.555 1109.147, 212.654 1107.734, 224.262 1101.853, 224.966 1101.314, 220.669 1097.406, 216.506 1086.870, 210.690 1086.801, 210.704 1080.259, 212.347 1078.000, 213.035 1075.368, 218.861 1076.781, 230.131 1068.776, 233.376 1068.162, 231.869 1063.297, 229.081 1052.761, 223.265 1048.573, 225.488 1044.470, 227.919 1043.266, 234.113 1047.408, 244.277 1037.620, 251.473 1027.358, 245.809 1021.843, 244.557 1019.968, 246.188 1014.772, 251.133 1014.719, 251.188 1015.027, 257.372 1021.616, 265.737 1011.348, 277.913 1002.038, 272.774 996.203, 273.144 996.157, 273.206 992.102, 279.231 990.782, 281.388 992.576, 287.053 1001.163, 293.049 993.391, 308.329 983.392, 305.111 977.716, 307.074 975.897, 311.666 974.282, 316.324 977.444, 321.131 986.948, 326.378 983.420, 340.837 972.690, 340.615 967.521, 344.039 967.129, 346.495 966.322, 353.565 966.317, 353.640 970.661, 357.286 981.197, 363.102 981.391, 363.106 981.391, 374.078 970.661, 376.868 966.317, 381.555 966.322, 381.629 967.129, 388.506 967.521, 390.867 978.057, 396.683 983.226, 398.869 985.497, 398.278 987.443, 405.787 977.444, 411.399 974.282, 416.964 975.898, 421.235 977.716, 425.391 988.252, 431.207 993.928, 431.811 998.518, 429.235 1001.163, 433.803 992.576, 441.855 990.782, 447.949 992.102, 449.790 996.158, 454.844 996.203, 454.894 1006.739, 460.710 1012.574, 459.683 1018.956, 453.699 1021.616, 456.216 1015.027, 466.159 1014.719, 472.417 1014.772, 472.459 1019.968, 476.160 1021.843, 477.343 1032.378, 483.159 1037.894, 480.585 1044.483, 470.643 1047.222, 472.001 1043.266, 482.656 1044.470, 488.563 1055.006, 494.378 1059.109, 495.826 1063.297, 497.047 1068.162, 493.094 1072.303, 481.938 1076.296, 482.600 1075.368, 490.222 1078.000, 495.417 1088.536, 501.233 1090.795, 501.380 1097.336, 501.457 1097.406, 501.454 1101.314, 496.355 1102.727, 484.747 1108.608, 484.043 1109.147, 488.341 1113.056, 492.504 1123.592, 498.319 1123.661, 498.305 1130.203, 496.662 1132.462, 495.974 1135.093, 490.148 1133.680, 478.878 1141.686, 475.633 1142.300, 477.140 1147.165, 479.929 1157.701, 485.744 1161.888, 483.521 1165.991, 481.090 1167.196, 474.896 1163.054, 464.732 1172.842, 457.536 1183.104, 463.200 1188.619, 464.453 1190.494, 462.821 1195.690, 457.876 1195.743, 457.821 1195.435, 451.637 1188.846, 443.272 1199.114, 431.096 1208.423, 436.235 1214.259, 435.865 1214.304, 435.803 1218.359, 429.778 1219.680, 427.622 1217.885, 421.956 1209.299, 415.961 1217.070, 400.680 1227.070, 403.898 1232.745, 401.935 1234.564, 397.343 1236.179, 392.685 1233.018, 387.878 1223.513, 382.631 1227.041, 368.172 1237.772, 368.394 1242.941, 364.970 1243.333, 362.515 1244.139, 355.444 1244.145, 355.369 1239.801, 351.723 1229.265, 345.907 1229.070, 345.903 1229.070, 337.007 1229.070, 334.932 1239.801, 332.141 1244.145, 327.454 1244.139, 327.380 1243.333, 320.503 1242.941, 318.142 1232.405, 312.326 1227.236, 310.140 1224.964, 310.731 1223.018, 303.223 1233.018, 297.610 1236.179, 292.045 1234.564, 287.774 1232.745, 283.618 1222.209, 277.802 1216.534, 277.198 1211.944, 279.774 1209.299, 275.207 1217.885, 267.155 1219.680, 261.060 1218.359, 259.220 1214.304, 254.166 1214.259, 254.115 1203.723, 248.299 1197.887, 249.326 1191.506, 255.310 1188.846, 252.793 1195.435, 242.850 1195.743, 236.592 1195.690, 236.550 1190.494, 232.849 1188.619, 231.666 1178.083, 225.851 1172.568, 228.424 1165.979, 238.366 1163.240, 237.008 1167.196, 226.353 1165.991, 220.447 1155.456, 214.631 1151.352, 213.183 1147.165, 211.963 1142.300, 215.916 1138.158, 227.071 1134.166, 226.409 1135.093, 218.787 1132.462, 213.592 1121.926, 207.776 1119.667, 207.629  z M 1110.499, 323.257 1112.071, 323.110 1113.639, 323.045 1115.200, 323.063 1116.749, 323.165 1118.284, 323.348 1119.799, 323.614 1121.292, 323.961 1121.980, 324.161 1122.618, 324.733 1123.702, 325.817 1124.729, 326.963 1125.697, 328.169 1126.603, 329.431 1127.444, 330.747 1128.219, 332.113 1128.926, 333.526 1129.563, 334.982 1130.129, 336.478 1130.623, 338.011 1131.042, 339.577 1131.386, 341.171 1131.655, 342.791 1131.848, 344.432 1131.964, 346.090 1132.002, 347.761 1131.964, 349.441 1131.848, 351.127 1131.655, 352.814 1131.386, 354.498 1131.042, 356.175 1130.622, 357.841 1130.129, 359.492 1129.563, 361.124 1128.926, 362.733 1128.219, 364.315 1127.444, 365.866 1126.603, 367.383 1125.697, 368.862 1124.729, 370.300 1123.702, 371.692 1122.618, 373.036 1121.479, 374.328 1120.288, 375.566 1119.049, 376.746 1117.763, 377.865 1116.434, 378.921 1115.066, 379.911 1113.661, 380.833 1112.224, 381.685 1110.757, 382.464 1109.263, 383.168 1107.748, 383.797 1106.213, 384.348 1104.664, 384.820 1103.103, 385.212 1101.535, 385.523 1099.963, 385.753 1098.391, 385.900 1096.823, 385.964 1095.262, 385.946 1093.712, 385.845 1092.178, 385.661 1090.662, 385.395 1089.169, 385.048 1088.482, 384.848 1087.844, 384.277 1086.759, 383.192 1085.732, 382.046 1084.765, 380.840 1083.859, 379.578 1083.018, 378.262 1082.243, 376.896 1081.536, 375.484 1080.898, 374.027 1080.332, 372.531 1079.839, 370.998 1079.420, 369.433 1079.075, 367.838 1078.806, 366.219 1078.614, 364.578 1078.498, 362.920 1078.459, 361.248 1078.498, 359.568 1078.614, 357.882 1078.806, 356.195 1079.075, 354.511 1079.420, 352.834 1079.839, 351.168 1080.332, 349.517 1080.898, 347.885 1081.536, 346.276 1082.243, 344.694 1083.018, 343.143 1083.859, 341.626 1084.765, 340.147 1085.732, 338.709 1086.759, 337.317 1087.844, 335.973 1088.982, 334.681 1090.173, 333.443 1091.413, 332.263 1092.699, 331.144 1094.027, 330.088 1095.396, 329.098 1096.800, 328.176 1098.238, 327.324 1099.705, 326.545 1101.198, 325.841 1102.714, 325.212 1104.248, 324.661 1105.798, 324.189 1107.358, 323.797 1108.927, 323.486 1110.499, 323.257  z" fill="rgb(204, 0, 0)" fill-opacity="1.0" fill_rule="evenodd" stroke="none" />
        </g>
        <g id="strokes" inkscape:groupmode="layer" inkscape:label="strokes" />
    </g>
</svg>
