<?xml version='1.0' encoding='ascii'?>
<svg xmlns="http://www.w3.org/2000/svg" xmlns:inkscape="http://www.inkscape.org/namespaces/inkscape" height="1123" version="1.1" width="794">
    <g id="View Layer_LineSet" inkscape:groupmode="lineset" inkscape:label="View Layer_LineSet">
        <g id="fills" inkscape:groupmode="layer" inkscape:label="fills" xmlns:inkscape="http://www.inkscape.org/namespaces/inkscape">
            <path d=" M 388.812, 769.029 390.365, 767.140 390.650, 766.760 389.785, 763.111 384.842, 758.625 388.452, 752.344 394.783, 754.417 398.351, 753.353 398.804, 752.240 399.400, 750.570 397.323, 747.656 391.246, 744.301 392.378, 738.572 399.240, 737.953 402.364, 735.603 402.438, 733.323 402.430, 732.722 399.421, 730.931 391.831, 726.742 391.531, 724.758 397.998, 721.530 400.233, 718.228 399.942, 717.288 399.331, 715.621 388.849, 709.835 391.225, 707.367 392.284, 703.540 390.991, 702.063 390.516, 701.577 379.980, 695.762 379.727, 695.832 379.569, 693.559 369.033, 687.744 368.317, 687.386 366.652, 686.669 363.502, 688.961 363.327, 689.333 353.276, 683.785 351.419, 683.742 350.594, 683.767 348.309, 687.034 347.677, 692.698 347.144, 692.223 336.608, 686.408 335.927, 686.645 333.992, 687.425 332.873, 691.239 334.568, 698.127 331.425, 700.058 324.626, 696.305 321.272, 695.243 319.837, 696.469 319.074, 697.182 319.277, 701.009 323.261, 706.492 318.800, 711.962 312.970, 708.743 309.348, 709.104 309.018, 709.632 307.859, 711.678 309.359, 715.025 315.094, 718.361 312.553, 725.122 305.842, 724.383 302.441, 726.117 302.071, 727.835 301.874, 729.003 304.458, 731.394 311.093, 735.056 310.987, 739.154 304.207, 741.111 301.482, 743.986 301.531, 744.438 301.889, 746.740 301.896, 746.774 312.432, 752.590 313.369, 752.907 308.284, 756.669 306.609, 760.291 307.327, 761.589 307.970, 762.620 318.053, 768.185 317.523, 768.955 317.120, 772.847 317.345, 773.031 319.087, 774.303 319.223, 774.391 329.758, 780.206 331.459, 779.375 331.600, 779.930 342.136, 785.746 343.416, 786.059 344.716, 786.302 347.477, 783.477 348.266, 780.710 358.635, 786.434 358.802, 786.412 361.026, 785.995 361.324, 785.923 363.057, 782.319 362.613, 775.069 363.952, 774.545 364.371, 774.784 374.907, 780.599 376.029, 779.949 377.360, 779.093 377.825, 775.210 374.936, 768.918 379.057, 765.293 385.228, 768.699 388.787, 769.057 388.812, 769.029  z M 339.238, 734.421 339.535, 733.461 339.873, 732.513 340.253, 731.579 340.673, 730.661 341.133, 729.762 341.631, 728.882 342.166, 728.026 342.737, 727.194 343.342, 726.388 343.981, 725.612 344.650, 724.865 345.350, 724.151 346.078, 723.471 346.832, 722.827 347.611, 722.220 348.413, 721.651 349.235, 721.123 350.077, 720.636 350.935, 720.191 351.807, 719.790 352.693, 719.433 353.588, 719.121 354.492, 718.856 355.403, 718.638 356.317, 718.466 357.233, 718.343 358.148, 718.267 359.061, 718.240 359.969, 718.260 360.870, 718.329 361.152, 718.366 361.609, 718.949 362.128, 719.691 362.610, 720.464 363.054, 721.265 363.457, 722.094 363.820, 722.947 364.141, 723.823 364.419, 724.721 364.654, 725.636 364.846, 726.568 364.993, 727.514 365.096, 728.472 365.154, 729.440 365.167, 730.415 365.135, 731.395 365.058, 732.377 364.937, 733.359 364.771, 734.340 364.561, 735.315 364.308, 736.284 364.011, 737.244 363.673, 738.192 363.293, 739.126 362.873, 740.044 362.413, 740.943 361.915, 741.823 361.380, 742.679 360.809, 743.511 360.204, 744.317 359.565, 745.093 358.895, 745.840 358.196, 746.553 357.468, 747.233 356.714, 747.878 355.935, 748.485 355.133, 749.054 354.311, 749.582 353.469, 750.069 352.611, 750.514 351.739, 750.915 350.853, 751.272 349.958, 751.584 349.054, 751.849 348.143, 752.067 347.229, 752.239 346.313, 752.362 345.398, 752.438 344.485, 752.465 343.577, 752.445 342.676, 752.376 342.394, 752.339 341.937, 751.756 341.418, 751.014 340.935, 750.241 340.492, 749.439 340.089, 748.611 339.726, 747.758 339.405, 746.881 339.127, 745.984 338.892, 745.069 338.700, 744.137 338.553, 743.191 338.450, 742.233 338.392, 741.265 338.379, 740.290 338.411, 739.310 338.488, 738.328 338.609, 737.346 338.775, 736.365 338.985, 735.390 339.238, 734.421  z" fill="rgb(204, 0, 0)" fill-opacity="1.0" fill_rule="evenodd" stroke="none" />
        </g>
        <g id="strokes" inkscape:groupmode="layer" inkscape:label="strokes">
            <path d=" M 380.114, 760.944 379.829, 761.324 378.338, 763.139 378.276, 763.214 378.251, 763.241 " fill="none" stroke="rgb(0, 0, 0)" stroke-linecap="round" stroke-linejoin="round" stroke-opacity="1.0" stroke-width="2.0" />
            <path d=" M 379.057, 765.293 385.228, 768.699 388.787, 769.057 388.812, 769.029 390.365, 767.140 390.650, 766.760 389.785, 763.111 384.842, 758.625 388.452, 752.344 394.783, 754.417 398.351, 753.353 398.804, 752.240 399.400, 750.570 397.323, 747.656 391.246, 744.301 " fill="none" stroke="rgb(0, 0, 0)" stroke-linecap="round" stroke-linejoin="round" stroke-opacity="1.0" stroke-width="2.0" />
            <path d=" M 350.788, 780.108 350.490, 780.179 348.301, 780.590 348.267, 780.596 348.100, 780.618 " fill="none" stroke="rgb(0, 0, 0)" stroke-linecap="round" stroke-linejoin="round" stroke-opacity="1.0" stroke-width="2.0" />
            <path d=" M 345.523, 770.492 345.747, 774.158 345.967, 777.742 348.100, 780.618 348.266, 780.710 357.021, 785.543 358.635, 786.434 358.802, 786.412 361.026, 785.995 361.324, 785.923 363.057, 782.319 362.613, 775.069 363.952, 774.545 " fill="none" stroke="rgb(0, 0, 0)" stroke-linecap="round" stroke-linejoin="round" stroke-opacity="1.0" stroke-width="2.0" />
            <path d=" M 317.520, 757.937 320.488, 761.251 321.809, 762.726 318.208, 767.959 318.053, 768.185 317.523, 768.955 317.120, 772.847 317.345, 773.031 319.087, 774.303 319.223, 774.391 327.977, 779.223 329.758, 780.206 331.459, 779.375 " fill="none" stroke="rgb(0, 0, 0)" stroke-linecap="round" stroke-linejoin="round" stroke-opacity="1.0" stroke-width="2.0" />
            <path d=" M 311.168, 732.133 311.117, 734.105 311.093, 735.056 310.987, 739.154 304.207, 741.111 301.482, 743.986 301.531, 744.438 301.889, 746.740 301.896, 746.774 310.651, 751.607 312.432, 752.590 313.369, 752.907 " fill="none" stroke="rgb(0, 0, 0)" stroke-linecap="round" stroke-linejoin="round" stroke-opacity="1.0" stroke-width="2.0" />
            <path d=" M 342.394, 752.339 341.937, 751.756 341.418, 751.014 340.935, 750.241 340.492, 749.439 340.089, 748.611 339.726, 747.758 339.405, 746.881 339.127, 745.984 338.892, 745.069 338.700, 744.137 338.553, 743.191 338.450, 742.233 338.392, 741.265 338.379, 740.290 338.411, 739.310 338.488, 738.328 338.609, 737.346 338.775, 736.365 338.985, 735.390 339.238, 734.421 339.535, 733.461 339.873, 732.513 340.253, 731.579 340.673, 730.661 341.133, 729.762 341.631, 728.882 342.166, 728.026 342.737, 727.194 343.342, 726.388 343.981, 725.612 344.650, 724.865 345.350, 724.151 346.078, 723.471 346.832, 722.827 347.611, 722.220 348.413, 721.651 349.235, 721.123 350.077, 720.636 350.935, 720.191 351.807, 719.790 352.693, 719.433 353.588, 719.121 354.492, 718.856 355.403, 718.638 356.317, 718.466 357.233, 718.343 358.148, 718.267 359.061, 718.240 359.969, 718.260 360.870, 718.329 361.152, 718.366 " fill="none" stroke="rgb(0, 0, 0)" stroke-linecap="round" stroke-linejoin="round" stroke-opacity="1.0" stroke-width="2.0" />
            <path d=" M 356.264, 714.317 355.471, 713.922 354.657, 713.572 353.824, 713.266 352.973, 713.008 352.106, 712.796 351.226, 712.631 350.334, 712.514 349.433, 712.445 348.525, 712.424 347.612, 712.451 346.697, 712.527 345.781, 712.651 344.867, 712.822 343.957, 713.040 343.052, 713.306 342.157, 713.617 341.271, 713.974 340.399, 714.375 339.541, 714.820 338.699, 715.307 337.877, 715.836 337.075, 716.404 336.297, 717.012 335.542, 717.656 334.814, 718.336 334.115, 719.050 333.445, 719.796 332.806, 720.573 332.201, 721.378 331.630, 722.210 331.095, 723.067 330.597, 723.946 330.137, 724.846 329.717, 725.764 329.337, 726.698 328.999, 727.646 328.702, 728.605 328.449, 729.574 328.239, 730.550 328.073, 731.530 327.952, 732.512 327.875, 733.495 327.843, 734.474 327.856, 735.449 327.914, 736.417 328.017, 737.375 328.164, 738.321 328.356, 739.253 328.591, 740.169 328.869, 741.066 329.190, 741.942 329.553, 742.795 329.956, 743.624 330.400, 744.425 330.882, 745.198 331.401, 745.940 331.958, 746.649 332.549, 747.325 333.173, 747.964 333.830, 748.566 334.518, 749.129 335.234, 749.652 335.978, 750.133 336.746, 750.572 337.539, 750.967 338.353, 751.318 339.186, 751.623 340.037, 751.882 340.904, 752.094 341.785, 752.259 342.394, 752.339 342.676, 752.376 343.577, 752.445 344.485, 752.465 345.398, 752.438 346.313, 752.362 347.229, 752.239 348.143, 752.067 349.054, 751.849 349.958, 751.584 350.853, 751.272 351.739, 750.915 352.611, 750.514 353.469, 750.069 354.311, 749.582 355.133, 749.054 355.935, 748.485 356.714, 747.878 357.468, 747.233 358.196, 746.553 358.895, 745.840 359.565, 745.093 360.204, 744.317 360.809, 743.511 361.380, 742.679 361.915, 741.823 362.413, 740.943 362.873, 740.044 363.293, 739.126 363.673, 738.192 364.011, 737.244 364.308, 736.284 364.561, 735.315 364.771, 734.340 364.937, 733.359 365.058, 732.377 365.135, 731.395 365.167, 730.415 365.154, 729.440 365.096, 728.472 364.993, 727.514 364.846, 726.568 364.654, 725.636 364.419, 724.721 364.141, 723.823 363.820, 722.947 363.457, 722.094 363.054, 721.265 362.610, 720.464 362.128, 719.691 361.609, 718.949 361.152, 718.366 361.053, 718.240 360.461, 717.565 359.837, 716.926 359.180, 716.324 358.492, 715.760 357.776, 715.238 357.033, 714.756 356.264, 714.317 " fill="none" stroke="rgb(0, 0, 0)" stroke-linecap="round" stroke-linejoin="round" stroke-opacity="1.0" stroke-width="2.0" />
            <path d=" M 379.727, 695.832 379.569, 693.559 370.814, 688.727 369.033, 687.744 368.317, 687.386 366.652, 686.669 363.502, 688.961 363.327, 689.333 363.207, 689.586 360.274, 695.806 358.556, 695.436 354.008, 694.455 " fill="none" stroke="rgb(0, 0, 0)" stroke-linecap="round" stroke-linejoin="round" stroke-opacity="1.0" stroke-width="2.0" />
            <path d=" M 353.276, 683.785 354.830, 687.091 354.008, 694.455 " fill="none" stroke="rgb(0, 0, 0)" stroke-linecap="round" stroke-linejoin="round" stroke-opacity="1.0" stroke-width="2.0" />
            <path d=" M 363.327, 689.333 354.572, 684.500 353.276, 683.785 351.419, 683.742 350.594, 683.767 348.309, 687.034 347.677, 692.698 347.487, 694.397 343.994, 695.057 340.933, 695.636 " fill="none" stroke="rgb(0, 0, 0)" stroke-linecap="round" stroke-linejoin="round" stroke-opacity="1.0" stroke-width="2.0" />
            <path d=" M 336.608, 686.408 339.237, 688.747 340.933, 695.636 " fill="none" stroke="rgb(0, 0, 0)" stroke-linecap="round" stroke-linejoin="round" stroke-opacity="1.0" stroke-width="2.0" />
            <path d=" M 347.677, 692.698 347.144, 692.223 338.389, 687.391 336.608, 686.408 335.927, 686.645 333.992, 687.425 332.873, 691.239 334.568, 698.127 331.425, 700.058 330.749, 700.474 328.610, 701.787 " fill="none" stroke="rgb(0, 0, 0)" stroke-linecap="round" stroke-linejoin="round" stroke-opacity="1.0" stroke-width="2.0" />
            <path d=" M 318.704, 712.080 318.800, 711.962 323.261, 706.492 319.277, 701.009 319.074, 697.182 319.837, 696.469 321.272, 695.243 324.626, 696.305 328.610, 701.787 " fill="none" stroke="rgb(0, 0, 0)" stroke-linecap="round" stroke-linejoin="round" stroke-opacity="1.0" stroke-width="2.0" />
            <path d=" M 311.093, 735.056 304.458, 731.394 301.874, 729.003 302.071, 727.835 302.441, 726.117 305.842, 724.383 312.553, 725.122 315.094, 718.361 309.359, 715.025 307.859, 711.678 309.018, 709.632 309.348, 709.104 312.970, 708.743 318.704, 712.080 " fill="none" stroke="rgb(0, 0, 0)" stroke-linecap="round" stroke-linejoin="round" stroke-opacity="1.0" stroke-width="2.0" />
            <path d=" M 311.168, 732.133 304.458, 731.394 " fill="none" stroke="rgb(0, 0, 0)" stroke-linecap="round" stroke-linejoin="round" stroke-opacity="1.0" stroke-width="2.0" />
            <path d=" M 318.053, 768.185 309.298, 763.353 307.970, 762.620 307.327, 761.589 306.609, 760.291 308.284, 756.669 313.369, 752.907 314.218, 752.279 312.997, 748.769 312.015, 745.947 305.235, 747.904 301.896, 746.774 " fill="none" stroke="rgb(0, 0, 0)" stroke-linecap="round" stroke-linejoin="round" stroke-opacity="1.0" stroke-width="2.0" />
            <path d=" M 317.520, 757.937 311.586, 762.327 307.970, 762.620 " fill="none" stroke="rgb(0, 0, 0)" stroke-linecap="round" stroke-linejoin="round" stroke-opacity="1.0" stroke-width="2.0" />
            <path d=" M 326.940, 766.484 322.653, 772.714 319.223, 774.391 " fill="none" stroke="rgb(0, 0, 0)" stroke-linecap="round" stroke-linejoin="round" stroke-opacity="1.0" stroke-width="2.0" />
            <path d=" M 332.736, 769.083 332.588, 769.602 330.676, 776.311 331.459, 779.375 331.600, 779.930 340.355, 784.763 342.136, 785.746 343.416, 786.059 344.716, 786.302 347.477, 783.477 348.266, 780.710 " fill="none" stroke="rgb(0, 0, 0)" stroke-linecap="round" stroke-linejoin="round" stroke-opacity="1.0" stroke-width="2.0" />
            <path d=" M 332.736, 769.083 332.554, 769.002 326.940, 766.484 332.588, 769.602 " fill="none" stroke="rgb(0, 0, 0)" stroke-linecap="round" stroke-linejoin="round" stroke-opacity="1.0" stroke-width="2.0" />
            <path d=" M 334.180, 780.487 332.880, 780.244 331.600, 779.930 " fill="none" stroke="rgb(0, 0, 0)" stroke-linecap="round" stroke-linejoin="round" stroke-opacity="1.0" stroke-width="2.0" />
            <path d=" M 339.002, 770.434 338.483, 772.255 338.357, 772.695 336.942, 777.662 334.180, 780.487 342.935, 785.319 344.716, 786.302 " fill="none" stroke="rgb(0, 0, 0)" stroke-linecap="round" stroke-linejoin="round" stroke-opacity="1.0" stroke-width="2.0" />
            <path d=" M 345.523, 770.492 339.002, 770.434 345.747, 774.158 " fill="none" stroke="rgb(0, 0, 0)" stroke-linecap="round" stroke-linejoin="round" stroke-opacity="1.0" stroke-width="2.0" />
            <path d=" M 362.613, 775.069 353.858, 770.237 352.077, 769.254 " fill="none" stroke="rgb(0, 0, 0)" stroke-linecap="round" stroke-linejoin="round" stroke-opacity="1.0" stroke-width="2.0" />
            <path d=" M 379.057, 765.293 374.936, 768.918 377.825, 775.210 377.360, 779.093 376.029, 779.949 374.907, 780.599 366.152, 775.767 364.371, 774.784 363.952, 774.545 361.331, 773.055 358.442, 766.762 352.077, 769.254 352.385, 774.280 352.508, 776.276 352.522, 776.503 350.788, 780.108 359.543, 784.940 361.324, 785.923 " fill="none" stroke="rgb(0, 0, 0)" stroke-linecap="round" stroke-linejoin="round" stroke-opacity="1.0" stroke-width="2.0" />
            <path d=" M 366.825, 773.278 366.256, 773.643 365.493, 774.133 364.371, 774.784 " fill="none" stroke="rgb(0, 0, 0)" stroke-linecap="round" stroke-linejoin="round" stroke-opacity="1.0" stroke-width="2.0" />
            <path d=" M 374.936, 768.918 366.181, 764.085 364.400, 763.102 " fill="none" stroke="rgb(0, 0, 0)" stroke-linecap="round" stroke-linejoin="round" stroke-opacity="1.0" stroke-width="2.0" />
            <path d=" M 374.692, 762.883 369.749, 758.398 364.400, 763.102 367.289, 769.395 367.036, 771.506 366.825, 773.278 366.976, 773.361 375.731, 778.194 377.360, 779.093 " fill="none" stroke="rgb(0, 0, 0)" stroke-linecap="round" stroke-linejoin="round" stroke-opacity="1.0" stroke-width="2.0" />
            <path d=" M 388.787, 769.057 380.179, 764.306 378.251, 763.241 374.692, 762.883 " fill="none" stroke="rgb(0, 0, 0)" stroke-linecap="round" stroke-linejoin="round" stroke-opacity="1.0" stroke-width="2.0" />
            <path d=" M 384.842, 758.625 376.087, 753.793 374.306, 752.810 " fill="none" stroke="rgb(0, 0, 0)" stroke-linecap="round" stroke-linejoin="round" stroke-opacity="1.0" stroke-width="2.0" />
            <path d=" M 377.916, 746.528 374.306, 752.810 379.249, 757.295 380.114, 760.944 388.869, 765.777 390.650, 766.760 " fill="none" stroke="rgb(0, 0, 0)" stroke-linecap="round" stroke-linejoin="round" stroke-opacity="1.0" stroke-width="2.0" />
            <path d=" M 387.816, 747.537 384.247, 748.601 377.916, 746.528 386.671, 751.361 388.452, 752.344 " fill="none" stroke="rgb(0, 0, 0)" stroke-linecap="round" stroke-linejoin="round" stroke-opacity="1.0" stroke-width="2.0" />
            <path d=" M 398.351, 753.353 389.597, 748.520 387.816, 747.537 388.268, 746.424 388.864, 744.755 " fill="none" stroke="rgb(0, 0, 0)" stroke-linecap="round" stroke-linejoin="round" stroke-opacity="1.0" stroke-width="2.0" />
            <path d=" M 386.788, 741.840 380.457, 739.767 " fill="none" stroke="rgb(0, 0, 0)" stroke-linecap="round" stroke-linejoin="round" stroke-opacity="1.0" stroke-width="2.0" />
            <path d=" M 391.828, 729.787 390.785, 730.572 388.704, 732.137 381.842, 732.757 " fill="none" stroke="rgb(0, 0, 0)" stroke-linecap="round" stroke-linejoin="round" stroke-opacity="1.0" stroke-width="2.0" />
            <path d=" M 380.457, 739.767 381.842, 732.757 390.597, 737.589 392.378, 738.572 " fill="none" stroke="rgb(0, 0, 0)" stroke-linecap="round" stroke-linejoin="round" stroke-opacity="1.0" stroke-width="2.0" />
            <path d=" M 391.246, 744.301 392.378, 738.572 399.240, 737.953 402.364, 735.603 402.438, 733.323 402.430, 732.722 399.421, 730.931 391.831, 726.742 " fill="none" stroke="rgb(0, 0, 0)" stroke-linecap="round" stroke-linejoin="round" stroke-opacity="1.0" stroke-width="2.0" />
            <path d=" M 386.788, 741.840 388.456, 744.182 388.864, 744.755 397.619, 749.587 399.400, 750.570 " fill="none" stroke="rgb(0, 0, 0)" stroke-linecap="round" stroke-linejoin="round" stroke-opacity="1.0" stroke-width="2.0" />
            <path d=" M 402.364, 735.603 393.609, 730.770 392.334, 730.067 391.828, 729.787 391.902, 727.507 391.898, 727.183 391.894, 726.906 " fill="none" stroke="rgb(0, 0, 0)" stroke-linecap="round" stroke-linejoin="round" stroke-opacity="1.0" stroke-width="2.0" />
            <path d=" M 388.885, 725.116 382.023, 725.735 " fill="none" stroke="rgb(0, 0, 0)" stroke-linecap="round" stroke-linejoin="round" stroke-opacity="1.0" stroke-width="2.0" />
            <path d=" M 389.697, 712.413 387.614, 715.489 387.462, 715.714 385.863, 716.513 380.995, 718.943 " fill="none" stroke="rgb(0, 0, 0)" stroke-linecap="round" stroke-linejoin="round" stroke-opacity="1.0" stroke-width="2.0" />
            <path d=" M 382.023, 725.735 380.995, 718.943 389.750, 723.775 391.531, 724.758 " fill="none" stroke="rgb(0, 0, 0)" stroke-linecap="round" stroke-linejoin="round" stroke-opacity="1.0" stroke-width="2.0" />
            <path d=" M 391.831, 726.742 391.531, 724.758 397.998, 721.530 400.233, 718.228 399.942, 717.288 399.331, 715.621 390.576, 710.788 388.849, 709.835 388.795, 709.805 385.259, 709.381 382.440, 710.789 378.792, 712.610 " fill="none" stroke="rgb(0, 0, 0)" stroke-linecap="round" stroke-linejoin="round" stroke-opacity="1.0" stroke-width="2.0" />
            <path d=" M 388.885, 725.116 391.852, 726.881 391.894, 726.906 400.649, 731.739 402.430, 732.722 " fill="none" stroke="rgb(0, 0, 0)" stroke-linecap="round" stroke-linejoin="round" stroke-opacity="1.0" stroke-width="2.0" />
            <path d=" M 400.233, 718.228 391.478, 713.396 389.697, 712.413 389.406, 711.473 388.818, 709.867 388.795, 709.805 " fill="none" stroke="rgb(0, 0, 0)" stroke-linecap="round" stroke-linejoin="round" stroke-opacity="1.0" stroke-width="2.0" />
            <path d=" M 375.490, 706.953 382.440, 710.789 " fill="none" stroke="rgb(0, 0, 0)" stroke-linecap="round" stroke-linejoin="round" stroke-opacity="1.0" stroke-width="2.0" />
            <path d=" M 381.748, 697.724 380.689, 701.551 377.494, 704.871 377.012, 705.371 375.490, 706.953 378.792, 712.610 " fill="none" stroke="rgb(0, 0, 0)" stroke-linecap="round" stroke-linejoin="round" stroke-opacity="1.0" stroke-width="2.0" />
            <path d=" M 388.849, 709.835 391.225, 707.367 392.284, 703.540 390.991, 702.063 390.516, 701.577 381.761, 696.745 379.980, 695.762 379.727, 695.832 376.399, 696.762 371.783, 701.558 371.201, 702.163 " fill="none" stroke="rgb(0, 0, 0)" stroke-linecap="round" stroke-linejoin="round" stroke-opacity="1.0" stroke-width="2.0" />
            <path d=" M 392.284, 703.540 383.529, 698.707 381.748, 697.724 380.456, 696.248 379.980, 695.762 " fill="none" stroke="rgb(0, 0, 0)" stroke-linecap="round" stroke-linejoin="round" stroke-opacity="1.0" stroke-width="2.0" />
            <path d=" M 369.033, 687.744 369.299, 691.560 366.070, 698.405 " fill="none" stroke="rgb(0, 0, 0)" stroke-linecap="round" stroke-linejoin="round" stroke-opacity="1.0" stroke-width="2.0" />
            <path d=" M 371.201, 702.163 366.070, 698.405 371.783, 701.558 " fill="none" stroke="rgb(0, 0, 0)" stroke-linecap="round" stroke-linejoin="round" stroke-opacity="1.0" stroke-width="2.0" />
            <path d=" M 318.800, 711.962 312.970, 708.743 " fill="none" stroke="rgb(0, 0, 0)" stroke-linecap="round" stroke-linejoin="round" stroke-opacity="1.0" stroke-width="2.0" />
            <path d=" M 331.425, 700.058 324.626, 696.305 " fill="none" stroke="rgb(0, 0, 0)" stroke-linecap="round" stroke-linejoin="round" stroke-opacity="1.0" stroke-width="2.0" />
        </g>
    </g>
</svg>
